dLoss,Perplexity,NumTrajs,MinReturn,AverageReturn,MeanKL,MaxReturn,LossAfter,ExplainedVariance,AveragePolicyStd,LossBefore,Total cost,Entropy,Iteration,StdReturn,MeanKLBefore,AverageDiscountedReturn
0.0249596192606,4.13273135412,404,-321.033846309,-248.737993907,0.00152202969642,-178.700790775,-0.0249596192606,4.84012829816e-12,1.0,-0.0,353.9614662144471,1.4189385332,0,29.1681105665,0.0,-161.433339519
0.0631596074312,4.0618148758,404,-327.028301206,-250.889964015,0.00249349015391,-164.835255751,-0.0631596074312,0.902803394113,0.982840288361,6.7689390764e-17,346.68697066231294,1.40162988748,1,29.3768253567,0.0,-162.9204024
0.0383064843853,3.95207194463,404,-328.503332975,-253.03910481,0.000992615931279,-170.944197063,-0.0383064843853,0.904752734881,0.956285711794,1.94772982014e-16,341.7640167837277,1.37423998433,2,30.6125202636,0.0,-164.113778799
0.0463814277624,3.90169468129,404,-332.363958555,-255.82986864,0.00147200739845,-174.700791134,-0.0463814277624,0.897450785609,0.944095888885,-3.03443844873e-17,337.8555004834273,1.36141099242,3,32.5933638617,0.0,-165.77312687
0.0203325893757,3.83822756204,404,-315.427049924,-255.865079922,0.00346352459012,-185.797137818,-0.0203325893757,0.906349901352,0.928738704057,2.4459303372e-17,329.31098990157653,1.34501068766,4,30.1325801781,0.0,-165.872525045
0.0227346973509,3.71287230614,404,-330.237204921,-261.774252837,0.00168193711751,-176.401674024,-0.0227346973509,0.907311181195,0.898406401964,-1.95246520148e-17,325.6337274695111,1.31180578358,5,31.5629175044,0.0,-169.660596674
0.0123569861672,3.63449369487,404,-340.038955824,-261.703310694,0.00100299719469,-178.958550129,-0.0123569861672,0.901234059832,0.879441072609,3.6323970215e-18,320.71935700225845,1.29046981514,6,33.7021036558,0.0,-170.264904517
0.0287355521219,3.59765701063,404,-342.905420206,-260.844517473,0.00198823429697,-175.897174365,-0.0287355521219,0.909801949181,0.870527673435,3.39955187405e-17,318.3042575147841,1.2802828032,7,30.5817959786,0.0,-169.477374693
0.0212669806717,3.515305947,404,-331.011118635,-257.668991525,0.00262684489508,-176.801162898,-0.0212669806717,0.897905948926,0.850601126901,2.49993457491e-17,308.2011111913454,1.25712656187,8,32.2499764667,0.0,-167.278216148
0.0209498910078,3.40891336094,404,-333.707065308,-262.440938376,0.00180463225335,-186.684002501,-0.0209498910078,0.908808881007,0.82485723577,2.45012559198e-18,306.81156250344765,1.22639357803,9,31.5023783444,0.0,-170.425266866
0.0536647718866,3.32900315142,404,-342.338574208,-264.521791506,0.00167193678293,-175.91182903,-0.0536647718866,0.913514573716,0.805521304475,-2.47370725885e-17,303.32564625922527,1.20267290525,10,30.4168811378,0.0,-171.607493375
0.033093966297,3.26443930336,404,-337.278196869,-260.096254319,0.00251307030518,-168.4970779,-0.033093966297,0.904950546543,0.789898743383,-1.92292573655e-16,296.9325108757583,1.18308801854,11,31.0302603568,0.0,-169.034812829
0.0176237288787,3.18811371479,404,-337.529031608,-254.31566021,0.00198715698143,-180.55734241,-0.0176237288787,0.898199850355,0.771430185418,-2.58795080921e-17,289.7949315629376,1.15942942993,12,31.6357021915,0.0,-165.21850152
0.0263629626157,3.12506328531,404,-329.895405794,-250.98543696,0.00169024707374,-167.996976061,-0.0263629626157,0.901071608203,0.756173827314,3.8884154909e-17,284.8210723655494,1.13945453428,13,30.2383094086,0.0,-163.32904612
0.0322825445896,3.06900849906,404,-327.63105482,-248.460088778,0.00182458120978,-174.50236803,-0.0322825445896,0.894288128398,0.742610210073,-7.01967979258e-17,281.0968783538534,1.12135454496,14,30.1702252298,0.0,-161.865296082
0.0526762430078,3.02762336917,404,-337.327052928,-250.032396864,0.00178712227296,-172.750000163,-0.0526762430078,0.894700697514,0.732596220209,1.87707834459e-16,280.3847959741545,1.10777794513,15,31.9610963948,0.0,-162.676739452
0.0239995441283,2.97150814753,404,-333.707771512,-243.802818001,0.00177857653924,-167.899658014,-0.0239995441283,0.890877044,0.719017979371,-1.05131119805e-16,272.9874913029667,1.08906961771,16,30.4909709588,0.0,-159.226268842
0.0375399316392,2.9494708532,404,-322.288068163,-249.30001085,0.00184960428839,-167.036249522,-0.0375399316392,0.894511748712,0.713685599296,2.47406964358e-17,276.46330502456954,1.08162578246,17,29.5524803132,0.0,-162.034160889
0.0281564790285,2.86798365546,404,-319.043051756,-246.914685128,0.00161259509757,-174.935607949,-0.0281564790285,0.892999360699,0.693968083021,-4.05308249435e-17,271.96901110345357,1.05360922379,18,30.4826765284,0.0,-160.935342975
0.0433015184051,2.82369894381,404,-324.414099013,-246.255781649,0.00239863325387,-164.347332038,-0.0433015184051,0.892358033051,0.683252479257,9.58635921119e-17,269.89507477052575,1.03804770765,19,30.8000126575,0.0,-160.153403691
0.024799096983,2.77199547131,404,-315.978219345,-243.801987422,0.00160474865794,-169.071285054,-0.024799096983,0.888649274143,0.670741752556,-1.70007915371e-16,265.6392137490568,1.0195674476,20,29.9790081333,0.0,-158.280242998
0.0409263016163,2.71801485911,404,-324.747122529,-240.055892807,0.00206895905497,-172.58289389,-0.0409263016163,0.884175736497,0.657680024714,-1.45480765373e-16,260.3242580791238,0.999901782643,21,30.7466944832,0.0,-156.39108805
0.0293891004822,2.67845353245,404,-323.119628937,-240.148816355,0.00193789106244,-160.111057926,-0.0293891004822,0.886574061036,0.648107341837,-2.66372958133e-16,260.7931900366435,0.985239587839,22,30.5559010554,0.0,-156.214138252
0.0598534883231,2.64101783041,404,-312.380915849,-237.263384015,0.00170690753963,-177.87803348,-0.0598534883231,0.885075110753,0.639048997893,1.38449718813e-16,256.64228366569984,0.971164384679,23,30.2364178524,0.0,-154.589650242
0.0528579025267,2.60671900776,404,-317.263151198,-233.906172257,0.00172791021671,-172.152501277,-0.0528579025267,0.877985867713,0.630749686926,2.38211665472e-16,251.62526557132517,0.958092345391,24,30.5286493241,0.0,-152.715308101
0.0128461706414,2.55632909442,404,-323.491357223,-234.062558076,0.00370783720081,-165.163759714,-0.0128461706414,0.879253308737,0.618556803087,-1.66450047897e-16,251.83359381500605,0.938572281914,25,30.6153711248,0.0,-152.752912026
0.039908054821,2.51409228923,404,-308.274992691,-228.318335693,0.00187388504081,-174.801912235,-0.039908054821,0.877225599684,0.608336732734,3.49049999043e-17,245.22049386580684,0.921911819611,26,27.9703688277,0.0,-149.303860818
0.0184307978796,2.46810711635,404,-297.885842864,-227.784603001,0.0028283478522,-149.12063355,-0.0184307978796,0.877898194186,0.597209667135,8.4680881425e-17,244.18930362425536,0.903451507189,27,29.1058050427,0.0,-149.201752579
0.0477713830058,2.43430079927,404,-311.33132039,-224.659021253,0.00139789108144,-161.462010077,-0.0477713830058,0.873634494024,0.589029528097,-3.88113872019e-17,240.35698477543673,0.88965956921,28,30.3248763549,0.0,-147.273631857
0.0281410580876,2.39733298352,404,-304.39514265,-223.240066046,0.00128718068666,-143.986486178,-0.0281410580876,0.865900525791,0.580084398936,9.17057476461e-17,238.7780007157427,0.874356862583,29,30.8208346663,0.0,-146.469728175
0.0458329873636,2.392945318,404,-297.620322416,-221.468521887,0.00148406702906,-150.660135549,-0.0458329873636,0.869472311741,0.57902271233,-4.30300152583e-17,236.8689158107974,0.872524957848,30,29.2294346864,0.0,-145.368704487
0.033925396995,2.37219553367,404,-309.699697005,-220.691546544,0.00224441219034,-152.336573194,-0.033925396995,0.855969643852,0.574001871982,-1.27081136387e-16,236.03501324861946,0.86381591183,31,32.3482447969,0.0,-144.962204914
0.025896140833,2.3485095324,404,-298.393388573,-219.844160056,0.00170439486316,-145.82964682,-0.025896140833,0.854389305195,0.568270553096,1.18177981498e-16,235.1717768025189,0.85378088541,32,32.3895731369,0.0,-144.122168833
0.0194304880821,2.34827838467,404,-302.550984859,-222.094849552,0.00124151522629,-146.957558243,-0.0194304880821,0.854871418896,0.568214622112,9.89801814342e-17,236.84720815992117,0.853682457405,33,32.124914152,0.0,-145.323170282
0.0549729594121,2.33207180566,404,-301.204082984,-216.360258901,0.00189465213321,-148.797363869,-0.0549729594121,0.84206051692,0.564293104446,1.01692990691e-16,231.11456583116458,0.846757059464,34,33.421681623,0.0,-142.47783712
0.0198003689951,2.29309789953,404,-301.194517932,-214.919581628,0.00130917478415,-140.015856634,-0.0198003689951,0.8511856903,0.554862560144,1.58267059885e-17,229.753560470391,0.82990369792,35,31.40128224,0.0,-141.898323987
0.0304632102261,2.27411176212,404,-301.43246415,-213.639983334,0.000615493187125,-140.666417878,-0.0304632102261,0.840943447531,0.550268470718,2.50593481518e-16,228.8253857718329,0.821589541931,36,33.6779550746,0.0,-141.196854734
0.017303589187,2.2740128836,404,-295.007504463,-212.508884079,0.00239151466085,-142.855231581,-0.017303589187,0.840701488625,0.550244545012,-2.51991376521e-16,227.8602536837495,0.821546060926,37,34.2256316023,0.0,-140.719239822
0.0519621985146,2.2689729832,404,-285.780986541,-210.387998753,0.00280008226447,-144.75383486,-0.0519621985146,0.836948446292,0.54902503666,-1.6226131959e-16,226.26319344123317,0.819327298809,38,33.4185742432,0.0,-139.053012516
0.0214979849956,2.25040899399,404,-279.554580247,-201.356181786,0.00237584240475,-134.663353292,-0.0214979849956,0.836114882981,0.544533094739,3.48733316787e-17,218.22566920978716,0.811111974802,39,29.7617229007,0.0,-134.179853826
0.0368835775069,2.23021661181,404,-291.670072735,-199.985268537,0.0018999189616,-130.731344824,-0.0368835775069,0.840305574103,0.539647129394,1.27644803922e-16,216.73644010704223,0.802098716095,40,30.4772672464,0.0,-133.553461252
0.00913121864356,2.20136868133,404,-289.287480464,-196.732407422,0.00182577433367,-132.035193518,-0.00913121864356,0.831343869994,0.532666774755,7.34245875293e-19,213.9283731373029,0.7890792948,41,30.2810476885,0.0,-131.492758417
0.00010018660267,2.16389845619,404,-273.569217243,-193.583378325,0.00224200545293,-128.582240684,-0.00010018660267,0.841858194809,0.52360007723,-1.79846031428e-16,210.93179889901342,0.771911435755,42,28.7500874636,0.0,-129.999085443
0.000914950835067,2.16403260397,404,-278.996425182,-195.255006772,0.00149611154204,-119.05319697,-0.000914950835067,0.834795742044,0.523632537066,5.42057775166e-17,212.95460938310953,0.771973427401,43,30.5198274143,0.0,-131.010847279
0.00671276825561,2.16740690278,404,-282.660503286,-195.953009418,0.00259423000227,-123.387578205,-0.00671276825561,0.824923751416,0.524449018593,1.74695414418e-16,213.6881223640304,0.773531477322,44,32.4764804378,0.0,-131.366341768
0.012204290787,2.13881758545,404,-291.467426783,-188.533097783,0.00249016517365,-118.205268419,-0.012204290787,0.823489828384,0.517531240766,-2.96419803963e-16,206.66611721574128,0.76025314617,45,30.9698301481,0.0,-127.880104568
0.037803936364,2.11303026736,404,-284.881046703,-184.724382016,0.00196810090688,-119.490366482,-0.037803936364,0.828880018043,0.511291464725,9.1419605448e-17,202.90853344539843,0.748123062888,46,28.0420578618,0.0,-125.859885293
0.00883403448748,2.10446205656,404,-267.300909467,-184.134039827,0.00177000211271,-117.63987136,-0.00883403448748,0.828834675597,0.509218208548,-5.97036872837e-17,202.47079540223345,0.744059879395,47,27.4469537004,0.0,-124.974023827
0.0157045695958,2.07744064531,404,-256.824727068,-179.641372678,0.0019981021174,-111.276366135,-0.0157045695958,0.820880843819,0.502679818092,8.00755624202e-17,198.80691063452312,0.731136677092,48,27.6527775998,0.0,-122.444512097
0.0279442053462,2.06790541336,403,-276.159683449,-177.102704797,0.00126259167713,-118.859912969,-0.0279442053462,0.812607113941,0.500372571108,-1.39402015638e-16,197.12221380478815,0.726536217379,49,27.6546626119,0.0,-120.932379901
0.035908109402,2.05394304288,404,-270.568718161,-178.945764726,0.00189019468612,-123.729453875,-0.035908109402,0.807851058119,0.496994086206,8.55824871332e-18,198.4815816429378,0.719761381267,50,28.5753368106,0.0,-121.926155747
0.0332808593457,2.02051281154,404,-262.491633098,-176.390522102,0.00108598091713,-111.296623494,-0.0332808593457,0.822168274597,0.488904948909,1.59374673141e-16,196.75516144571984,0.703351346293,51,27.4807874962,0.0,-120.609221463
0.0144112286758,2.01821965694,404,-264.299192319,-177.624089194,0.00110062651188,-110.226729596,-0.0144112286758,0.813504077509,0.488350072629,4.81814170852e-17,198.3895209638349,0.702215764839,52,27.7164851234,0.0,-120.927920579
0.0299201841943,1.99857121148,404,-257.10062346,-172.065429712,0.00109322595387,-104.7401978,-0.0299201841943,0.809279852585,0.483595724044,2.27413406733e-16,193.03274314312182,0.692432530997,53,27.2467629589,0.0,-118.421397837
0.0472981239242,1.99282717389,404,-260.695151503,-171.124785805,0.00168467213489,-99.7686980245,-0.0472981239242,0.81205460132,0.482205835108,-9.87276042513e-17,192.21968299086177,0.689554320908,54,27.1353584074,0.0,-117.918871169
0.0293689253148,1.97461457694,404,-238.732223629,-168.647535,0.000840300159905,-97.6296801387,-0.0293689253148,0.825367779343,0.477798919829,-1.61532831733e-18,189.85800570691,0.680373228394,55,25.1431967601,0.0,-116.731325063
0.024448272524,1.96597336847,404,-249.647507641,-169.088653602,0.00160411667533,-113.246170811,-0.024448272524,0.822864047223,0.475708000354,-9.58771334137e-17,190.57438668188803,0.675987475586,56,25.5070834871,0.0,-117.007481936
0.0213468153134,1.95150883392,404,-277.386403812,-168.474903761,0.000986157245165,-107.691913131,-0.0213468153134,0.807520939692,0.47220800645,-2.17428623651e-16,190.34625679179473,0.668602834364,57,27.095887946,0.0,-116.562213845
0.00389208802374,1.96212099441,404,-241.16062394,-169.546395259,0.00166682121989,-112.885055649,-0.00389208802374,0.827542484366,0.474775838611,2.46827780532e-16,191.05113511046534,0.674026028154,58,25.6951865647,0.0,-117.545217054
0.0258439134604,1.96292507927,404,-270.366764446,-170.744322688,0.00149645442942,-104.51512031,-0.0258439134604,0.8258815824,0.474970403607,1.494544813e-16,191.97677142905627,0.674435748119,59,25.8925952304,0.0,-118.311002963
0.0192213728562,1.93867362882,404,-253.063018434,-169.513206861,0.000978089114063,-103.640598146,-0.0192213728562,0.816865629944,0.469102262573,-1.81923925042e-16,190.1572760145661,0.662004042766,60,26.8706474364,0.0,-117.657047179
0.0186713071517,1.93956621675,404,-255.556953661,-168.575130061,0.000967890553288,-113.054845777,-0.0186713071517,0.802628417738,0.469318242719,1.17828896086e-16,189.74077448985946,0.662464348459,61,28.4022723666,0.0,-117.02207599
0.0117247419206,1.90599959515,404,-241.783032087,-168.828303189,0.00172084190164,-116.01474289,-0.0117247419206,0.825779821213,0.461196102971,1.58917679066e-17,189.52388486666877,0.645006592822,62,25.8650251254,0.0,-117.270054288
0.0205887404716,1.87885796992,404,-237.356714896,-164.674402196,0.0015607961476,-107.817399315,-0.0205887404716,0.815754911616,0.454628624251,-2.34552092362e-16,185.2449467233521,0.630664129455,63,25.8945984714,0.0,-115.046230524
0.0291021912875,1.86496995666,404,-248.708333359,-167.20868098,0.00135313020809,-96.9406305996,-0.0291021912875,0.80920172129,0.451268131619,-1.23557741811e-16,187.62393891491737,0.623244943935,64,26.813167877,0.0,-116.021860891
0.0121060134911,1.86818335032,404,-261.502533176,-169.168658342,0.000984143643966,-109.525995629,-0.0121060134911,0.809859610571,0.452045678811,4.05321682434e-16,189.95980030732318,0.624966488266,65,27.0847413888,0.0,-117.186516923
0.0109521551199,1.86359643469,404,-262.664988474,-167.646161222,0.00169259970385,-93.5355872943,-0.0109521551199,0.817138240791,0.450935779513,-3.29350187046e-16,187.94446196941905,0.622508187827,66,26.2931429468,0.0,-116.542308527
0.0176072423971,1.85288254657,404,-256.81630311,-165.931053491,0.00164328696936,-101.825585733,-0.0176072423971,0.823777048913,0.448343332244,7.67633134532e-17,186.80133889339777,0.616742559744,67,26.0652806375,0.0,-115.874751834
0.0261433795781,1.83049666951,404,-265.736087624,-165.802332459,0.00117448578863,-111.531085455,-0.0261433795781,0.812203689451,0.442926605352,3.29498077539e-17,186.88259208438888,0.604587334135,68,26.9582467812,0.0,-115.768499733
0.00815935616509,1.81955316999,404,-251.971885814,-164.878450871,0.00108024293137,-111.81356462,-0.00815935616509,0.810303000933,0.440278598843,-3.92700024933e-16,186.09982586861514,0.598590959949,69,26.4879255923,0.0,-115.015816631
0.0371926566674,1.80267338949,404,-245.062839187,-161.784668574,0.00107562107988,-110.003978942,-0.0371926566674,0.820022679274,0.436194186126,5.16572699692e-17,183.27920994895493,0.589270779441,70,25.4961180604,0.0,-113.663444032
0.0285069813182,1.79100272941,404,-249.944407561,-165.287697503,0.000974458794144,-106.595508132,-0.0285069813182,0.825381053689,0.433370228052,-1.76957838535e-16,186.9586076841545,0.582775647038,71,25.693920177,0.0,-115.3217613
0.00975530222048,1.7873024648,404,-258.312738338,-164.584332742,0.0025240466874,-112.281638167,-0.00975530222048,0.819802823062,0.432474872343,-2.67720814221e-16,186.6372630671568,0.580707480278,72,26.1337851114,0.0,-114.860520487
0.0333057671089,1.7791693037,404,-249.175542731,-163.173523104,0.00177667948317,-108.133691696,-0.0333057671089,0.807131884214,0.43050688546,-4.86312647713e-16,185.52814939528855,0.576146572062,73,25.9636940671,0.0,-113.572665332
0.00949828553721,1.80816003518,404,-233.79915696,-162.131721028,0.00189469515242,-97.7541685497,-0.00949828553721,0.805737002492,0.43752179376,-2.26795363763e-16,185.08005497370672,0.592309773088,74,26.9325604768,0.0,-112.969483125
0.00434395386047,1.83427417469,404,-233.023248726,-159.698817026,0.00193384069086,-110.578890248,-0.00434395386047,0.81167677795,0.443840651017,-2.1296806728e-17,183.95161890158997,0.606648858131,75,25.0984887528,0.0,-111.545550073
0.0311444998259,1.80801793898,404,-233.848341767,-161.46445512,0.00168568122798,-97.1638440878,-0.0311444998259,0.78575162475,0.437487410639,-7.13704568293e-17,185.42997440565193,0.592231183925,76,27.9766667131,0.0,-111.95366538
0.0297586398741,1.8190234306,403,-242.355909981,-161.426850032,0.00157933079983,-99.7202866688,-0.0297586398741,0.788447274916,0.440150417419,-2.82088829321e-16,184.94416923012352,0.598299780484,77,27.9643763065,0.0,-112.002057852
0.0205717130944,1.82059665924,404,-233.611035581,-160.949917941,0.00115494972508,-104.593243456,-0.0205717130944,0.807996543851,0.440531092693,-2.57159967199e-16,183.942551321866,0.599164282109,78,25.6661601421,0.0,-112.357664681
0.0182798143664,1.81329360928,404,-235.039548079,-159.551456392,0.00119921114005,-105.021631046,-0.0182798143664,0.813784543077,0.438763968404,-2.02976214342e-16,182.95474326886583,0.595144865313,79,24.7026256656,0.0,-111.883818903
0.0198342929534,1.8044295281,404,-256.926863542,-157.45403699,0.00158448807052,-91.4974216921,-0.0198342929534,0.802030726283,0.436619120257,-1.28703693359e-16,181.17442220553062,0.590244490914,80,26.2470323963,0.0,-110.960336044
0.00893054839516,1.80353113602,404,-244.541037737,-160.562773455,0.00113017725111,-98.854845039,-0.00893054839516,0.812161617509,0.436401735677,3.16491747225e-16,184.0351721390678,0.589746485435,81,25.0538032953,0.0,-112.591588577
0.0166190176995,1.7986828486,404,-254.309367592,-157.914030809,0.00114965621281,-93.7187098067,-0.0166190176995,0.801884719662,0.435228592057,-1.85168474784e-16,181.7396754823794,0.587054646266,82,26.1061661016,0.0,-111.123831793
0.0302104775914,1.80013576289,404,-241.859395691,-160.596430253,0.000872424036829,-104.561179723,-0.0302104775914,0.812224263076,0.435580154779,-1.68244553365e-16,184.3140422412576,0.587862085885,83,25.2686948724,0.0,-112.529414649
0.0218327487094,1.799476948,404,-245.221311085,-160.448607288,0.000682948422699,-96.3134291948,-0.0218327487094,0.812315225371,0.435420740864,4.01347060904e-17,184.49363726310668,0.587496038232,84,25.2943098108,0.0,-112.456964445
0.0215067332632,1.79240415776,404,-255.634855462,-158.420936262,0.00110744753313,-108.578366116,-0.0215067332632,0.814551144529,0.433709332684,-9.68871133262e-18,182.937179891577,0.583557823587,85,25.1645513892,0.0,-111.669964233
0.0244990654001,1.80213260225,404,-242.863833427,-156.299197372,0.0015993647062,-107.038411718,-0.0244990654001,0.816943434926,0.436063331447,-1.84905273038e-16,180.969820038414,0.588970742635,86,24.8419173202,0.0,-110.44386059
0.0490439462473,1.81003174319,404,-239.497400467,-158.716681087,0.0011924693255,-94.061175379,-0.0490439462473,0.795948395634,0.437974692303,-1.85824262746e-17,183.2687149200865,0.5933443828,87,26.7022513084,0.0,-111.336781359
0.013290332896,1.79432585744,404,-243.842270157,-157.761375302,0.00169100552616,-103.099969612,-0.013290332896,0.806762436021,0.434174327748,2.51616908776e-16,182.35444615185025,0.584629384511,88,25.4257762108,0.0,-111.03172061
0.0301752238038,1.79166585555,404,-252.511824967,-159.862903067,0.00127575880543,-107.466746951,-0.0301752238038,0.802417752464,0.433530685163,2.76418778537e-16,183.9819959729224,0.583145832627,89,26.0245782042,0.0,-112.074349648
0.0226448598529,1.78683449581,403,-251.71008395,-158.511426337,0.00108503682642,-103.047644019,-0.0226448598529,0.804989495868,0.432361637548,1.25987454026e-16,182.52955708418583,0.580445616227,90,25.8922996451,0.0,-111.261017357
0.0423979116147,1.78034608543,404,-229.450032514,-157.823155602,0.00161687147565,-97.6661753145,-0.0423979116147,0.820032858751,0.430791632186,-7.5232269771e-17,182.01969038007599,0.576807775422,91,24.2761705382,0.0,-111.086562396
0.0393191163539,1.75771951775,404,-236.58486877,-158.890272795,0.00153986457367,-106.090281519,-0.0393191163539,0.814533045794,0.425316665213,-1.15253442504e-17,182.5001040097256,0.56401724032,92,25.288372505,0.0,-111.542270047
0.0159798001093,1.76910561904,404,-245.439319517,-159.574940307,0.00129629245556,-100.14019136,-0.0159798001093,0.802062487329,0.42807176839,-2.00869840393e-16,183.8623128946065,0.5704741189,93,25.5396855539,0.0,-111.461948721
0.0246100995255,1.76851126667,404,-245.352245482,-158.564070747,0.00099189571651,-87.0475605018,-0.0246100995255,0.783289158583,0.427927952516,3.24784686132e-16,182.68534349312452,0.570138100392,94,27.4399699791,0.0,-110.787100475
0.0243720989284,1.78608583526,404,-260.544309015,-160.757634867,0.000854221674157,-105.020302545,-0.0243720989284,0.802666629065,0.43218048361,7.7927734768e-17,184.25573801989526,0.580026541353,95,25.8271845611,0.0,-112.031794668
0.00532626107247,1.76601952366,404,-228.891363799,-157.3319904,0.00167093433367,-99.7725747233,-0.00532626107247,0.802350450747,0.427325023656,2.25573101831e-16,181.6456309064756,0.568728157422,96,25.7892646874,0.0,-110.514393384
0.0104656436244,1.77949307888,404,-237.745600076,-158.180465558,0.00175884541436,-99.1975432859,-0.0104656436244,0.80279442887,0.430585229573,-2.13574814087e-16,182.8038307558237,0.576328536598,97,26.011043306,0.0,-110.87155642
0.0350262970106,1.77958231599,404,-219.978372145,-153.885325523,0.00143979365049,-89.5642263806,-0.0350262970106,0.803662150695,0.430606822341,-2.35173876066e-16,179.06683810595564,0.576378682828,98,25.3053889812,0.0,-108.459191065
0.016048106329,1.76532373378,404,-264.893217292,-153.930078051,0.00170289861141,-88.8651703227,-0.016048106329,0.781132697014,0.427156662874,1.8218305244e-16,179.64255700853198,0.568334092138,99,27.7601469047,0.0,-108.161390349
0.0174572100372,1.80000640207,404,-237.213723563,-155.105298615,0.00121977991652,-87.3045667418,-0.0174572100372,0.788942445619,0.435548853248,1.43106491013e-16,181.19444577985954,0.5877902216,100,26.3541807224,0.0,-108.481043437
0.0228596946261,1.79444224015,404,-243.671196279,-152.207101925,0.00115330626068,-99.5890375445,-0.0228596946261,0.804739996432,0.434202488957,-3.68037479387e-16,177.859686956029,0.584694243933,101,24.5914914931,0.0,-107.444490939
0.0204245434247,1.80617117291,404,-222.309007577,-151.894559087,0.00128334112986,-92.8459690979,-0.0204245434247,0.803536558213,0.437040547314,-3.18274216302e-18,178.16679867903255,0.59120923063,102,24.9830375998,0.0,-107.244758507
0.0379227449735,1.80691243761,404,-233.055749475,-152.663662105,0.00158463144068,-97.3539253409,-0.0379227449735,0.791719625263,0.437219911671,2.61300751735e-16,178.86488211174324,0.591619553108,103,25.4403115068,0.0,-107.213669209
0.00866162138633,1.76581692146,404,-239.444348218,-152.169605649,0.00173575983436,-91.5677219819,-0.00866162138633,0.787673480693,0.427275999853,-1.49570337868e-16,178.446646052713,0.568613428323,104,26.1672825861,0.0,-106.903849585
0.0300002931932,1.76439255497,404,-236.413629473,-154.381018247,0.00118687984882,-85.4361404398,-0.0300002931932,0.773517102407,0.426931344863,-1.81441972576e-16,180.8747833108513,0.567806469659,105,27.6440293048,0.0,-107.83920474
0.0318767847267,1.76909838964,404,-233.052766,-153.90324493,0.00195226738129,-95.1646966682,-0.0318767847267,0.79623509053,0.428070019087,6.31973731874e-17,179.84296612479972,0.570470032422,106,25.2410268824,0.0,-107.798590726
0.0312246607078,1.74772323758,404,-233.126561544,-151.613890779,0.00167181656971,-95.5763479916,-0.0312246607078,0.792800838585,0.422897858057,-2.08073956986e-16,177.81400951950792,0.558313933797,107,25.4893087099,0.0,-106.535600921
0.0330330641997,1.76164400526,404,-214.970579573,-150.595878819,0.00125978181086,-92.3576494809,-0.0330330641997,0.799166822209,0.426266276297,-2.87100846663e-16,176.45659537728235,0.566247466953,108,24.8455539767,0.0,-106.228055918
0.0210922653385,1.77401775698,404,-233.273952869,-152.776600234,0.00076332833756,-92.0134768272,-0.0210922653385,0.78783277265,0.429260361966,5.33226533963e-16,178.78245630306424,0.573246893409,109,26.4110996662,0.0,-107.180931402
0.0376878111613,1.76589179989,404,-221.939932965,-152.869734563,0.00244416137454,-85.2434576085,-0.0376878111613,0.81177689968,0.427294118241,-2.55321170339e-16,178.75221370835308,0.568655831838,110,23.8752605226,0.0,-107.551308624
0.0161225716439,1.72649342039,404,-234.250320133,-154.012511681,0.000670355198565,-103.22361437,-0.0161225716439,0.802015487127,0.41776086381,8.45145915983e-17,180.24717364453227,0.54609242689,111,25.3346859448,0.0,-108.255678436
0.0238536126647,1.72522475475,403,-223.680549162,-153.512053595,0.00242206767686,-100.141579293,-0.0238536126647,0.815403052011,0.417453883864,9.55264020744e-17,179.98676802282145,0.545357334602,112,23.8145986449,0.0,-107.881906243
0.0234290232909,1.76350057543,404,-228.027327538,-152.121607596,0.00118638836668,-96.4952473616,-0.0234290232909,0.808890328804,0.426715511928,6.34643591278e-16,178.45461774227311,0.567300796996,113,24.2490594268,0.0,-107.05893353
0.0143015807353,1.7551759467,404,-244.834160659,-151.387065087,0.00175006689695,-94.9180988438,-0.0143015807353,0.806515017715,0.424701195482,-9.43718771883e-18,178.13499324456828,0.562569106423,114,24.7476800717,0.0,-106.883276726
0.0399056677485,1.7554152402,404,-219.193403709,-148.986023529,0.00129646409498,-91.472893113,-0.0399056677485,0.796550969329,0.424759097502,2.05699881892e-16,175.83011305826395,0.562705433032,115,25.5313082273,0.0,-105.616630453
0.00985950705219,1.75604931286,404,-227.041229643,-150.559467169,0.0016186628862,-96.4327250913,-0.00985950705219,0.803565531396,0.424912524523,2.02692185763e-16,177.44662589030386,0.563066577311,116,24.74023382,0.0,-106.325632409
0.0291832789331,1.73447745769,404,-227.505909345,-150.638859386,0.0010447292834,-97.1770489029,-0.0291832789331,0.801746432861,0.4196927671,-8.56307683462e-17,177.25919082552485,0.550706190912,117,25.2220800403,0.0,-106.236299393
0.00688531872614,1.73926455186,404,-230.866435433,-151.105430764,0.000539555709711,-88.2779469247,-0.00688531872614,0.811202355907,0.420851103744,3.11868115963e-16,177.8856627041324,0.55346235253,118,23.6706248268,0.0,-106.385880343
0.0275827284786,1.73880113446,404,-222.497034039,-150.250337435,0.00107010939367,-91.8083569421,-0.0275827284786,0.811853516072,0.420738970299,-4.00389567659e-17,177.35414221855888,0.553195872568,119,23.7487708119,0.0,-106.095189137
0.0125251275345,1.72466193921,404,-228.073233714,-149.076471291,0.00178688630215,-89.7906156598,-0.0125251275345,0.784933612557,0.41731769898,5.50677680021e-16,177.0632873380977,0.545031054005,120,26.1459746068,0.0,-105.150406188
0.0152919009275,1.72245190246,404,-218.504045249,-146.587712569,0.00175234178255,-87.5299731375,-0.0152919009275,0.797817733201,0.416782934789,1.79148376833e-16,174.75941670748966,0.543748800418,121,24.1501722301,0.0,-103.569351028
0.019580833178,1.70647098231,404,-217.258206913,-147.152984393,0.00165078927124,-87.674893619,-0.019580833178,0.801261276623,0.412916019961,1.66499684392e-16,175.17346582275763,0.534427485009,122,23.7137529241,0.0,-104.040112772
0.0123214243175,1.6846037336,404,-216.193125635,-147.568990162,0.00240524981257,-100.950278395,-0.0123214243175,0.789937716323,0.407624785947,-2.59513921534e-16,175.30568605800215,0.521530363211,123,24.5775559122,0.0,-104.330917795
0.00703588487932,1.65682775097,404,-244.995859572,-149.134259285,0.00171901832368,-94.6099044198,-0.00703588487932,0.776456877547,0.400903811306,-2.64617995284e-16,176.70487138626285,0.504904780699,124,26.5331906126,0.0,-104.981275914
0.00255171878502,1.64725878317,404,-239.265918206,-146.190218832,0.00159910860741,-99.9030790356,-0.00255171878502,0.778207374479,0.398588401234,-2.71470541103e-16,174.11689274663357,0.499112562817,125,25.4779220069,0.0,-103.470479109
0.00363148306442,1.64897171657,404,-216.690768823,-143.883632831,0.00153034350841,-90.4212301177,-0.00363148306442,0.795772998232,0.399002880971,-1.80007224713e-16,172.63241504074358,0.500151891565,126,24.015161047,0.0,-102.461577528
0.0100692102749,1.64089111933,404,-217.08172198,-147.164023706,0.00263164787161,-89.6889719341,-0.0100692102749,0.79245220672,0.397047613002,-6.00203089574e-17,175.3860162941071,0.495239459712,127,24.5397645431,0.0,-103.893730469
0.0209072122408,1.63769436094,404,-232.39127742,-146.01324235,0.00113152638872,-87.1224218472,-0.0209072122408,0.786051469951,0.396274091059,-2.35939840246e-16,173.4118586637538,0.493289375191,128,25.5502951449,0.0,-103.342889214
0.0155960108582,1.66018886159,404,-213.474509876,-146.219040916,0.00157997954561,-91.6167503454,-0.0155960108582,0.793215962097,0.401717101678,-4.39877311664e-16,174.1658307706204,0.50693136794,129,25.2796345024,0.0,-103.37361897
0.0242450595095,1.66501904154,404,-228.403831085,-145.856032576,0.00151531814629,-96.0984251566,-0.0242450595095,0.796930086275,0.40288586382,-8.46637637474e-17,173.4927114105333,0.509836559727,130,23.7374027994,0.0,-102.969021155
0.0166081738367,1.69217812355,404,-207.329439735,-145.398268987,0.00275986512181,-87.1039392464,-0.0166081738367,0.798735213525,0.40945756657,2.51739081416e-18,173.10632477542072,0.526016529606,131,23.1524396141,0.0,-102.554888261
0.00820522579462,1.66527924471,404,-217.712302743,-144.201817107,0.00171594682104,-91.3170458916,-0.00820522579462,0.799787436887,0.40294882537,3.47690000131e-16,172.30588305731925,0.509992823913,132,23.4325595391,0.0,-102.211457463
0.0291720283375,1.66050273774,404,-215.240232671,-143.532798734,0.00162325957255,-86.1296678374,-0.0291720283375,0.801548142876,0.401793050518,-3.9764632625e-16,171.54824668383793,0.50712041058,133,22.9410111052,0.0,-101.486444743
0.0290026984527,1.68195250652,404,-210.627043429,-142.429721508,0.00111255473242,-86.7899137504,-0.0290026984527,0.800703203571,0.40698326661,-6.04844206185e-16,170.78199059739853,0.51995532484,134,23.3887956881,0.0,-100.9797661
0.0176689024889,1.68206742232,404,-220.82789638,-141.339419335,0.00125123204625,-87.0662428557,-0.0176689024889,0.797177305995,0.407011072868,-1.04703330567e-16,169.76293307649178,0.520023645358,135,23.1465820847,0.0,-100.307683779
0.0209364358899,1.68484723246,404,-216.581188178,-142.375928962,0.00178635081202,-89.68740313,-0.0209364358899,0.792306312502,0.407683705542,-2.54113931566e-16,170.44137720217427,0.521674896465,136,23.8395323343,0.0,-100.69540019
0.00947022658712,1.65335692607,404,-215.513433112,-141.554908882,0.00157895295473,-88.9337211708,-0.00947022658712,0.795864121985,0.400063973291,6.05482807774e-16,169.65444604895066,0.50280772177,137,22.5388400847,0.0,-100.145348585
0.0159757575155,1.64440121426,404,-218.448911681,-140.276499837,0.00111538657397,-86.0068254023,-0.0159757575155,0.784213758384,0.397896953214,7.03849893122e-16,168.70918714385607,0.497376314461,138,24.2004866652,0.0,-99.4154713338
0.0137366263023,1.65080726362,404,-235.156993273,-142.146262313,0.00146077262136,-88.3808987795,-0.0137366263023,0.772689469058,0.399447029619,-1.43276094399e-16,170.37779629835148,0.501264418945,139,25.8419440589,0.0,-100.029512643
0.0108834571855,1.65788083927,404,-225.093820134,-140.404555234,0.0026579107785,-83.1420738705,-0.0108834571855,0.765621177134,0.401158627844,4.58670644799e-16,168.67293823534072,0.505540183965,140,25.9411642572,0.0,-99.117822381
0.00105970442854,1.68350931533,404,-209.046929947,-139.425448531,0.00184653891971,-86.5002015601,-0.00105970442854,0.78498481352,0.407359968766,1.67008109882e-16,167.39166471454817,0.520880492917,141,24.732358704,0.0,-98.7133866795
0.00643954637966,1.71455316368,404,-207.161073824,-141.952884342,0.00178009009837,-81.2474172183,-0.00643954637966,0.792608833016,0.414871671242,5.88984973771e-17,170.01948788728183,0.53915250071,142,23.6817433775,0.0,-99.9057076534
0.0276490806087,1.68142011396,404,-214.499199579,-140.619092275,0.00177084373407,-85.4504097665,-0.0276490806087,0.772653662248,0.406854443197,-6.56487341534e-16,169.26166480961933,0.519638742276,143,25.2979767953,0.0,-99.382715782
0.0278965318856,1.66483498286,404,-203.888222557,-138.563596393,0.00158570497409,-88.6536403859,-0.0278965318856,0.795407426734,0.402841327007,-2.26182844161e-17,167.53719038461674,0.509726009126,144,23.2133502594,0.0,-98.3568112979
0.0326529693419,1.67243585335,404,-211.984226938,-139.744300552,0.00161307685446,-87.3000515556,-0.0326529693419,0.787395322501,0.404680515147,-6.24653958426e-16,168.7189227069873,0.514281158534,145,24.6367313898,0.0,-99.0808207071
0.0185645855718,1.69735863363,404,-213.598744352,-139.688284441,0.00165804466395,-84.4481683872,-0.0185645855718,0.790790824228,0.410711098347,-3.37332537965e-16,168.90263304249711,0.529073297823,146,23.3334001122,0.0,-98.8082488997
0.0128691006832,1.70658213612,404,-213.284368281,-137.997272637,0.000812525175085,-80.8624729875,-0.0128691006832,0.77015731113,0.412942915927,-3.5807280507e-16,167.52423692531517,0.534492619537,147,25.1109201273,0.0,-97.8257809325
0.00367302406721,1.70264200972,404,-216.042953233,-139.062787341,0.00173939986761,-87.2218871497,-0.00367302406721,0.787541424584,0.411989520689,-5.50422211359e-16,168.28990202602122,0.532181168029,148,23.9853065762,0.0,-98.4881680682
0.00888805271184,1.6707487094,404,-206.15382085,-138.845362997,0.00176219447405,-85.7859804088,-0.00888805271184,0.794942085283,0.404272275702,2.04184817646e-16,168.28886467103356,0.51327185494,149,23.2909455289,0.0,-98.5158767695
0.0250415528788,1.68232195599,404,-220.464108008,-140.301429656,0.00176102896911,-87.3016256063,-0.0250415528788,0.781028322509,0.407072662565,3.8398968763e-16,169.70076526956527,0.520174955832,150,24.8033214067,0.0,-99.0074480304
0.00155452514604,1.69948320366,404,-192.727415329,-136.761871257,0.00253179370831,-87.1017294669,-0.00155452514604,0.791132695387,0.411225182097,5.36712585688e-16,166.81932671389754,0.530324206997,151,22.5712546732,0.0,-96.9707269591
0.0142036370382,1.69445705682,404,-224.479167238,-138.253393028,0.00166791312461,-88.3431558696,-0.0142036370382,0.770464213424,0.410009001706,-9.93852361651e-17,168.9092522928733,0.527362369061,152,24.526003816,0.0,-97.4831690455
0.030518464113,1.7122310194,404,-223.670483759,-136.900278183,0.00106999991759,-85.9471165944,-0.030518464113,0.772863839779,0.414309780309,-5.02549060383e-17,167.45706959820848,0.537797209854,153,24.4216463699,0.0,-97.0515663956
0.00692608587326,1.70026549829,404,-216.184497452,-136.028796378,0.00148862116509,-82.3948577668,-0.00692608587326,0.77892004867,0.411414474495,-7.07590951758e-16,166.35959633043197,0.530784414331,154,23.8847139043,0.0,-96.6615833292
0.0112606842365,1.69625549467,404,-232.528653011,-136.410474544,0.00148969056863,-84.8599209506,-0.0112606842365,0.790421245258,0.410444171016,-3.10953208371e-16,166.79882497440585,0.528423171468,155,22.5947421637,0.0,-96.9777275641
0.036702808947,1.68184130779,404,-220.164273155,-136.091364904,0.00165684033355,-82.1920369168,-0.036702808947,0.782708363868,0.406956359771,-3.04892541754e-16,166.6672237063137,0.519889209767,156,23.7862825385,0.0,-96.7769897315
0.00219102424155,1.66855047535,404,-194.053846146,-134.251656276,0.00158050861316,-83.245801835,-0.00219102424155,0.78421522663,0.403740367416,-3.00219789525e-16,164.86769469434705,0.511955270682,157,22.3645582311,0.0,-95.3393089661
0.0206349200008,1.67275606515,404,-219.690953309,-137.57171521,0.00172807555997,-86.0391135002,-0.0206349200008,0.783699902248,0.404757997028,-1.13626302109e-16,167.45093790301223,0.514472604529,158,23.1646132554,0.0,-97.2528931978
0.0220767823201,1.69748041051,404,-202.075808902,-136.955643654,0.00180688576817,-86.427477208,-0.0220767823201,0.785139777373,0.410740564789,6.02428128919e-16,166.46304479597404,0.529145040187,159,23.4217935969,0.0,-97.0929154722
0.00974445732139,1.68114569144,404,-210.199466106,-136.779771376,0.00100542106696,-84.6041015411,-0.00974445732139,0.776670601931,0.406788040981,5.86376838606e-16,166.3231025638683,0.519475520179,160,23.7805436449,0.0,-96.8430875996
0.0108029839181,1.70920887644,404,-222.034063159,-137.571030201,0.00107705081648,-86.2455629923,-0.0108029839181,0.77782936229,0.413578510186,-1.32039283615e-17,166.50426775039614,0.536030618103,161,24.0585473234,0.0,-97.0647401899
0.00462359064038,1.71151724017,404,-200.151501101,-136.835271393,0.00167104434036,-83.9109757263,-0.00462359064038,0.78441904768,0.414137066632,-4.57552194715e-16,166.111002689281,0.537380252074,162,23.3111052093,0.0,-96.765368109
0.00319181847136,1.66573037729,404,-224.294046781,-138.379417743,0.00174403150074,-86.330232245,-0.00319181847136,0.783230077001,0.403057986246,1.07327614056e-16,167.89799907305638,0.510263692284,163,23.4750163655,0.0,-97.714478801
0.0179352557784,1.69373175971,404,-205.846666511,-137.576736295,0.00165412512355,-84.7166143236,-0.0179352557784,0.799776613632,0.409833501039,9.27419127814e-19,167.131252547382,0.526934236416,164,21.4732688415,0.0,-97.4120848014
0.0220464473815,1.69249232459,404,-217.048472861,-137.147095746,0.00167683345291,-89.76918768,-0.0220464473815,0.810241580266,0.409533594023,-8.4179673719e-16,165.94025399360146,0.526202190837,165,21.1047111925,0.0,-97.4319237962
0.0117340008162,1.70433150886,404,-206.375135629,-139.739639964,0.00114033447304,-89.5441076051,-0.0117340008162,0.805771838572,0.412398330019,-7.12125481191e-17,167.87871037318865,0.533172956937,166,22.4742829137,0.0,-98.9489353012
0.0262875679734,1.71586839794,403,-213.020111131,-141.884597351,0.00153694634928,-88.0281306457,-0.0262875679734,0.781969060062,0.41518991943,2.50516362094e-16,169.8682393499894,0.539919306949,167,24.7935542296,0.0,-99.7355646857
0.00973852498557,1.69410313903,404,-200.588218654,-140.86571536,0.00163750152601,-91.8595985243,-0.00973852498557,0.798055436924,0.40992336396,-1.25256656185e-16,169.55173704298142,0.527153479279,168,22.7470926761,0.0,-99.1522514642
0.0241566794066,1.67992923014,404,-222.292720636,-138.349000149,0.00173095084665,-90.5448505967,-0.0241566794066,0.799599781487,0.406493692958,-2.70542630912e-16,167.46612444467684,0.518751667611,169,22.6570736521,0.0,-97.8082345133
0.0220584094266,1.65972220441,404,-216.916117894,-138.032078641,0.00169451639984,-87.0926691158,-0.0220584094266,0.787341438742,0.401604184301,-8.34261572346e-16,167.04704468537136,0.506650241623,170,23.2657792673,0.0,-97.5068012546
0.0156803202212,1.68615652912,404,-199.420535706,-136.505265742,0.00165043244473,-82.9855906166,-0.0156803202212,0.801769059494,0.408000517005,5.00219114075e-16,165.72785328252002,0.522451695794,171,22.246273142,0.0,-97.0311801913
0.0359454165379,1.68792169755,404,-206.454243498,-135.367394232,0.00167456768868,-88.3619305278,-0.0359454165379,0.790259531713,0.408427636088,7.0150589324e-16,164.47717414550894,0.52349800739,172,23.2276537023,0.0,-96.4971157298
0.0011653506152,1.70071246199,404,-220.925710562,-136.458207281,0.00180785224301,-90.8314202069,-0.0011653506152,0.789894206347,0.411522626627,7.10176451044e-16,166.68699330336585,0.531047258557,173,23.0456986179,0.0,-96.4935031338
0.0128279906907,1.68849004534,404,-209.530273686,-135.216394049,0.00198559367985,-87.1965333457,-0.0128279906907,0.795936906608,0.408565159615,3.74861017683e-16,165.34050300813848,0.523834665263,174,22.6107274138,0.0,-95.9901762532
0.0202404872279,1.68646706444,404,-206.759550416,-134.1133384,0.00116026801477,-85.1635301738,-0.0202404872279,0.809213205095,0.40807565746,-7.48894907213e-16,163.7778596999957,0.522635846386,175,21.109311475,0.0,-95.8599870592
0.0232532349764,1.69362108232,404,-217.455272096,-135.872235866,0.00160949373444,-84.253255559,-0.0232532349764,0.800669329752,0.409806720351,-2.06221679065e-16,165.14182078058863,0.526868888992,176,21.7372296503,0.0,-96.6401315479
0.0180697826143,1.68970967066,404,-193.389522468,-134.866940161,0.00160506225966,-87.6698944618,-0.0180697826143,0.800849837904,0.408860273236,8.80865576076e-16,164.4261307606846,0.524556721667,177,21.46434497,0.0,-95.9997551862
0.0210895397483,1.66167050222,404,-197.054406194,-134.654905265,0.00117963579729,-79.9048700654,-0.0210895397483,0.793780447461,0.402075615334,2.69463892856e-17,164.890153013364,0.507823423,178,22.1142178573,0.0,-95.7467517124
0.0106942122367,1.64409123118,404,-210.640550845,-133.21389478,0.00178650003766,-86.5621602864,-0.0106942122367,0.79945580918,0.397821946385,-5.56820150315e-16,164.4390740266912,0.497187788515,179,21.0921659296,0.0,-94.8216900758
0.0363368501762,1.67536219634,404,-220.511070446,-131.765440194,0.00163395200813,-86.7048466141,-0.0363368501762,0.767890280805,0.40538860448,-5.98019316607e-17,163.1442300164415,0.516029378521,180,23.1998609788,0.0,-93.7622263649
0.0110756348876,1.65492736017,404,-224.416219739,-133.708262692,0.0016855587687,-86.1434758967,-0.0110756348876,0.789714833793,0.400443972366,9.49609286274e-17,164.87827038884575,0.503757116728,181,21.8792456687,0.0,-95.0477326531
0.0260239059358,1.64592825057,404,-194.538946136,-131.708388301,0.00102057218482,-78.4912443738,-0.0260239059358,0.802137191629,0.398266451297,5.03847090798e-17,163.49497067282516,0.498304511128,182,21.2772609296,0.0,-94.1349165797
0.0255678688305,1.64015984772,404,-205.630408806,-132.256350639,0.00166146055986,-85.3925386329,-0.0255678688305,0.796180501743,0.39687066668,5.4205455652e-16,163.71500308663474,0.494793705209,183,21.7554711978,0.0,-94.4096872164
0.00581850669295,1.65160091397,404,-201.889646414,-131.060792086,0.00161126312858,-83.6030816427,-0.00581850669295,0.783356158247,0.399639069769,3.98398577097e-16,162.4404099257919,0.501745068413,184,22.7781271184,0.0,-93.6864059384
0.0215299167127,1.64794391965,404,-196.88923987,-132.178285215,0.00105237651365,-85.15096659,-0.0215299167127,0.780101725742,0.398754184206,1.07811459546e-16,163.9757425782062,0.499528401572,185,22.6838525394,0.0,-93.935571055
0.00709692821892,1.64980014664,404,-206.417355034,-129.552543221,0.00265945904695,-84.1859165604,-0.00709692821892,0.776467435411,0.399203336795,4.94235828177e-17,161.56373380130606,0.500654157329,186,22.1351446498,0.0,-92.3440251146
0.0240987683559,1.62242554582,404,-204.879294247,-128.85061028,0.00146133805862,-83.723660477,-0.0240987683559,0.789123814557,0.3925794848,8.76116539902e-16,161.38317430162354,0.483922279986,187,21.2230125608,0.0,-92.2861641771
0.0443970160582,1.61064582539,404,-211.199706498,-129.717996326,0.00175844403691,-85.2941628374,-0.0443970160582,0.788773880582,0.389729137313,-6.92539472114e-16,162.4790306933179,0.476635232345,188,21.6656585744,0.0,-92.7725411062
0.00417272356436,1.60019917189,404,-202.207847302,-127.851284985,0.0016989301664,-83.7111414441,-0.00417272356436,0.789023579321,0.387201352997,9.52033452128e-16,160.7445657834307,0.470128103929,189,21.4418537229,0.0,-91.7796506118
0.00146003913222,1.5790270916,404,-198.989933809,-128.192810297,0.00190215606201,-83.6077659618,-0.00146003913222,0.781589138614,0.382078329391,-3.55151178149e-16,160.72546114601957,0.45680889257,190,22.4119451814,0.0,-91.9684157061
0.00403260789695,1.61493417215,404,-208.18308154,-129.855994362,0.0016104431032,-85.6242230601,-0.00403260789695,0.782202576696,0.390766791686,3.49990916131e-16,161.62856845824908,0.479294195566,191,22.1706073078,0.0,-93.0641950385
0.0224771792029,1.63481791258,404,-189.711483083,-129.232400266,0.00157532976853,-76.6627411717,-0.0224771792029,0.797461671405,0.395578074763,1.97274649733e-16,161.405890004045,0.491531429693,192,21.3877303725,0.0,-92.7634972792
0.0275109560728,1.65208735883,404,-207.506128345,-129.361330933,0.00166476149324,-84.191742389,-0.0275109560728,0.797764061506,0.399756775185,2.23819417828e-16,161.09179039807475,0.50203955435,193,21.4162764462,0.0,-93.1902007135
0.00954825735851,1.63777074249,404,-211.391793221,-133.788442209,0.00245839460104,-87.0716378852,-0.00954825735851,0.792786137279,0.396292573156,5.12243125366e-16,164.866919681539,0.493336013785,194,22.6772726982,0.0,-95.2979040124
0.0103408147066,1.66970243043,404,-191.916075928,-131.76200332,0.00163762006201,-85.8076586868,-0.0103408147066,0.805474989095,0.404019106822,8.36921249469e-16,163.0627564768329,0.51264542518,195,21.5156871134,0.0,-94.3456051136
0.0150969403925,1.67250205819,404,-198.470063591,-131.347413499,0.00161156419976,-83.7744297035,-0.0150969403925,0.796782404868,0.40469653478,-5.62822919224e-16,162.89418717693195,0.514320743627,196,21.88056694,0.0,-93.9760154769
0.0311303740888,1.68523298411,404,-194.013836143,-129.658047355,0.00121765717779,-83.8802930859,-0.0311303740888,0.801428698417,0.407777046149,4.30941662427e-16,161.48739332022498,0.521903823749,197,20.5962059767,0.0,-93.060675126
0.0119105162113,1.68078829413,404,-202.327515556,-132.41493933,0.00169754095921,-86.2822903222,-0.0119105162113,0.801947072929,0.406701561293,-2.44927813419e-16,164.50827324711355,0.519262906059,198,21.1895622506,0.0,-94.2229629288
0.0240764844733,1.67127058448,404,-198.141984196,-129.480278772,0.0017000813183,-81.8521534333,-0.0240764844733,0.781980689729,0.404398554193,2.23459897569e-16,162.1756993250261,0.513584166173,199,22.1366076635,0.0,-92.4658146901
0.0284774260797,1.65793645043,404,-196.004239328,-129.583441818,0.00146373191475,-84.0315987785,-0.0284774260797,0.803390036454,0.401172084117,-5.74248976794e-16,161.82784380102305,0.505573726926,200,20.8215661873,0.0,-92.9138790421
0.0173518157151,1.66235330062,404,-208.502842733,-128.917716193,0.00124794017829,-85.2145780909,-0.0173518157151,0.779192176984,0.402240832558,3.66525959745e-16,161.15577620953317,0.508234249425,201,22.5518776592,0.0,-92.2234484762
0.0225220337867,1.64777635757,404,-205.003852382,-131.610616122,0.00106080486857,-84.2665097594,-0.0225220337867,0.783606550522,0.398713639088,-2.13944922379e-16,163.29939295773286,0.499426716923,202,22.734962162,0.0,-93.7775088278
0.0121703574039,1.66304204983,404,-200.79851035,-129.650719638,0.00119221273005,-83.2189097459,-0.0121703574039,0.789419772065,0.402407489703,-1.49458250515e-16,161.64542164473,0.508648485418,203,21.2369728034,0.0,-92.6518590361
0.00470592892866,1.66373887393,404,-207.239579659,-129.277326032,0.00279593683639,-82.4290176652,-0.00470592892866,0.788127620871,0.402576100736,5.66573745288e-16,161.0693048073289,0.509067403361,204,21.7580639764,0.0,-92.4997097372
0.0104518625521,1.68549372964,404,-196.84818233,-130.060795731,0.00182413235961,-85.2317506283,-0.0104518625521,0.780365671304,0.407840138934,1.05631701249e-16,162.1076768042859,0.522058535508,205,22.4067864715,0.0,-92.6824169678
0.022944637704,1.67448338562,404,-191.498575848,-128.868725718,0.0016161751268,-80.1421236025,-0.022944637704,0.78842404158,0.405175958015,-8.33533699553e-16,161.20179846802378,0.51550469121,206,20.8803607469,0.0,-92.1659013902
0.0166688865265,1.6671836093,404,-198.439714848,-129.889173776,0.00268600409266,-83.1625149053,-0.0166688865265,0.780512020585,0.403409625848,-4.26415378747e-16,161.8596496458211,0.511135741253,207,22.3665886339,0.0,-93.043782817
0.0190796491021,1.66817074946,404,-202.679962256,-131.985456481,0.00103148748461,-83.6897042681,-0.0190796491021,0.792795051034,0.403648484868,6.17169746601e-16,163.52253033977013,0.511727666479,208,21.8601642141,0.0,-94.1969988475
0.00843861353439,1.65284336268,403,-209.457044474,-131.093695063,0.00228167079267,-85.5651316821,-0.00843861353439,0.79737512399,0.399939705985,-4.23529588996e-16,162.04310363350294,0.50249705493,209,22.1868436479,0.0,-94.0092036689
0.00473014094367,1.67574496493,404,-201.314650463,-133.235736326,0.00183235014537,-81.4277646058,-0.00473014094367,0.804517322751,0.405481223274,-5.48071609212e-16,163.34587543066328,0.516257821587,210,20.8064040099,0.0,-94.8647677804
0.0216731297404,1.67733131009,404,-206.086713482,-132.911948265,0.00116776488269,-83.4897628934,-0.0216731297404,0.806422472074,0.405865072361,-4.87452683554e-16,162.76113492192258,0.517204024503,211,21.4159092631,0.0,-94.9035100042
0.0156484090163,1.70023654631,404,-215.591460217,-133.295394596,0.00168600640973,-88.6813836066,-0.0156484090163,0.809536291865,0.411407468966,8.19292104048e-16,163.29307783379568,0.530767386273,212,21.4388638525,0.0,-95.4524744656
0.0286378416378,1.68845316844,404,-201.397741651,-131.119632183,0.00191470577554,-86.0823398797,-0.0286378416378,0.798807773783,0.408556236485,4.55032746974e-17,162.3429255165168,0.523812824861,213,21.4506157813,0.0,-93.8080611807
0.0261163360632,1.68221763557,404,-188.093069563,-129.131696224,0.00160176140083,-84.6302525562,-0.0261163360632,0.796154959485,0.407047420077,3.91626860641e-16,161.43616473242344,0.520112944124,214,20.6854960838,0.0,-92.518096708
0.0177735240761,1.67644677562,404,-203.942230616,-129.572591521,0.00280512269048,-84.8087451449,-0.0177735240761,0.803053440519,0.405651040915,-4.12760918673e-16,161.43745406910534,0.516676539101,215,20.5521667741,0.0,-92.9877534103
0.0145100514242,1.65855794773,404,-190.489242702,-128.984659121,0.000930047033443,-84.7893681316,-0.0145100514242,0.803325138208,0.401322468269,-3.5111885046e-16,160.63722178543273,0.505948518636,216,20.981787805,0.0,-93.091315031
0.0313814836616,1.65574420174,404,-204.454348459,-128.803521089,0.00118743906501,-87.3618131058,-0.0313814836616,0.814920181743,0.400641624114,-7.20308161406e-16,160.45832230716704,0.504250576484,217,20.0048028644,0.0,-93.0200263186
0.0302525200414,1.6447849549,404,-217.364965763,-130.481383547,0.00171330180805,-82.8610926275,-0.0302525200414,0.809742413141,0.397989807216,9.90883712896e-18,162.1528721181559,0.497609649169,218,20.6154926111,0.0,-94.0310620258
0.0280267986953,1.63895166677,404,-212.630439718,-132.109166465,0.0016899991742,-89.0447697061,-0.0280267986953,0.803924878226,0.396578322259,6.58618873599e-16,163.30336869613157,0.494056809861,219,20.604575734,0.0,-94.8223816608
0.026801702319,1.64670046224,404,-196.812458971,-130.421919002,0.00106173238101,-83.9249513496,-0.026801702319,0.8301580568,0.398453303913,-3.29712985465e-16,161.78793122977277,0.498773565946,220,18.9002869882,0.0,-93.9565115891
0.00712837423709,1.64865105424,404,-196.545352976,-128.642645506,0.00183863020018,-86.6685711814,-0.00712837423709,0.832596406631,0.398925290073,-8.32058974987e-16,160.80155593917326,0.499957410654,221,18.5641176285,0.0,-92.9057739547
0.0289985430789,1.63269875764,404,-183.089480519,-127.592891618,0.00158637229523,-79.9736453134,-0.0289985430789,0.831990415494,0.395065301307,-3.91735149355e-16,159.96963351875934,0.490234325224,222,18.5025062144,0.0,-92.4462272806
0.0244286038796,1.61462102959,404,-188.009455353,-127.682613981,0.00122522960282,-84.6010438984,-0.0244286038796,0.839010416483,0.390691020354,2.15476918403e-16,160.00100640218383,0.479100272538,223,18.1900819562,0.0,-92.9071570381
0.0267377379615,1.59789908575,404,-208.751058725,-130.621673383,0.00174940747975,-86.5726933167,-0.0267377379615,0.827271177179,0.386644799486,-8.34070206969e-16,162.6249964714285,0.468689695003,224,19.2374099435,0.0,-94.4865284761
0.0254328456633,1.613683519,404,-187.728448553,-130.112961708,0.00170055981034,-81.6821124407,-0.0254328456633,0.832821581933,0.390464170237,-2.21347829297e-16,161.920199968198,0.478519465737,225,19.1450607156,0.0,-94.1390663692
0.0150975364654,1.637269153,404,-183.444741449,-131.693153851,0.00165790760461,-83.8455436565,-0.0150975364654,0.830317019564,0.396171203183,-3.7067298351e-17,163.36176231820326,0.493029703319,226,19.4465778199,0.0,-94.7390618776
0.0180235335494,1.65216858267,404,-199.54006598,-130.073198704,0.00168583420136,-84.2849936234,-0.0180235335494,0.811255114867,0.399776428977,1.23331939789e-16,161.79483646320193,0.502088717514,227,20.6963284626,0.0,-93.6127334805
0.0341253483443,1.66169321835,404,-185.508971054,-130.531815685,0.00157234695478,-85.7857132833,-0.0341253483443,0.809813091099,0.402081111974,3.14573505071e-16,162.41538602416452,0.507837093568,228,19.9874519559,0.0,-93.589516102
0.0053430094048,1.67671331602,404,-191.977703242,-131.436907673,0.00171008135843,-83.7085017675,-0.0053430094048,0.818906993529,0.405715535889,5.40064008157e-16,162.6444071527033,0.516835517734,229,20.2045096273,0.0,-94.1544156256
0.021052336137,1.66529341291,404,-200.075471224,-131.954946195,0.00149328170472,-81.346131947,-0.021052336137,0.823094007742,0.402952253658,-6.65624106816e-16,162.90426700454728,0.510001331876,230,20.3463819899,0.0,-94.6844868893
0.0278998560933,1.67602963798,404,-210.581667439,-131.596487064,0.00106854185128,-85.7865584568,-0.0278998560933,0.812022275436,0.405550105816,-7.65966389959e-16,162.82336097731866,0.51642768566,231,20.5878554803,0.0,-94.2773201491
0.0215912932588,1.6625481013,404,-221.307537637,-130.612367114,0.00173064608966,-83.0244722559,-0.0215912932588,0.825830687372,0.402287968619,-4.78804891345e-17,161.72393395605994,0.508351426241,232,19.1398826311,0.0,-93.7553414473
0.0493835188352,1.63727646931,404,-198.371020684,-131.318504595,0.00132801797554,-87.9350917998,-0.0493835188352,0.818292646341,0.396172973516,-2.84334339726e-17,162.41922237816829,0.493034171916,233,19.9079539741,0.0,-94.2149284543
0.00409513393482,1.62389920388,404,-195.223167135,-131.566234374,0.00180458274457,-87.9792025816,-0.00409513393482,0.819400598996,0.39293606691,-3.06317161156e-17,162.55387686914423,0.484830173239,234,20.269180374,0.0,-94.6002698975
0.0101794666387,1.64102044895,404,-180.49676183,-129.846174708,0.00154055276427,-84.9014764411,-0.0101794666387,0.818859372516,0.397078906983,-7.62571163979e-16,160.63509193638316,0.495318273302,235,19.2631242015,0.0,-93.6094725264
0.00282407410777,1.66732766787,404,-185.76712121,-132.761014471,0.00214844461745,-83.7252982801,-0.00282407410777,0.8309494931,0.403444483805,-8.33327579231e-16,162.76148044879344,0.511222145861,236,18.9359082935,0.0,-95.2233645989
0.0102686150594,1.67286987914,404,-204.146054512,-134.511183395,0.00284829729414,-91.1601096722,-0.0102686150594,0.828467483614,0.404785536681,4.5811751111e-16,164.62023767421385,0.514540642016,237,19.480142141,0.0,-96.2733694415
0.024841849001,1.66979262486,404,-193.484747736,-133.893130049,0.00152493139847,-89.2997629147,-0.024841849001,0.831057105519,0.404040931234,-5.40584012294e-16,163.86910852138593,0.512699441988,238,19.8490900173,0.0,-96.3110486991
0.0245689044577,1.66013248776,403,-180.679212522,-133.547243796,0.00103862198437,-86.3175919875,-0.0245689044577,0.81800909549,0.401703460861,-5.28764508228e-16,163.14104780498144,0.506897411088,239,19.982835251,0.0,-95.8106646487
0.0131483343371,1.66690886518,404,-187.611672978,-132.440896356,0.00167629026836,-82.7883969801,-0.0131483343371,0.825103810212,0.403343145816,1.6307756853e-16,162.71650433307477,0.510970932319,240,19.3950181542,0.0,-95.0531450354
0.0383661621507,1.68256229925,404,-197.517758548,-132.775632091,0.00163444831552,-86.7680040123,-0.0383661621507,0.806737361591,0.407130818597,-6.10510655719e-16,162.93912664042534,0.520317809636,241,21.0702867748,0.0,-95.1841596694
0.0165139103315,1.66919336603,404,-207.711879304,-134.542391818,0.00160385818843,-84.8079314292,-0.0165139103315,0.815300349856,0.40389592814,6.39988593622e-16,164.237602614177,0.512340495385,242,20.1877237647,0.0,-96.0325925759
0.0111523408867,1.6960830331,404,-230.731640382,-133.956949168,0.00140224765812,-88.1612076846,-0.0111523408867,0.81492015317,0.410402440364,2.68956456845e-17,163.44856937931337,0.528321494367,243,20.0625432622,0.0,-95.6701026186
0.0228352104969,1.71550026851,404,-196.84345956,-134.550085698,0.00164586556335,-81.9640470241,-0.0228352104969,0.823983571104,0.415100842883,-3.14866988054e-16,163.44887784043078,0.539704739834,244,19.488039875,0.0,-96.275473785
0.0368210444379,1.7238507099,404,-198.508046908,-131.718179485,0.00168830966047,-88.4701478038,-0.0368210444379,0.826019267663,0.417121405238,-1.83249429909e-16,161.08743344604588,0.544560573307,245,19.511633332,0.0,-94.7264764819
0.0201833683144,1.71465576195,404,-200.882953102,-135.662741446,0.00173680728856,-86.5849923146,-0.0201833683144,0.799928537725,0.41489649702,1.66676715664e-17,164.89063827192405,0.539212338577,246,21.3461564982,0.0,-96.4281875111
0.0233722821471,1.72921092911,404,-203.884418885,-134.748985412,0.0012046396307,-84.0990639191,-0.0233722821471,0.804371586674,0.418418421363,5.50616974246e-16,164.19425295032016,0.547665194119,247,21.7803501488,0.0,-96.1959707999
0.0290776271868,1.71798890466,404,-209.168502074,-132.116682136,0.0011687537492,-84.7305979157,-0.0290776271868,0.80332107861,0.415703019977,-2.72081002767e-16,162.44841500942442,0.541154365253,248,20.7829964575,0.0,-94.569778546
0.00604156543666,1.69443025511,404,-199.782036625,-129.473963618,0.00170232974894,-86.3280057053,-0.00604156543666,0.819005551956,0.410002516476,4.64685757147e-16,160.1684562171341,0.527346551648,249,19.5254207806,0.0,-93.229275276
0.0162525550645,1.68216042524,404,-205.713066063,-130.697537851,0.00171532565194,-88.80680602,-0.0162525550645,0.833663624607,0.407033576853,5.36263262355e-17,160.90414130166175,0.520078934674,250,18.9348096386,0.0,-94.1917070701
0.011237693273,1.67941237787,404,-204.968709957,-132.98758967,0.00274817014211,-85.1741482094,-0.011237693273,0.811207466042,0.406368629839,-8.57860909802e-16,163.37288484683734,0.51844395715,251,20.9700360156,0.0,-95.2934898434
0.0286298317219,1.6487271251,404,-184.09340854,-129.373113615,0.00165996001533,-85.3070475047,-0.0286298317219,0.826036005223,0.398943696994,-6.49520791817e-16,161.09748256179216,0.500003550864,252,18.6865298941,0.0,-93.2146599924
0.015447452708,1.64216122253,404,-188.093441189,-129.973697468,0.000974425415081,-84.7093334954,-0.015447452708,0.820588056907,0.397354940793,2.2368510946e-17,161.31901278194354,0.496013192892,253,19.9123413714,0.0,-93.5960406571
0.0185079533356,1.62039471928,404,-215.882247582,-131.34712245,0.00172415941486,-84.7863115289,-0.0185079533356,0.812296175856,0.392088084231,-4.07593133764e-16,162.8530299376073,0.482669773442,254,20.4723911543,0.0,-94.2888212007
0.0439466468497,1.62596893382,404,-183.615119157,-129.033492728,0.00166851038577,-85.8341752157,-0.0439466468497,0.813329799283,0.393436880961,-4.62448192351e-16,160.40945594226747,0.486103905049,255,19.4502540098,0.0,-92.706644634
0.0175464007903,1.62291854585,404,-203.877175639,-129.937366862,0.00115867941501,-87.0804206439,-0.0175464007903,0.796049970953,0.392698776376,-6.6421213227e-16,161.50561385336184,0.484226099876,256,20.7848079828,0.0,-93.0464154115
0.0331696568044,1.59833814676,404,-217.834278284,-129.182769043,0.00170877595559,-84.1727895707,-0.0331696568044,0.804952696823,0.386751039398,7.20322713803e-16,161.02475076818632,0.468964431192,257,20.7769617344,0.0,-92.9940719142
0.00537709220849,1.62077696697,404,-207.01909482,-130.48264029,0.00179165851809,-83.2576648899,-0.00537709220849,0.797953034517,0.392180576981,-7.607218787e-17,162.58902889494743,0.482905643507,258,20.456154792,0.0,-93.1740410162
0.0234426285492,1.61600375249,404,-184.268864367,-129.059957157,0.00123634223242,-85.099730209,-0.0234426285492,0.805583488005,0.391025598816,-7.96782368953e-17,160.9925482596183,0.479956282183,259,19.1574875335,0.0,-92.3676870978
0.0264707760173,1.63168706246,404,-207.5951754,-130.901185126,0.00105897917625,-85.1321174011,-0.0264707760173,0.793942788987,0.394820500691,-1.0511620348e-16,162.85362439213657,0.489614487209,260,20.775708642,0.0,-93.4099142326
0.0413805700588,1.6130376881,404,-186.835758363,-129.213494534,0.00156904239975,-88.8455116415,-0.0413805700588,0.817090755684,0.390307898066,-2.97556749472e-16,161.17748534267133,0.47811916409,261,18.8557705496,0.0,-92.7288255272
0.0346854560181,1.62859198411,404,-191.692445781,-131.7257933,0.00110865699898,-87.1617465977,-0.0346854560181,0.818310724438,0.394071582341,-7.38154847628e-17,162.84778550926816,0.487715828087,262,18.9396583504,0.0,-94.0918527648
0.013243724139,1.63582269796,404,-197.662026615,-132.440279862,0.00188213178331,-82.656075245,-0.013243724139,0.81848936884,0.39582120341,-4.50883196897e-16,163.0678950444558,0.492145856977,263,20.1294981689,0.0,-94.8442795757
0.00990476506516,1.62921830914,404,-183.527068557,-130.241574682,0.00117879213306,-82.62463036,-0.00990476506516,0.811057071696,0.394223134662,-2.94481634834e-16,161.53930945883428,0.488100334844,264,19.3542560354,0.0,-93.2971764003
0.0113871351587,1.61546722754,404,-193.763257747,-130.535158727,0.00113558891485,-85.9343781289,-0.0113871351587,0.809948356318,0.390895775485,-2.20140056722e-16,161.59296130806416,0.479624219814,265,20.2232277875,0.0,-93.6173520417
0.0249315603292,1.59959772988,404,-201.802871143,-130.4317312,0.0010588444909,-83.6492427497,-0.0249315603292,0.81571008506,0.387055821639,4.19746268663e-16,161.46985184179803,0.469752178812,266,20.1892528975,0.0,-93.6926619444
0.00525255755162,1.59460618428,404,-183.817547233,-130.543554591,0.00185266257964,-83.3446699291,-0.00525255755162,0.80849290545,0.385848013733,2.99910389814e-16,161.52870549777217,0.466626799343,267,20.847999505,0.0,-93.8021364024
0.0200218993892,1.60040102254,404,-208.021861546,-130.974801507,0.00108655047686,-85.1583320045,-0.0200218993892,0.809333353988,0.387250194944,6.48388985593e-16,162.03952696233756,0.470254236926,268,20.4768610343,0.0,-93.9295016495
0.014446797785,1.59294947698,404,-189.170439159,-129.508469267,0.00159804610415,-83.4463113362,-0.014446797785,0.789438556332,0.385447139067,7.41090649653e-16,161.08422977938287,0.46558731478,269,21.9572690943,0.0,-92.7916093145
0.0182120698695,1.59826151786,404,-198.09280029,-129.672307291,0.00174570830269,-83.5718325199,-0.0182120698695,0.7919669041,0.386732497448,4.99080040048e-16,161.54354468702684,0.468916487185,270,21.2896727926,0.0,-92.6499237353
0.0300653744481,1.60142625549,404,-191.518331909,-127.597163178,0.00176624501505,-82.7495552848,-0.0300653744481,0.807117494391,0.387498271305,5.01378112016e-16,159.51731344926074,0.470894641857,271,19.3567046913,0.0,-91.7331224121
0.0129131336918,1.60162489741,404,-204.338810093,-128.749386976,0.00116988950875,-85.8902423174,-0.0129131336918,0.799218390224,0.387546336834,1.062565807e-16,160.59438158104504,0.471018674794,272,21.0950440124,0.0,-92.6577090226
0.0182972704366,1.59340046899,404,-211.211176108,-128.653691979,0.00111744586034,-81.5319148313,-0.0182972704366,0.802773796787,0.385556265932,-1.38325610475e-16,160.93539504561733,0.4658703923,273,21.0522087667,0.0,-92.6840045167
0.00299021360916,1.58670043377,404,-208.035746981,-126.331607356,0.00243902073902,-82.8407161156,-0.00299021360916,0.805273346746,0.383935053555,2.99069692788e-16,158.78132416126684,0.461656661138,274,20.6444821177,0.0,-91.6153938521
0.0332814213421,1.58000096547,403,-214.216370372,-125.682636883,0.00161176161127,-82.9423536154,-0.0332814213421,0.808188068597,0.382313978356,-3.7416190679e-16,158.90334524928485,0.457425458097,275,19.8573932984,0.0,-90.9778992359
0.021096853809,1.57881141161,404,-192.276500103,-125.969020635,0.00109344685523,-83.4280112746,-0.021096853809,0.806447017855,0.382026141146,-9.41910616764e-17,159.5920462956035,0.456672292808,276,19.4718962055,0.0,-90.9967323032
0.0236049072674,1.57314613271,404,-195.996650667,-124.3095474,0.00111191563514,-82.2654967341,-0.0236049072674,0.80032846508,0.380655309506,-3.3606220359e-16,158.33282714213047,0.453077520403,277,19.6017028704,0.0,-90.0734059593
0.00982164174923,1.5748784377,404,-194.091151152,-123.885538739,0.00173823308313,-80.4819534342,-0.00982164174923,0.799477981512,0.3810744766,7.29584597731e-16,158.61934438294298,0.454178086886,278,20.1382544313,0.0,-89.6925388475
0.0213637520069,1.58409403193,404,-183.877119402,-123.324779415,0.00108736831655,-80.9594628844,-0.0213637520069,0.794615555865,0.383304380611,-4.59004907875e-16,158.13867565787777,0.460012655219,279,20.2008696002,0.0,-89.4631749277
0.0260046846713,1.58125947414,404,-190.112043158,-123.005501779,0.00105326418038,-82.1502428571,-0.0260046846713,0.805083289183,0.382618500611,-5.32208609328e-16,157.45242934300487,0.458221665029,280,18.8812314731,0.0,-89.1453821214
0.00193932084775,1.57183105772,404,-194.924766631,-124.263872188,0.00165682095457,-83.95855741,-0.00193932084775,0.807730699463,0.380337099859,-3.6349088116e-16,158.26152494646382,0.452241218589,281,19.0961346271,0.0,-89.9910076319
0.00858699217037,1.58540869004,404,-206.423458041,-125.488963285,0.0011489053597,-82.9951939449,-0.00858699217037,0.808626234425,0.383622489388,-7.72126798924e-16,159.1302075503727,0.460842222697,282,19.985573209,0.0,-90.8266185242
0.00342501564096,1.56685730371,404,-188.327055741,-126.153727405,0.0016935386896,-84.7932124856,-0.00342501564096,0.803840719002,0.379133596997,-2.52662692258e-16,160.5395706347978,0.449071895865,283,19.952704479,0.0,-90.9412084034
0.0395759132676,1.5452423084,404,-203.157394441,-124.118875874,0.00173399325018,-82.8115834763,-0.0395759132676,0.817397586329,0.373903400922,1.02316582224e-15,159.03908023981944,0.435180731971,284,19.0825818249,0.0,-90.5913673239
0.0116173058055,1.53193025348,404,-193.778257206,-123.220979276,0.00163967604395,-82.4736887333,-0.0116173058055,0.828399293364,0.370682273347,-1.06217277292e-15,158.13807970689223,0.426528543833,285,18.5560154205,0.0,-90.2655241459
0.0270681667027,1.53896469592,404,-193.644000011,-122.66897276,0.00167722260299,-81.5584658879,-0.0270681667027,0.826555261816,0.372384402481,4.97547099129e-17,157.96728643420852,0.431109914971,286,18.1682563245,0.0,-89.6918521373
0.038557515524,1.52937724169,404,-189.611621376,-122.376420031,0.00162848120244,-80.8919826435,-0.038557515524,0.822408245268,0.370064519234,-6.68168703867e-18,157.66058520951108,0.424860620966,287,17.9499000899,0.0,-89.2068854111
0.00984894222616,1.53955251216,404,-195.369284938,-123.462613074,0.00111862225876,-78.7091320315,-0.00984894222616,0.807933704785,0.372526636803,5.26272726115e-16,159.1233230802813,0.431491797682,288,18.5018554216,0.0,-89.4840172728
0.012544561696,1.53698958234,404,-181.732245158,-123.003938349,0.000908567195747,-81.9377810064,-0.012544561696,0.814861843978,0.371906482817,-7.30752047234e-16,159.05118032366022,0.429825686616,289,18.5367529803,0.0,-89.2502373119
0.0176896210973,1.52916963328,404,-180.893066916,-120.061755443,0.0017579493194,-80.7219407157,-0.0176896210973,0.818322096694,0.370014284078,-5.91522454923e-16,156.44158343187243,0.424724864733,290,17.9106767995,0.0,-87.9250614146
0.0217770821509,1.52135616062,404,-212.943108742,-122.203552768,0.00126656917686,-81.8038091628,-0.0217770821509,0.810093447089,0.368123652436,2.61370486964e-17,158.4360469820223,0.419602148007,291,18.6084310629,0.0,-89.022843688
0.0206565444938,1.512380854,404,-186.409009056,-123.668803655,0.00168372617383,-81.4458642514,-0.0206565444938,0.787936004708,0.365951890992,5.75498327904e-16,159.67039652608585,0.413685133607,292,19.9298102802,0.0,-89.3280170013
0.0409746365486,1.52045059511,404,-191.237295537,-123.175023704,0.00166755675914,-83.9078298814,-0.0409746365486,0.7998085254,0.367904532094,7.11697357042e-16,158.64741858778774,0.419006735077,293,19.6700639325,0.0,-89.3527062375
0.00637525668019,1.52548825108,404,-182.707696236,-123.585580259,0.00165289520682,-82.9773918511,-0.00637525668019,0.80798216537,0.369123497359,-5.502050434e-16,158.6155331166334,0.422314523459,294,18.7143813506,0.0,-89.671930126
0.00634686292059,1.53373653472,404,-187.496856922,-123.924833421,0.00165425446928,-82.3911424957,-0.00634686292059,0.811541307873,0.371119340527,7.89221049399e-16,158.28175878639348,0.427706937684,295,18.6537023691,0.0,-89.9579983706
0.0147449382885,1.55765765564,404,-191.140419233,-126.394917603,0.00186159586304,-86.156636286,-0.0147449382885,0.7978134773,0.376907551488,4.32423343817e-16,160.22417823245465,0.443183190081,296,19.8492423489,0.0,-91.0739406975
0.00760285718926,1.57792186309,403,-205.720047137,-128.978884767,0.00173924731051,-85.8576991046,-0.00760285718926,0.800269768686,0.381810896446,-2.34226981345e-16,162.04167388769417,0.456108704777,297,20.3557494601,0.0,-92.4172374409
0.0232564379103,1.59607920267,404,-204.839236715,-130.508111173,0.00105621462197,-85.5774319146,-0.0232564379103,0.788957304659,0.386204441059,8.56239561607e-16,163.65699113460565,0.467550123528,298,21.444961467,0.0,-92.9674313816
0.0272589659054,1.60594216524,404,-225.828030631,-128.774253642,0.00111662946905,-86.3678088797,-0.0272589659054,0.782081076679,0.388590989259,-5.81709818735e-16,161.90315749768695,0.473710603194,299,21.5516034755,0.0,-92.1254575346
