MeanKLBefore,AverageDiscountedReturn,NumTrajs,AveragePolicyStd,AverageReturn,MeanKL,dLoss,StdReturn,Total cost,MaxReturn,Iteration,MinReturn,Perplexity,LossAfter,Entropy,LossBefore,ExplainedVariance
0.0,-161.601275465,204,1.0,-249.204623864,0.00969915281775,897.048187135,28.6157426636,255.10410432531094,-174.484363216,0,-307.502838976,4.13273135412,-897.048187135,1.4189385332,5.39568389968e-11,4.8016035592e-12
0.0,-161.961036535,203,1.00512495246,-248.920241532,0.0069855746024,755.296598223,27.0716570043,255.36559879284192,-181.234496142,1,-309.907819026,4.15391140586,-755.296598224,1.4240503978,-5.58159074515e-11,0.899214877609
0.0,-169.254505288,204,0.996328227863,-259.31450682,0.00700831407968,717.831108542,31.8640816214,263.60877682914935,-173.912640525,2,-327.923004257,4.11755690629,-717.831108542,1.41526000357,-8.89954221428e-11,0.89662179478
0.0,-168.224648785,204,1.00363276501,-258.601777198,0.00656230233376,612.078794992,30.8274975509,262.2145231237991,-178.557222004,3,-337.908375878,4.14774459598,-612.078794992,1.42256471566,-2.39739339492e-11,0.902893329236
0.0,-170.283276856,204,1.00702988608,-261.380215355,0.00874061562534,797.523089933,31.2512868898,264.707738602467,-182.111104942,4,-327.235846246,4.16178398473,-797.523089933,1.42594382483,3.97950561393e-11,0.907865358483
0.0,-168.006472952,204,1.01627846678,-258.918087585,0.00562208498772,560.174200367,28.853055443,262.9399333891607,-185.577691856,5,-322.145157991,4.20000588418,-560.174200367,1.43508592628,-6.90780765922e-12,0.908533744815
0.0,-176.756772744,204,1.0247783639,-271.494751749,0.00619592168559,630.224306158,29.8860902481,274.61418859456467,-186.15033921,6,-333.520644542,4.23513367552,-630.224306158,1.44341489207,-1.96045901735e-10,0.916733076433
0.0,-176.740754485,204,1.04374451778,-271.654206858,0.00632539753337,702.365332788,27.5173082409,274.6885661856158,-185.678903017,7,-335.933445053,4.31351569432,-702.365332788,1.46175327795,-1.1305412162e-10,0.928074739288
0.0,-181.398686872,204,1.05032682291,-278.481677521,0.00596236240996,769.768874838,30.6241189837,282.16246483895026,-195.158690069,8,-356.108371972,4.3407185931,-769.768874838,1.46803990885,-2.68047806173e-11,0.925655152761
0.0,-173.323811931,204,1.0400371937,-266.25614775,0.00655193571557,544.752675562,30.920331276,268.81976787438174,-178.532431132,9,-330.311761297,4.29819431985,-544.752675562,1.45819500889,1.9748647162e-12,0.910226254587
0.0,-178.248934001,204,1.03757755492,-272.801737515,0.00570645910447,733.077686969,29.296484776,275.81664142776646,-192.186620924,10,-341.811137528,4.28802929356,-733.077686969,1.45582725527,-6.01725336224e-11,0.925724569538
0.0,-179.136614274,204,1.03715033748,-275.413693136,0.00896511094615,867.387766935,27.7899928255,278.3211963169235,-194.219878646,11,-339.535143358,4.28626371862,-867.387766935,1.4554154254,-5.11195530351e-11,0.927240498509
0.0,-170.351027795,204,1.04741769603,-261.82825127,0.00800768129446,764.069584517,33.4646920791,265.3265938523001,-184.435801758,12,-346.516660352,4.32869595326,-764.069584517,1.46526633113,4.14472900445e-11,0.897291978786
0.0,-165.992246472,204,1.0669529845,-256.452168329,0.00902163874702,866.048949679,31.6450167282,260.95148668880347,-175.505560507,13,-316.087740489,4.40943005244,-866.048949679,1.4837454413,-4.73348166219e-11,0.899814868313
0.0,-166.288345608,204,1.07405700495,-256.00896533,0.00775700739236,856.86171769,30.0536717846,261.25623526838257,-177.031694705,14,-321.70440737,4.43878906049,-856.86171769,1.49038160512,-1.10800257858e-10,0.904327292487
0.0,-159.097104576,204,1.0680708536,-244.770850116,0.00875433021682,818.847894987,30.6050225525,252.8913681449636,-170.143592298,15,-309.868940146,4.41404990511,-818.847894987,1.48479261387,6.07769390371e-12,0.886476917516
0.0,-160.269658108,204,1.05409238889,-246.048997118,0.00605290174281,685.25169088,30.3387130719,254.60784802614216,-162.771793584,16,-308.126206986,4.35628066571,-685.25169088,1.47161863498,-3.01991764928e-12,0.892804244695
0.0,-164.160300379,204,1.03970873507,-251.769803522,0.00728872325625,872.901396769,29.0952681512,257.48501652719926,-172.034108993,17,-316.146034647,4.29683688858,-872.901396769,1.4578791447,-4.46491732475e-11,0.907331862033
0.0,-158.918867188,204,1.03366647439,-243.542560697,0.00943833407143,1299.6868861,24.2152393208,250.44090693999854,-188.03117479,18,-306.941563977,4.2718658484,-1299.6868861,1.45205069864,7.02518043738e-11,0.913023387303
0.0,-159.272918483,204,1.01525771298,-244.188914651,0.00628174444074,802.101066429,27.0857054193,250.68574071319813,-173.774934371,19,-314.275843408,4.19578738296,-802.101066429,1.43408101789,1.04685704549e-10,0.911048667229
0.0,-157.60967308,204,1.01008941787,-241.994848615,0.00766783213699,1186.53944699,22.474962128,248.5227846195391,-187.765696777,20,-300.507302858,4.17442820771,-1186.53944699,1.42897739269,5.9017235543e-11,0.924319765023
0.0,-155.135841866,204,1.01740953066,-237.917426117,0.00614053144414,1029.60292982,22.4376091359,245.8055508543482,-187.822849894,21,-297.2040431,4.20468026733,-1029.60292982,1.43619825423,-7.52482520738e-11,0.925512456085
0.0,-153.096801205,204,1.02846547821,-236.157687919,0.00624548627427,851.164385998,21.2379860264,245.55817120013324,-175.978899459,22,-292.806872483,4.25037152845,-851.164385998,1.44700639757,2.04600225651e-11,0.930103181621
0.0,-149.652193422,204,1.02800973161,-231.154888582,0.00713111409637,1414.41211652,16.3450153489,244.16016597670716,-197.848902048,23,-306.436329968,4.24848805019,-1414.41211652,1.44656316674,-6.36022345901e-11,0.947903600505
0.0,-148.816759548,204,0.993486961667,-229.556753949,0.00892344099535,1638.83666034,13.6008005111,241.9377053726534,-191.83424456,24,-275.750064401,4.10581471639,-1638.83666034,1.41240419249,1.94911531359e-10,0.955580298022
0.0,-149.304329401,204,0.972383807378,-230.838850174,0.00715272642208,1332.43780179,16.501556413,241.9347298352742,-191.382270352,25,-288.095486771,4.01860104899,-1332.43780179,1.3909338443,-2.19402329638e-10,0.944642224073
0.0,-148.265151949,204,0.96894606996,-227.893922016,0.00664629948824,1478.91992677,15.1352526269,240.8672879509647,-192.1119578,26,-287.807574415,4.00439380378,-1478.91992677,1.38739220921,-8.74268435425e-11,0.953167212806
0.0,-149.596968832,204,0.987043038044,-231.478663413,0.00574057015158,1261.3775005,16.91125007,244.08207794422808,-187.494618538,27,-290.108016249,4.07918371119,-1261.3775005,1.40589689761,-1.92855731385e-10,0.942115446977
0.0,-151.664695075,204,0.985905010049,-233.064328708,0.00828385757024,1013.67327226,22.1954126966,241.36045277546785,-181.55862625,28,-299.321566033,4.07448054722,-1013.67327226,1.40474326549,5.54195023206e-11,0.921488794658
0.0,-152.405235505,204,0.988271867599,-234.344052223,0.00741862303135,1225.84805746,20.2105002538,243.1018999829847,-187.474173646,29,-289.783787351,4.08426213362,-1225.84805746,1.40714108375,6.53632148406e-11,0.935964991961
0.0,-152.364551531,204,0.97569818226,-233.375752826,0.00623914485027,1115.44726586,20.5439220268,241.15513353702408,-181.483229414,30,-297.475998484,4.03229846998,-1115.44726586,1.39433655332,-4.18611811881e-11,0.932424908556
0.0,-154.559351721,203,0.9952493102,-237.73258095,0.00694017424991,1215.81454183,22.5948790882,245.93603116855823,-172.657145657,31,-318.810846438,4.11309802943,-1215.81454183,1.41417652301,9.22486531607e-11,0.922330191728
0.0,-152.518276317,204,0.994382424244,-233.192939031,0.00545746647574,846.765322656,21.7040901253,240.84772468864008,-172.147653871,32,-309.333955916,4.10951542266,-846.765322656,1.41330511953,-1.41261780051e-10,0.928385902445
0.0,-148.553494845,204,0.99389264145,-227.927129986,0.0068326791729,1005.54766293,23.2099363252,237.07287118511343,-159.817384687,33,-296.285431942,4.10749128195,-1005.54766293,1.41281244846,5.8326399266e-12,0.911761676886
0.0,-149.377948975,204,1.00561866406,-228.83126806,0.00767361756089,1169.15097733,21.925992191,237.38814504346377,-170.711244533,34,-279.358761609,4.15595178325,-1169.15097733,1.42454147145,2.15661100089e-11,0.918657278265
0.0,-149.550192601,204,1.01612372878,-229.078293904,0.00938703138224,1260.89806754,22.7042811283,238.99243966337767,-175.631309744,35,-291.91731005,4.19936639361,-1260.89806754,1.43493365524,5.42210720766e-12,0.912062120382
0.0,-149.523080849,204,1.01775855962,-226.7993112,0.00887597657549,1277.15856562,22.1696165488,236.1461343785178,-171.548767155,36,-292.28489755,4.20612271028,-1277.15856562,1.43654125191,-4.3613113121e-11,0.913859919357
0.0,-148.584565664,204,1.01481766324,-225.557726968,0.00686770111121,1242.28587839,20.1341593248,235.27788423558272,-173.172161594,37,-289.477834411,4.19396877558,-1242.28587839,1.43364748743,1.43982825662e-10,0.929110616551
0.0,-148.302893936,204,1.01460220247,-226.229857256,0.00720263800626,1119.88896314,19.6637751815,236.20351163587358,-172.24370736,38,-287.667398796,4.19307833411,-1119.88896314,1.43343515013,1.41854750169e-10,0.928994197407
0.0,-147.242001897,204,0.996896712241,-223.737124776,0.0077161404678,1013.76646926,22.8329321131,233.84452719419684,-174.87170234,39,-289.434068775,4.1199062995,-1013.76646926,1.41583042026,-9.22055765074e-11,0.908436575967
0.0,-147.484129135,204,0.986420867133,-223.523704544,0.00995628749044,1508.23607553,21.7231643814,233.45958006016266,-166.705131521,40,-287.690845331,4.07661244596,-1508.23607553,1.40526636069,-1.26717525362e-10,0.918016590454
0.0,-147.468084722,204,0.95641185826,-224.36709071,0.00589167190216,810.255345611,23.7483212135,235.5906121959853,-166.851212116,41,-306.047435225,3.95259327409,-810.255345611,1.37437188858,-9.06168473591e-11,0.909133066268
0.0,-147.632074069,204,0.97058682546,-224.056111704,0.00953961249708,1377.28297097,20.850058196,235.75692433386786,-168.288629405,42,-284.097267011,4.01117460548,-1377.28297097,1.3890841175,6.55114851256e-11,0.922912444042
0.0,-152.757102181,204,0.972652626141,-232.14925169,0.00880748832444,1310.99724527,20.6791728942,241.60984932416338,-169.935659708,43,-305.110300959,4.01971200472,-1310.99724527,1.39121025945,-8.28603852199e-11,0.926127565349
0.0,-148.637955244,204,0.965121171847,-223.735475295,0.00687917890805,1162.89798389,20.1614859261,234.98260196001493,-176.78156756,44,-287.657009363,3.98858652742,-1162.89798389,1.38343691436,1.10986331237e-10,0.93237400364
0.0,-151.103230462,204,0.962402480891,-229.714928967,0.00596246579373,947.236394969,21.6788335118,241.33506724442526,-166.391143853,45,-290.622019997,3.97735090806,-947.236394969,1.3806159967,-1.81323622783e-10,0.924666614258
0.0,-151.67899833,204,0.972250927938,-230.60391068,0.00669466169874,1082.77466066,22.2859727807,241.59078075121505,-172.942194714,46,-287.003437772,4.01805189396,-1082.77466066,1.39079718168,4.48191150859e-10,0.927682341554
0.0,-151.783920191,204,0.95065783738,-229.266774868,0.00706493282017,1170.62393632,20.4787118591,240.1871021275144,-179.360764059,47,-294.228088647,3.92881345158,-1170.62393632,1.36833745958,1.11269993219e-10,0.923505636139
0.0,-152.083203956,204,0.946534717074,-229.258673427,0.00905322063509,1156.19203048,24.056108557,240.80994550786792,-158.485739135,48,-311.286799714,3.91177370302,-1156.19203048,1.36399090362,-1.02685877162e-10,0.912140104164
0.0,-152.350585357,204,0.955489684274,-228.996811631,0.00988302352144,1312.45140316,22.9152620058,240.67637135194767,-183.745615314,49,-295.489021984,3.94878217674,-1312.45140316,1.37340722169,-6.6456545128e-11,0.91823438676
0.0,-151.882919899,204,0.955976900686,-228.610417143,0.00789504121589,1066.76820842,24.4679837876,237.98038972273932,-171.194113062,50,-292.021392993,3.95079571128,-1066.76820842,1.37391700452,5.60085311463e-12,0.915350092414
0.0,-149.399409859,204,0.945664530852,-224.326174481,0.00806538333819,1109.91265795,25.628546541,234.27827476994116,-154.246173213,51,-289.350494786,3.90817745713,-1109.91265795,1.36307114183,-5.58671997553e-11,0.907353176359
0.0,-149.041014974,203,0.924386890342,-223.784900144,0.00610093706255,785.1012382,24.5475886083,233.03899584765637,-157.032487299,52,-289.634441148,3.82024268506,-785.101238199,1.34031395072,9.1052498874e-11,0.908717812085
0.0,-149.515498893,204,0.919425038734,-223.108521357,0.0075104328625,1038.35096212,25.0717868023,232.71310874351133,-124.815715553,53,-289.000958236,3.79973668534,-1038.35096212,1.334931771,3.94639876333e-11,0.909656375182
0.0,-153.413424003,204,0.92040765109,-229.917578987,0.00912801207635,1309.42956006,24.9887703463,238.79534285825306,-165.430150347,54,-306.555168059,3.80379755824,-1309.42956006,1.33599992514,-2.36612951454e-11,0.909829653619
0.0,-149.517016773,204,0.90620218669,-223.721003715,0.00663922188435,853.671996772,27.0300794077,234.61432533920626,-158.927103215,55,-310.510288575,3.74509019011,-853.671996771,1.32044569948,8.85892470492e-11,0.901025360184
0.0,-149.737445692,204,0.904958614167,-223.840644025,0.00815065820206,1046.60771143,26.143117109,235.12930125951442,-153.22788699,56,-310.755802023,3.73995083895,-1046.60771143,1.31907246667,1.26094690245e-10,0.903138975903
0.0,-145.691539112,204,0.897261905559,-217.768702426,0.00832183773586,1197.83438045,25.0564896575,230.26908357394066,-149.412888731,57,-279.093350718,3.70814240996,-1197.83438045,1.31053105311,1.60015334316e-11,0.89835956264
0.0,-145.193559147,204,0.886673430312,-216.497198778,0.00716862360684,1300.98849363,19.494265753,230.40979578086998,-147.094480161,58,-281.937673102,3.66438308632,-1300.98849363,1.29865999547,-1.22313326134e-10,0.930585207834
0.0,-143.380165795,204,0.886889087466,-213.039149109,0.00687362521336,954.872888516,28.0155460652,226.25522840482515,-115.954852982,59,-288.039628701,3.6652743394,-954.872888516,1.2989031864,-3.13040704469e-11,0.883138995771
0.0,-137.71240075,204,0.892200761207,-205.703911111,0.00729652430294,1060.51419229,23.9120259377,220.6604016426571,-133.473572556,60,-273.447472256,3.68722606001,-1060.51419229,1.3048744301,1.67762470582e-11,0.882584137106
0.0,-135.784386632,204,0.888214992469,-202.914824524,0.00674007778717,1070.51702027,24.2904880426,217.7617193183018,-141.768408678,61,-269.607494776,3.67075394858,-1070.51702027,1.30039707655,-1.04256159261e-10,0.88301767357
0.0,-133.849911893,204,0.865352893544,-200.519816363,0.00889527022895,1196.83992472,26.0559773591,217.57208752581403,-122.928875463,62,-289.715905461,3.57627103553,-1196.83992472,1.27432064737,5.39410183187e-11,0.880160816448
0.0,-134.190432178,204,0.85620722388,-200.378299022,0.00714247553252,957.50539698,28.4138989747,216.60358204882806,-111.392112747,63,-263.330576999,3.53847443976,-957.50539698,1.26369568504,-2.07061034985e-11,0.862388902832
0.0,-128.053777887,204,0.856748882489,-191.321141545,0.006617868843,866.015303845,25.1460088138,210.1059454874816,-121.515669576,64,-254.921946395,3.54071296927,-866.015303845,1.26432811062,9.37945277002e-11,0.856656415047
0.0,-125.348995439,204,0.852376090934,-188.003980916,0.00678889991307,1094.59518866,25.1016929136,207.03055180764102,-112.835204531,65,-286.250815793,3.52264139651,-1094.59518866,1.25921110494,7.52811146754e-11,0.862692676923
0.0,-125.0823669,204,0.835578185461,-185.689719234,0.00949456005783,1209.56069336,27.6065522538,206.58174957630843,-115.749669457,66,-264.316591225,3.45322016588,-1209.56069336,1.23930717713,6.17801365621e-11,0.83378009457
0.0,-123.53937651,204,0.845697066711,-184.336874395,0.00872892743119,1137.09365353,24.7231318565,206.02807296171318,-122.098876677,67,-241.523819998,3.49503878369,-1137.09365353,1.25134447253,1.53432822003e-12,0.851830479103
0.0,-124.026845876,204,0.881289310099,-184.516240012,0.00681782431847,1094.34845098,23.9766962237,205.08345452050023,-111.666053757,68,-272.878882762,3.6421319639,-1094.34845098,1.29256921456,-1.91862081778e-11,0.871671533267
0.0,-119.687836615,204,0.880618114623,-178.729703254,0.00719497436021,1050.02452634,23.8503280137,202.98429008333534,-116.181915933,69,-248.135448534,3.63935809331,-1050.02452634,1.29180731811,9.20988424413e-11,0.851864456403
0.0,-120.855933775,204,0.879596933744,-181.509116145,0.00787886672009,1177.72731037,22.328058367,203.71431840120238,-133.75913023,70,-241.243323425,3.63513782707,-1177.72731037,1.29064702693,-5.02993202645e-11,0.863134819909
0.0,-118.07859604,204,0.872433766507,-176.600144826,0.00635074813067,917.639927835,23.4476354225,198.8316403759842,-123.96609849,71,-250.115395119,3.60553438124,-917.639927835,1.2824699931,8.67406146909e-11,0.844671438763
0.0,-117.457963219,204,0.870237579102,-174.753475484,0.00658490506803,893.41806455,27.2774565986,197.4063939044086,-109.152179846,72,-252.197172576,3.59645812869,-893.41806455,1.27994950802,1.97999394658e-11,0.821166132332
0.0,-119.736460565,204,0.847760916684,-178.467466793,0.00668233702515,882.446633377,26.3716732644,203.40362603441298,-101.234499612,73,-235.281674069,3.50356812118,-882.446633377,1.25378191239,9.22262266556e-12,0.844030726163
0.0,-112.91493458,204,0.828920755176,-167.839634001,0.00772201824671,979.744715229,24.4531554808,192.50169032402547,-113.596589104,74,-237.174996572,3.425706795,-979.744715229,1.23130781393,6.12461192873e-11,0.816492719595
0.0,-113.211841935,204,0.834349896091,-168.294593785,0.00801188664685,1102.85251794,23.7574980074,193.83777328529175,-103.397547082,75,-238.945375305,3.44814397588,-1102.85251794,1.23783610828,4.25735419141e-11,0.828962107947
0.0,-117.544239541,204,0.840458368258,-175.541156761,0.00665438153203,867.958291488,25.9709455079,201.34065548179896,-110.569700668,76,-234.925204896,3.47338865033,-867.958291488,1.24513067373,-2.39281927605e-11,0.83583885421
0.0,-114.733360737,204,0.835335895598,-170.008525446,0.00647990415197,853.953485354,23.5963003298,196.78933791257904,-108.010207835,77,-235.581226566,3.45221884696,-853.953485354,1.23901716836,-1.22815757564e-10,0.846021554587
0.0,-116.380984027,204,0.836638345408,-173.45448724,0.00687238202497,904.97164262,27.1477611178,200.60688084861067,-116.159309184,78,-245.497668525,3.45760152213,-904.97164262,1.240575147,-8.07798272717e-12,0.831557305712
0.0,-111.705453912,203,0.820072539619,-164.89798783,0.00659405253827,832.724153298,25.2196853084,192.28788303505723,-110.07611906,79,-238.819841694,3.38913949714,-832.724153298,1.22057605352,4.08241218608e-11,0.819174818416
0.0,-113.355722352,204,0.818264793839,-168.253141546,0.00940457001804,1101.75700908,26.0227590779,196.94241797036997,-109.560288413,80,-254.569770964,3.38166856947,-1101.75700908,1.21836924729,-2.74296141356e-11,0.818479951366
0.0,-109.404705288,204,0.821688139628,-161.681425993,0.00639437218469,1019.32484859,23.6244739449,190.22274127516044,-100.134123862,81,-227.355249894,3.39581633795,-1019.32484859,1.22254418511,-7.30981941643e-12,0.829045253758
0.0,-109.90299627,204,0.799155159269,-162.802679621,0.0090053885692,1235.67065323,22.2271507321,191.30487585637434,-111.128789979,82,-243.583776741,3.30269358352,-1235.67065323,1.19473837296,6.41953157299e-12,0.846119222208
0.0,-111.058898465,204,0.826682403878,-164.186708934,0.00993965380667,1311.61163736,25.8263945571,191.4688279555629,-101.281118879,83,-221.040903587,3.41645629041,-1311.61163736,1.22860384148,1.66617830644e-11,0.808302340645
0.0,-107.309403942,204,0.812734752896,-156.688666472,0.00647004062415,1138.62382727,22.4219967503,184.40250891528615,-106.17140737,84,-227.785066447,3.35881439588,-1138.62382727,1.21158805334,7.12747638687e-11,0.833404564085
0.0,-106.982737089,204,0.798850359598,-157.374094462,0.00689927802172,1018.7472272,23.2940413857,184.9806091630353,-100.194272603,85,-246.365365774,3.30143392836,-1018.7472272,1.19435689784,9.71698277397e-11,0.826554799139
0.0,-105.473060038,204,0.798082781309,-152.79218343,0.00645302283553,1011.86801824,21.217774457,180.23044622708116,-107.53353899,86,-219.615445518,3.2982617335,-1011.86801824,1.19339558227,-1.06038400283e-10,0.823549248794
0.0,-108.31829134,204,0.797487650491,-157.682972322,0.00788796457598,1102.55530802,23.3222073816,182.82178734416343,-93.7882102732,87,-228.871545583,3.29580221771,-1102.55530802,1.19264960348,7.84041720436e-11,0.81932360249
0.0,-106.946943362,204,0.797869938621,-155.946140614,0.00673099221451,1112.45685661,21.5683389595,181.65985168353512,-95.5305578049,88,-213.437918144,3.29738211185,-1112.45685661,1.19312885421,5.20510301527e-11,0.829551773735
0.0,-105.855391518,204,0.79562668247,-153.926642336,0.00995922761063,1543.94434407,21.078299608,179.3183130190587,-108.485870492,89,-235.134377586,3.28811133682,-1543.94434407,1.19031333818,-4.0051517658e-11,0.833347125716
0.0,-105.916489751,204,0.793126631665,-154.467406381,0.0095575543531,1305.27884469,24.1278762528,180.23711150741647,-94.5458734966,90,-229.172805837,3.27777929847,-1305.27884469,1.18716614995,-7.96369636902e-11,0.803354591419
0.0,-107.058531183,204,0.804109017536,-156.145075846,0.0076843586659,1239.35642443,22.9869003633,180.34811077506922,-100.441928491,91,-229.208882506,3.3231665489,-1239.35642443,1.20091810816,-5.97407540104e-12,0.814379132167
0.0,-105.020968547,204,0.81316746554,-152.050309175,0.00781798650293,1208.5500433,23.446862648,177.89661621349595,-102.846472896,92,-228.199145783,3.36060268099,-1208.5500433,1.21212032723,-6.02007332873e-11,0.804009784788
0.0,-104.699915247,204,0.793123201182,-152.996683472,0.00702280596539,1143.27730458,23.6963182795,177.40804804504285,-91.2272820243,93,-241.24822054,3.27776512121,-1143.27730458,1.18716182467,8.81983375223e-12,0.795770523119
0.0,-105.72714945,204,0.77145862213,-155.261494496,0.00737823963418,1174.52240797,23.4397538852,181.36722184868785,-98.7451430755,94,-218.093851136,3.18823123609,-1174.52240797,1.15946629157,-1.19772587681e-10,0.806253501579
0.0,-104.884975342,204,0.763885028659,-153.868733615,0.00898707628337,1467.13548809,20.7576069621,180.40881404843722,-95.8747480365,95,-208.4651236,3.15693160888,-1467.13548809,1.14960054602,2.78748135685e-11,0.82597854338
0.0,-103.798455213,204,0.78082133791,-151.055863936,0.00956697845854,1343.69834297,24.8246456365,178.37786751317833,-102.925032886,96,-216.991664868,3.22692482515,-1343.69834297,1.17152961721,1.25012222796e-11,0.792705537387
0.0,-105.928571441,204,0.78739369277,-155.09598142,0.00649319385599,1082.42193295,21.3604460866,180.9186334873352,-112.948466268,97,-220.111178781,3.25408660215,-1082.42193295,1.1799116225,-1.61373137075e-11,0.823955157577
0.0,-104.449595625,204,0.77745722922,-152.191920971,0.00982142176307,1574.5085855,20.9409426085,178.45364983360471,-105.288333342,98,-235.528314242,3.21302186769,-1574.5085855,1.16721188611,2.27444452161e-12,0.830879371844
0.0,-106.970416197,204,0.782294734336,-154.55972131,0.00721998509663,1107.26458176,23.204029065,180.36230250136705,-100.271590404,99,-236.206380787,3.23301397675,-1107.26458176,1.17341482189,-6.41753317154e-12,0.805028521497
