MinReturn,Iteration,LossAfter,Perplexity,MeanKL,Total cost,NumTrajs,StdReturn,MeanKLBefore,Entropy,AverageReturn,AveragePolicyStd,AverageDiscountedReturn,ExplainedVariance,MaxReturn,dLoss,LossBefore
-307.502838976,0,-1119947.66814,4.13273135412,0.00899157945045,254.64614557415126,204,28.5191362216,0.0,1.4189385332,-249.046007055,1.0,-161.553348681,4.80859796426e-12,-174.484363216,18847.4793447,-1101100.1888
-348.18931241,1,-1823615.96114,4.16760425724,0.00580127409185,255.11372280291266,204,29.1168391415,0.0,1.42734135206,-249.837280908,1.00843822163,-162.753947176,0.89976215111,-171.701038677,14149.8719731,-1809466.08917
-313.732689767,2,-1313051.89105,4.18337359995,0.00746066742284,254.06844408998003,204,29.5819285829,0.0,1.43111800235,-248.215864001,1.01225394091,-161.215324682,0.897698287761,-168.854352961,17950.1981025,-1295101.69294
-320.729444549,3,-1442994.18611,4.15527094153,0.00660102987649,249.9019929040833,204,27.7450166658,0.0,1.42437763473,-243.762978696,1.0054539203,-158.820138751,0.904842840132,-182.764579853,14815.9556419,-1428178.23047
-306.912232441,4,-1286878.83411,4.13006783368,0.00714756100197,249.54058509827868,204,28.0878022582,0.0,1.41829383146,-243.793770589,0.999355506028,-159.391017326,0.898661094746,-172.726820601,17022.2689637,-1269856.56515
-333.418321978,5,-1496810.53478,4.17425739607,0.00682938129931,254.5106365292379,203,28.9298234752,0.0,1.42893647328,-248.616910914,1.01004808646,-162.127349107,0.899895729492,-184.786490718,17193.8045035,-1479616.73027
-325.402346817,6,-1569842.49786,4.17021682278,0.00578236965601,247.69357646480023,204,29.3752494805,0.0,1.42796803033,-240.514910726,1.00907038601,-156.346822156,0.890728853358,-173.253261656,14158.8116016,-1555683.68626
-299.824059796,7,-1238893.94643,4.18115543729,0.00684026172484,240.85574879472708,203,22.4976680311,0.0,1.43058762874,-231.722343794,1.01171721049,-150.382350654,0.908973043764,-172.20238117,16833.3792996,-1222060.56713
-289.911435873,8,-1212804.7205,4.15982699806,0.00631263288469,239.1653146935298,204,23.9085153846,0.0,1.4254734864,-230.155679959,1.00655635259,-149.471747272,0.910247201477,-172.133741387,16618.7429822,-1196185.97752
-293.05608342,9,-1262289.45103,4.08953333241,0.00823277287126,239.57291825459367,204,25.6113064021,0.0,1.40843086389,-231.786996384,0.989547343389,-150.5494701,0.904774180927,-165.364626316,21623.1396237,-1240666.3114
-292.375917242,10,-1262423.15644,4.02506689656,0.00936408557241,235.75797772446077,204,24.017976047,0.0,1.392541531,-226.437963663,0.973948353199,-147.784383534,0.901668659486,-163.662633896,21465.7205074,-1240957.43593
-268.609630395,11,-850992.62884,4.05914446942,0.00752084414402,235.50259182709522,204,20.0055651164,0.0,1.40097222959,-224.976000345,0.982194128193,-147.012903575,0.925200407292,-158.391271227,20217.8905566,-830774.738284
-280.539310172,12,-1154412.93519,4.09077910038,0.00702411338883,228.52296377239833,204,24.9803057066,0.0,1.408735441,-219.318615546,0.989848782767,-144.62158794,0.903239332846,-159.544661786,18715.7715393,-1135697.16365
-305.025123401,13,-1572651.21444,4.07923414415,0.00744992046166,229.6757981866241,204,31.3242440184,0.0,1.40590926103,-220.168152002,0.987055241343,-144.719546188,0.855700565286,-145.029261542,19302.4631966,-1553348.75124
-279.95937927,14,-1248030.98473,4.05678481607,0.00782177566843,222.2744159799306,203,25.5441948672,0.0,1.40039074266,-211.245014676,0.981623161163,-139.040344181,0.877715994929,-128.800778839,19477.3573308,-1228553.6274
-282.33228178,15,-1265256.01154,4.00478262911,0.00910953671346,226.055733606551,204,24.9825918638,0.0,1.38748930417,-215.989174831,0.969040154307,-140.949084664,0.871460520186,-149.779791315,22122.976369,-1243133.03517
-270.008069153,16,-1186919.12522,3.96823734232,0.00701512146281,221.5488437985452,204,24.6513945691,0.0,1.37832200173,-210.63064055,0.960197264785,-137.862130353,0.877720326121,-146.605181796,19444.0326256,-1167475.09259
-256.609645977,17,-1014114.34932,3.8558528048,0.00654918978367,213.87167537527628,203,26.8177459606,0.0,1.34959220299,-201.776729948,0.933003496818,-133.239427914,0.847352159668,-141.645036695,18198.1049135,-995916.244407
-275.078892249,18,-1323303.73482,3.81849862905,0.0097152492647,212.61265403639277,204,26.5067503098,0.0,1.33985731632,-199.470594898,0.923964879847,-131.288525867,0.848063981881,-127.571920659,23765.81042,-1299537.9244
-244.065784977,19,-978243.212798,3.72836952418,0.00588781147508,208.0849817409397,204,27.2693346935,0.0,1.31597101321,-194.061443237,0.902156275042,-129.031453654,0.84531107089,-133.313634224,16691.0038227,-961552.208976
-248.985481856,20,-1164702.33201,3.74091397992,0.00803866263584,208.60814085437917,204,29.2145514441,0.0,1.31932996123,-192.695363834,0.905191666086,-128.127786361,0.829227191251,-121.870343775,22626.5976551,-1142075.73435
-268.979029664,21,-1476479.9044,3.74177976759,0.00907267100698,207.11125128935666,204,29.9115494472,0.0,1.31956137192,-190.641860481,0.905401161354,-127.157057961,0.806153175538,-111.358918849,23540.1897704,-1452939.71463
-255.882105678,22,-1409818.86238,3.74093542886,0.00867612177267,203.07692959190018,204,30.6773430761,0.0,1.31933569482,-186.421695539,0.905196856101,-124.446791085,0.795440647615,-110.012847045,21100.5161121,-1388718.34627
-270.078749241,23,-1588165.74438,3.71706126302,0.00720615853182,206.0589158863938,204,32.1779201954,0.0,1.31293337302,-188.616348627,0.899420006895,-125.552141012,0.768498365759,-106.731370763,18422.7162322,-1569743.02815
-251.731188069,24,-1448831.33122,3.69883105333,0.00971306519256,196.9748300286483,203,30.1293904992,0.0,1.3080168382,-178.286193376,0.895008829848,-120.276411088,0.780542153245,-112.148825477,25034.0501287,-1423797.28109
-264.856451101,25,-1508492.47294,3.63341217272,0.00692776094685,196.82291492881907,204,30.1391066316,0.0,1.29017219925,-176.396754145,0.87917937591,-118.304296615,0.772639587593,-95.624140532,16739.6514958,-1491752.82145
-241.497386419,26,-1297246.87863,3.60451018769,0.00907863296799,195.2366149932871,204,28.9106552999,0.0,1.28218589124,-173.660593445,0.872185941651,-116.768369236,0.776655164173,-103.090524345,21716.1289813,-1275530.74965
-247.028450746,27,-1456211.13608,3.60424261972,0.00717056880277,195.5127760594219,204,30.8224748252,0.0,1.28211165705,-172.64493474,0.872121198036,-116.536594973,0.765158069945,-99.9314899223,16737.6856368,-1439473.45045
-273.879908306,28,-2030534.65543,3.55518239028,0.00984173290509,198.8976128863937,204,30.2583603844,0.0,1.26840636722,-175.060297313,0.860250058774,-117.086024917,0.76868862712,-113.352013316,21677.0075921,-2008857.64784
-270.131869092,29,-1873389.47605,3.48532456022,0.00653810334154,192.232682859354,204,31.2466918084,0.0,1.2485611705,-167.736630155,0.84334650902,-113.630674298,0.75133537355,-86.9226402147,16311.8420384,-1857077.63401
-220.87111856,30,-1134491.80663,3.41656236818,0.0073585900709,186.93342420529476,204,29.2385438449,0.0,1.22863489006,-160.644703245,0.826708071592,-109.352155975,0.743359759774,-89.6774741888,18439.6466876,-1116052.15994
-250.708562244,31,-1722542.04778,3.45876056528,0.00991087030337,184.11332321898718,204,29.1480407576,0.0,1.24091030677,-157.65861365,0.836918799918,-108.115768721,0.75036016598,-95.5525299067,22991.9489983,-1699550.09878
-215.395153132,32,-1161038.37192,3.3960559073,0.00890426111833,184.29317307604418,204,26.9193694719,0.0,1.22261473101,-157.35567956,0.821746108397,-107.216823252,0.754640047053,-87.6303888495,21964.3166105,-1139074.05531
-245.624704909,33,-1704876.92589,3.41172428834,0.00894792654805,181.7502139344382,204,29.1350783519,0.0,1.2272178199,-156.880123636,0.825537397909,-107.38334479,0.759232162255,-96.0370615746,21534.3706382,-1683342.55525
-235.251577344,34,-1690584.10066,3.36232472215,0.00596880179232,175.81050151549908,204,27.3447373222,0.0,1.21263261633,-147.782339386,0.813584149088,-101.861661227,0.74325579782,-95.19981611,13381.0392547,-1677203.0614
-233.776434007,35,-1364904.66962,3.32941442989,0.00703759122073,175.14701869284224,204,27.6540737478,0.0,1.20279644165,-147.16692768,0.805620821826,-101.104620763,0.738084966786,-89.9452553665,17692.6789629,-1347211.99066
-218.784457058,36,-1426921.00799,3.27043352493,0.00671935178768,176.59318193674738,204,27.4904073511,0.0,1.18492255255,-148.551848222,0.791349169518,-102.640576983,0.748735133388,-85.8952694388,17143.1716285,-1409777.83636
-233.705908399,37,-1633302.01041,3.24007627525,0.00826201676503,173.89584542606033,204,27.9375409547,0.0,1.17559687127,-145.808634364,0.784003603819,-101.00686417,0.734423487418,-88.578112784,21300.6817385,-1612001.32867
-190.695789557,38,-1054104.64397,3.11493811244,0.00739957122186,169.33828270156678,204,21.6055603092,0.0,1.13620928445,-138.600188329,0.7537238319,-96.3588829591,0.761315231424,-87.5182697519,19419.7096329,-1034684.93433
-207.256078719,39,-1167120.25651,3.11018288336,0.00992576219271,171.19258906363027,204,22.5884869622,0.0,1.1346815294,-140.682007041,0.752573205673,-96.9020121209,0.766310762706,-90.0403172342,24223.1927311,-1142897.06378
-190.222692179,40,-910473.728668,3.05662582048,0.00729455624238,170.77405687960683,204,21.9676533957,0.0,1.11731163453,-139.507746083,0.739613964365,-96.1260240277,0.758449634148,-86.4740706324,23222.8914494,-887250.837218
-211.669988009,41,-1047437.72671,3.0214088349,0.00675052388177,173.18925859042793,204,23.376312102,0.0,1.10572322423,-142.89032928,0.73109248485,-98.6463120151,0.75036202293,-87.8229599798,18122.3543037,-1029315.37241
-214.863881337,42,-1496553.37544,3.03068049612,0.00630096014207,171.23393286350557,204,26.0265178284,0.0,1.10878718048,-139.32013827,0.733335955432,-96.5866060057,0.724547925743,-84.2409287221,14660.405983,-1481892.96946
-229.907414884,43,-1666491.49452,3.0166534264,0.00626530012362,171.7204387638542,204,24.3180159436,0.0,1.10414808,-138.548285971,0.729941815209,-95.3422262955,0.732282412498,-77.3161456692,13683.1716903,-1652808.32283
-199.434830582,44,-1117505.40217,3.00259870449,0.00667976115627,173.41108405187097,204,22.1875429743,0.0,1.09947814853,-139.45661792,0.726540983965,-95.3422146054,0.772847121204,-86.9679264028,19671.3968684,-1097834.0053
-193.643746453,45,-1260056.48162,2.96416299705,0.00636679531249,171.1624644910036,204,20.8469584964,0.0,1.08659469818,-135.72731339,0.717240667989,-93.6817927479,0.793164338794,-88.6161904959,17207.0525204,-1242849.4291
-188.846153994,46,-1040820.58321,3.00910600888,0.00828660058556,173.20641304070548,204,19.5934778514,0.0,1.10164302763,-137.685058426,0.728115561124,-94.4717769164,0.79804667032,-89.5930556473,20406.8147884,-1020413.76842
-198.968404395,47,-988685.117106,2.98155128455,0.00967987195624,173.1200447106034,204,21.5544453661,0.0,1.09244373036,-137.602272,0.721448124515,-94.8000043643,0.784382219631,-81.358230913,25679.0435146,-963006.073592
-208.213006058,48,-1200041.0038,3.00460909085,0.00758628470403,170.78353069587632,204,20.8692189602,0.0,1.10014747329,-134.614971586,0.727027438611,-93.4589517746,0.7780797238,-83.8401551633,20356.8561989,-1179684.1476
-195.130902213,49,-1106619.65848,2.99955902152,0.00804409730027,171.9819778879825,204,22.4291705524,0.0,1.09846528504,-138.274395623,0.725805469675,-96.3217735714,0.782502666983,-83.5147388568,20946.2058632,-1085673.45261
-249.232506184,50,-1965954.91431,2.97752363356,0.00892987026728,173.98826331954663,204,25.2217139567,0.0,1.0910919596,-141.775926185,0.720473550886,-98.7995834873,0.748459965706,-88.0769965115,21620.5939123,-1944334.3204
-206.889845754,51,-1308435.56034,2.89023342373,0.00602570095243,171.81739824755394,204,20.6475852101,0.0,1.06133726832,-135.381635674,0.699351875568,-93.9557601841,0.774037042253,-85.9628517653,16362.7105001,-1292072.84984
-198.396881268,52,-1175307.57781,2.82665949266,0.00905129646495,169.41606675552197,204,23.074609474,0.0,1.03909562316,-132.979834005,0.683968845407,-92.4587443717,0.747781975645,-80.9866850397,21923.8212037,-1153383.75661
-212.420026153,53,-1406277.39501,2.80495291579,0.00646340387848,171.28729243537708,204,23.9554432315,0.0,1.03138675302,-136.10374518,0.678716489277,-94.5225423658,0.735308801694,-84.3372376686,16802.2941072,-1389475.10091
-187.785466237,54,-987486.87133,2.79500548375,0.00688699634272,170.106009489254,204,20.6148345474,0.0,1.02783406859,-133.571248725,0.676309501938,-93.0253631779,0.77055980827,-80.0644964021,18609.3315652,-968877.539765
-188.043219432,55,-787562.486924,2.83024824186,0.00689769887214,171.70406142524138,204,20.4547554228,0.0,1.04036442578,-136.184340105,0.684837217652,-94.671431865,0.795476031153,-86.8753911393,20274.5558721,-767287.931052
-198.876116161,56,-1091416.38335,2.7326549917,0.00739062507291,172.63343735807962,204,21.4504152925,0.0,1.00527366104,-132.898543464,0.661222508204,-92.3618066128,0.77236842356,-84.879443661,19874.6856187,-1071541.69773
-203.168022551,57,-1485280.73043,2.70509856499,0.00988537723529,165.70878699624268,204,20.8620412727,0.0,0.995138349709,-126.569343083,0.654554659667,-89.5585688051,0.754159000673,-87.1908300704,22774.1003101,-1462506.63012
-203.598850197,58,-1441420.3873,2.65086259078,0.00915936212619,168.0748392320133,204,22.7089469691,0.0,0.974885092988,-127.422196926,0.641431141692,-90.4163176882,0.743223117846,-85.5206720409,21745.2179265,-1419675.16937
-199.332980647,59,-1207493.85714,2.71433820041,0.00687012960175,168.67601307864385,204,21.6552924546,0.0,0.998548166918,-129.267645606,0.656790380944,-91.4585509385,0.757815523198,-86.2052481694,18979.7195395,-1188514.1376
-207.947811327,60,-1361846.70998,2.72382901018,0.00721122796097,170.32104350627975,204,21.2978872521,0.0,1.00203861472,-129.875241173,0.65908687906,-91.4807920479,0.760179544634,-80.7583568991,18614.398386,-1343232.31159
-176.444272705,61,-954646.8499,2.6789720501,0.00656396938916,167.69974161123042,204,18.7291995154,0.0,0.985433157548,-124.656014279,0.648232807929,-88.2993531546,0.782566472746,-81.4919232871,17459.4885703,-937187.361329
-187.451411328,62,-1336383.62122,2.64017493597,0.00865655601762,173.27127255985812,204,19.3347824984,0.0,0.970845178587,-130.698887845,0.638845042113,-90.5835755707,0.779661795701,-85.9278066188,22323.654111,-1314059.96711
-174.968657443,63,-886584.902407,2.60208806853,0.00775180965454,166.92484914046196,204,19.0364584219,0.0,0.956314225994,-124.342622932,0.629629135205,-87.7542866233,0.768824002775,-83.3327174002,20351.3446946,-866233.557713
-177.88741614,64,-1145005.5705,2.62099354294,0.00821005592008,170.72507037472297,204,19.8382125578,0.0,0.963553460752,-126.561883307,0.634203706545,-88.6887976188,0.778759310724,-84.5834119501,20097.9054304,-1124907.66507
-183.697210164,65,-1071568.60192,2.61962263597,0.00705231990744,178.14905762916368,204,18.3198543499,0.0,0.963030275326,-133.201441129,0.633871987192,-91.9452748672,0.811204509282,-83.9059922401,19837.357209,-1051731.24471
-195.420599571,66,-1268035.66409,2.63105711068,0.00948672017256,171.4616932896111,204,20.325793026,0.0,0.967385708657,-128.072977433,0.636638795323,-89.8964165084,0.762537912457,-86.6030506699,23959.6099164,-1244076.05417
-184.376364351,67,-1207105.26336,2.58704649574,0.00963207020751,174.50745423233286,204,18.0687351507,0.0,0.950516875882,-127.496943522,0.625989514938,-89.0945491001,0.79966728662,-81.5759285024,24467.6318149,-1182637.63154
-185.889352489,68,-1085835.64069,2.72697751113,0.00749941534046,172.89316801327743,204,20.3592391341,0.0,1.00319385709,-128.374629501,0.659848724115,-90.4368494108,0.768405271109,-82.3181070419,19434.8086676,-1066400.83202
-202.686788358,69,-1687062.55689,2.80778070473,0.00671376562418,173.30848884828364,204,22.4052027663,0.0,1.03239438651,-130.933571397,0.679400731415,-91.6594483967,0.757710007349,-84.0627601754,16975.9885968,-1670086.56829
-184.930467761,70,-1087450.64883,2.73128366526,0.00691896287963,173.22844327735157,204,19.778947133,0.0,1.00477170574,-127.393190656,0.660890687351,-90.0607781011,0.78418448505,-84.7868583374,18352.5374659,-1069098.11137
-190.752818653,71,-1349384.17661,2.73045236935,0.0081974545341,172.2000930085119,204,21.095987438,0.0,1.00446729853,-129.824531793,0.660689538076,-90.9827852717,0.761420134627,-82.3898613362,21394.0535765,-1327990.12304
-187.971035229,72,-1169034.97206,2.69296638636,0.00715251985829,170.80104209559354,204,21.1000104516,0.0,0.990643331893,-127.554819826,0.651619027612,-90.2518852702,0.755514083149,-85.5245038512,19884.1017236,-1149150.87033
-192.110361577,73,-1303473.76638,2.60789130669,0.00778037263404,172.87692507674993,204,22.2739174944,0.0,0.958541966312,-127.184416084,0.631033348946,-89.9296364903,0.753157955487,-86.1004301576,19521.9516327,-1283951.81475
-195.699844338,74,-1188705.23957,2.5820221925,0.00691640678542,179.3284509898383,204,21.7930904578,0.0,0.948572887471,-132.480213282,0.624773780645,-91.5350077786,0.75892290871,-83.8580382441,17033.7779115,-1171671.46166
-197.714207757,75,-1283547.63936,2.63380812383,0.00847877997937,177.72747810823043,204,22.168738765,0.0,0.968430754742,-131.641898683,0.637304459968,-91.0447240448,0.769046697862,-84.371557179,22048.0373953,-1261499.60196
-186.928933577,76,-1133108.12188,2.67600715483,0.00926458268388,175.99582106255465,204,20.8488172146,0.0,0.984325815967,-133.400293152,0.647515390073,-92.8602108972,0.785007025323,-90.3070055477,23682.5279344,-1109425.59395
-186.439687393,77,-972181.290451,2.71416179714,0.00841854553738,175.09639621728778,204,21.3155043462,0.0,0.998483175382,-134.045207458,0.656747696515,-93.5991188518,0.780315149271,-85.8927143705,23558.1771949,-948623.113256
-206.008509254,78,-1347421.51163,2.66988511919,0.0072446413198,178.1661302187878,204,22.468031266,0.0,0.982035444964,-135.894035755,0.646034036672,-94.3910402945,0.771434859048,-91.8085398109,19220.3017978,-1328201.20983
-206.771111713,79,-1383315.9071,2.63712972514,0.00660625862301,175.21249908784424,203,22.5160631539,0.0,0.969691100374,-132.52016891,0.638108190243,-92.5015735567,0.77342757427,-86.1515259956,15485.7606407,-1367830.14646
-189.645111289,80,-1007133.63924,2.5923680923,0.00909005747273,177.02176828044122,204,19.7803496414,0.0,0.952571779325,-132.939067251,0.627277185514,-92.569281761,0.801389647804,-85.6946532387,22814.9538095,-984318.685433
-235.132788111,81,-1739281.31015,2.58022613142,0.00830993829218,181.80048292657477,204,23.4603030266,0.0,0.94787704293,-136.638825113,0.624339186443,-94.4892534477,0.765400098223,-86.5894846587,20317.766881,-1718963.54327
-173.324434478,82,-825947.651948,2.54045897969,0.00785126053911,174.50398040447163,204,20.2112458277,0.0,0.93234476537,-126.694266576,0.614716699926,-89.5078768021,0.773825123258,-84.5643487417,21466.973536,-804480.678412
-186.865215766,83,-1066503.02911,2.53599265799,0.00726234005588,176.00274025692894,204,18.6483729259,0.0,0.930585141455,-128.883916823,0.613635980828,-90.3262619063,0.80664234323,-87.1251300416,19111.8725502,-1047391.15656
-177.468202692,84,-949773.202524,2.51651015809,0.00984347795739,174.98787845862896,204,19.8673585005,0.0,0.922873083819,-128.348019613,0.608921786212,-90.7055515045,0.799259162549,-85.999750919,26106.2462425,-923666.956282
-241.676038405,85,-2052663.32878,2.54637419102,0.0080377706698,178.81022908743583,204,21.7221229175,0.0,0.934670461457,-133.976608655,0.616148007898,-93.8342239172,0.796002351994,-85.5702312209,18565.2420464,-2034098.08673
-196.587423196,86,-1166791.16441,2.61417021835,0.00805065869484,173.09260876378056,204,19.8406088639,0.0,0.960946731042,-129.447624677,0.63255266175,-92.0280527963,0.799600002838,-87.7733348646,20812.3374161,-1145978.82699
-168.674894178,87,-895009.656099,2.61423856894,0.00652776368621,170.49096911004224,204,17.7761638101,0.0,0.96097287689,-125.873642431,0.632569200592,-89.8707687896,0.816516715911,-84.1152529901,17996.6694413,-877012.986658
-188.824988193,88,-907385.344648,2.66640611126,0.00916803180761,174.78512013718864,204,18.3373508529,0.0,0.980731539961,-130.692379215,0.645192218604,-92.2935389823,0.823345544547,-83.9612008977,22833.0397061,-884552.304941
-210.337580275,89,-1438019.85895,2.66988326936,0.00890814243796,178.07831053954288,204,20.4929620171,0.0,0.982034752116,-135.37961643,0.646033589069,-94.5077946424,0.809900531097,-86.5616148944,22214.6586908,-1415805.20026
-195.415910028,90,-1296843.10977,2.66234113342,0.00855057445264,176.4604371991424,204,19.4127960903,0.0,0.979205861055,-132.23314053,0.64420861297,-93.4375712791,0.807317996548,-88.1763494203,20906.1798413,-1275936.92993
-193.161289397,91,-1227536.39891,2.68220786018,0.00582877352161,174.78372430295104,204,20.2912420055,0.0,0.986640283787,-130.802431523,0.649015779238,-92.3408264949,0.776835092481,-86.6789811698,15205.1133613,-1212331.28555
-187.758062586,92,-994800.140002,2.71246814008,0.0066600213265,173.03706474073803,204,18.4954857788,0.0,0.997858973205,-128.857295744,0.65633788109,-91.1648282629,0.803496914682,-87.8912381757,18867.9834181,-975932.156584
-165.580842347,93,-862438.565075,2.65255628101,0.00903019947516,171.04909918086884,204,17.7007997327,0.0,0.975523809381,-125.659385572,0.641840965144,-89.2146896392,0.805008628661,-88.1559034681,23277.4170119,-839161.148063
-177.980349632,94,-882653.272854,2.69471053063,0.00645870343081,174.83759851844886,204,17.9800209332,0.0,0.991290788806,-129.536426119,0.652041059465,-91.2640423534,0.818718580811,-87.5409142566,18068.2815962,-864584.991258
-181.81071897,95,-1035477.58346,2.67218565856,0.00831531963443,174.24174580968094,204,17.0918106322,0.0,0.982896736256,-128.238602876,0.646590699852,-90.3870234181,0.834933883784,-86.4295113064,21086.7233728,-1014390.86009
-216.812634433,96,-1457258.92692,2.72060185458,0.00997703858925,178.65065260866572,204,20.4598284189,0.0,1.0008531259,-135.198356516,0.658306001881,-94.2846001173,0.812099872515,-88.3819408057,24480.2527426,-1432778.67418
-177.898369434,97,-831173.638445,2.76050745152,0.00957980330177,175.08181429064666,204,15.6003469812,0.0,1.01541452208,-130.958806419,0.667961988085,-92.0047420534,0.856954819565,-90.4366810719,25023.2895922,-806150.348853
-213.602096768,98,-1534348.9738,2.79695223021,0.0055184568088,174.05144680964722,203,22.2523375094,0.0,1.02853033514,-133.892605481,0.67678055759,-93.7376098366,0.787930315047,-87.6061862937,14223.1566228,-1520125.81718
-200.402410578,99,-1145708.41754,2.77686823151,0.00587654888475,179.43384233487907,204,18.2785475256,0.0,1.02132375726,-138.901856761,0.671920817873,-96.1779863986,0.834462723437,-93.5325061729,15983.3684279,-1129725.04911
-188.29018394,100,-1028258.09029,2.83684869739,0.00780195431031,173.66184521309293,204,18.3489503554,0.0,1.0426938225,-134.696504249,0.68643433466,-94.3946528821,0.839825426186,-88.5246870731,19532.7944506,-1008725.29584
-211.853596197,101,-1301242.0972,2.90175537083,0.00819180740565,181.19366019492554,204,20.6785081037,0.0,1.06531585416,-145.726177959,0.702139849456,-99.8367208465,0.814303154071,-91.2654429681,22175.1374239,-1279066.95978
-190.564931979,102,-964322.271073,2.84531926287,0.00712910575997,172.12735728163196,204,18.2597749854,0.0,1.04567528022,-132.739749688,0.688483963524,-93.7091570257,0.822291983496,-86.2312249102,19166.3631244,-945155.907948
-211.907456242,103,-1260111.94859,2.81471230043,0.00557366833455,173.9221616533162,204,20.2629305506,0.0,1.03486005403,-135.246340601,0.681077974648,-95.1167447472,0.817083422267,-88.9931414848,13504.8811398,-1246607.06745
-199.755754013,104,-1113737.04718,2.8125458042,0.00739791175776,177.71479868258808,204,20.3566523391,0.0,1.03409005334,-138.737679648,0.680553745987,-96.379566546,0.819218162438,-89.0152883619,19741.6578976,-1093995.38928
-183.501225792,105,-835742.987782,2.8030833335,0.00682818998233,175.56028176677333,204,17.0582586725,0.0,1.03072000185,-136.416440102,0.678264105094,-95.8280082782,0.854512054161,-94.672561252,19549.2407905,-816193.746991
-195.668629962,106,-1022072.30961,2.72206561548,0.00896009000469,177.26731444504136,204,19.69117851,0.0,1.00139100955,-135.801420425,0.658660189166,-95.1272035672,0.823676020244,-82.6745174275,23534.020385,-998538.289222
-189.73034346,107,-1072640.41684,2.67708856357,0.00863862327952,176.02040299587355,204,19.9799589843,0.0,0.984729847131,-135.19283311,0.647777059328,-95.0629613448,0.827498221943,-84.0958467919,22911.6234816,-1049728.79336
-193.679236711,108,-1072309.658,2.64231718022,0.00718083430836,178.36797610893638,204,18.8144657149,0.0,0.971656251967,-137.095516381,0.639363402507,-95.9305666288,0.846906592409,-86.8860369174,19225.687411,-1053083.97059
-193.714226468,109,-1123478.47547,2.66512939741,0.00542713952519,174.25464169229897,204,18.4128824588,0.0,0.980252610813,-133.91953066,0.644883291228,-94.6955893623,0.822504237206,-87.6012766308,13964.4201784,-1109514.05529
-172.322092811,110,-851032.793137,2.6389816511,0.00829998570124,174.97461613252455,204,15.0605530072,0.0,0.970393104523,-134.289560827,0.63855630211,-94.5569290495,0.874668678096,-87.1413592907,24163.9241456,-826868.868991
-226.377164712,111,-1633548.22858,2.62259428964,0.00573652786228,175.4478411906803,204,19.3930213256,0.0,0.964164014748,-135.495357877,0.634591040385,-94.9030571204,0.824355236916,-92.5341034884,12787.1856325,-1620761.04295
-191.16472774,112,-1080500.60325,2.62748912899,0.00779177043324,178.11050599581736,204,15.7992868031,0.0,0.966028686362,-137.695414967,0.635775448207,-95.931334028,0.872707742712,-92.9449321484,20188.4867298,-1060312.11652
-202.961798544,113,-1059044.24085,2.5995105851,0.00729510173949,182.67993164375287,204,16.9796541681,0.0,0.955323190808,-142.426914274,0.629005459671,-98.7259044285,0.864745217932,-90.1427167412,20052.4448037,-1038991.79605
-206.83909022,114,-1198684.93471,2.67119915444,0.00701708393762,181.9139671938059,204,18.6128225784,0.0,0.982527493101,-142.858812223,0.646351994735,-98.3681377116,0.842483080906,-95.377617244,18375.0570412,-1180309.87767
-231.056667702,115,-1624637.93367,2.62440313479,0.00929045719949,180.91367146298785,204,17.7728285903,0.0,0.964853492966,-142.216023046,0.635028727955,-98.6273775175,0.860986959027,-100.339372374,21918.6537321,-1602719.27994
-208.045010663,116,-1302264.353,2.57389808382,0.00905396500867,175.912899297259,204,20.4087025001,0.0,0.945421513915,-136.473516953,0.622807984181,-95.0474753127,0.811800239628,-85.8895598913,23285.5610626,-1278978.79193
-206.209032369,117,-1352803.69751,2.63388407903,0.00975414203369,168.9473721658207,204,16.2776436376,0.0,0.968459592874,-129.354267828,0.637322838903,-91.4025831845,0.85409002042,-88.822309564,23654.5396461,-1329149.15786
-173.219964641,118,-701778.739639,2.66462317218,0.00670601372496,166.7448883387751,204,18.5354801588,0.0,0.980062648812,-130.398217287,0.644760799542,-93.1172438042,0.82788601074,-89.6788228642,19655.2210774,-682123.518562
-218.177816133,119,-1417770.8736,2.63505180328,0.00662584487043,169.90920749727505,204,18.7492501703,0.0,0.968902841488,-133.392913411,0.637605393985,-94.5283103625,0.844051797901,-95.3745179783,16113.0253118,-1401657.84829
-176.673503986,120,-913488.940587,2.66747028201,0.00798740677551,169.14351728427738,204,16.7138636602,0.0,0.981130563369,-130.884603436,0.645449716772,-92.5240816593,0.849534170336,-89.2166552768,21381.749331,-892107.191256
-183.844304188,121,-988950.683514,2.7806975967,0.00868927887458,167.40258611597346,204,18.706695978,0.0,1.02270183029,-132.93369699,0.672847412142,-94.2688877669,0.840343632242,-85.826762365,23136.8660794,-965813.817435
-177.238847433,122,-948256.595418,2.74168755125,0.00699320230423,163.93728767111494,204,17.750705345,0.0,1.00857362543,-126.69636141,0.66340812318,-90.4586931706,0.825441262971,-84.7833948959,18271.3586122,-929985.236806
-179.161950121,123,-921383.363806,2.7739943606,0.00702300663298,164.42074236560867,204,18.9347347309,0.0,1.02028828894,-128.247980246,0.671225425247,-91.4174999611,0.819320308743,-85.3380913544,18562.4458752,-902820.917931
-185.398296301,124,-832413.924328,2.76596501066,0.00903596891426,167.2324441901362,204,17.7821943921,0.0,1.01738958336,-132.470433465,0.669282557623,-93.817580845,0.835693240187,-88.1154166453,24379.5470916,-808034.377236
-169.030350545,125,-809476.191541,2.69361413772,0.00863472534456,164.02556382159827,204,16.8205803614,0.0,0.990883837485,-126.167670736,0.651775764479,-90.3035821388,0.82232088247,-83.3147099066,22661.550108,-786814.641433
-185.577648992,126,-1022642.22423,2.79809134752,0.0064786808063,165.63946856411604,204,18.5545537734,0.0,1.02893752314,-130.545865418,0.677056190629,-93.1042685402,0.817444270925,-89.3672857351,17707.8903776,-1004934.33386
-190.396796515,127,-1016856.57943,2.7865273428,0.0073419696484,169.13285290596286,204,19.0918285738,0.0,1.02479614058,-136.010298884,0.67425804003,-96.6167777782,0.824938621548,-90.5555491738,20380.4614158,-996476.118015
-173.263203811,128,-906250.843195,2.73955416991,0.00895690494508,163.6441505151461,204,17.2761550019,0.0,1.00779519545,-128.61307779,0.662891907352,-91.7185897716,0.83689677345,-82.8280909293,23918.6724252,-882332.17077
-186.269995398,129,-1089429.20306,2.78785945877,0.00735794174273,163.83154446985998,204,19.4780870271,0.0,1.02527408229,-129.600240334,0.674580373096,-92.753789969,0.819317958168,-82.3473565678,19097.9888115,-1070331.21425
-177.916811526,130,-854967.764824,2.77123653123,0.00948846114991,166.56854842828082,204,16.0551843774,0.0,1.01929362176,-131.800531653,0.670558111275,-93.8350518993,0.857681391541,-93.6254572665,24602.9582525,-830364.806571
-186.603186684,131,-1057782.18812,2.80928334728,0.00677101446666,166.59745813503181,204,18.9083877585,0.0,1.03292941426,-133.352213736,0.67976432692,-94.5388073965,0.823146237615,-85.82314259,17615.3167279,-1040166.87139
-209.425807516,132,-1406236.03205,2.83494404312,0.0078150669573,166.2730794390108,204,18.6571308068,0.0,1.04202219911,-132.806388344,0.685973464086,-93.9680144027,0.827609931905,-86.5761769701,17989.6386724,-1388246.39338
-187.68200621,133,-1209352.97239,2.81510151086,0.00745866720268,165.08155753412734,204,17.6797358476,0.0,1.03499832164,-130.304482795,0.681172152177,-92.2948939281,0.828021628501,-85.3595839842,18037.9982776,-1191314.97411
-173.446820659,134,-765339.423584,2.88961973042,0.00578483118008,166.63211798105823,203,15.6194548097,0.0,1.0611249123,-130.806746185,0.699203379754,-92.0221460738,0.854276031027,-88.1251816811,16517.1285383,-748822.295045
-189.011542625,135,-1006751.06365,2.83707381713,0.00922027628739,169.1345704985059,204,16.9213533972,0.0,1.04277317492,-132.371784045,0.686488807046,-93.0440519096,0.848970194955,-90.3505141558,24877.4280203,-981873.635626
-169.795461725,136,-791439.392234,2.87144711388,0.0070728487239,165.2005013814284,204,16.8267807396,0.0,1.05481612356,-128.825461132,0.694806138563,-91.124284247,0.830239772946,-88.1862911295,17610.9073283,-773828.484905
-225.285558475,137,-1635273.64442,2.91432473096,0.00643925830537,169.21518011597504,204,16.8277745398,0.0,1.06963813978,-133.423660176,0.705181266633,-93.6061052413,0.839514387773,-95.5377384841,14300.4865118,-1620973.1579
-223.729202975,138,-1773496.32673,2.88031417794,0.0087403107875,169.50916114654163,204,17.9503565309,0.0,1.05789937776,-131.731139587,0.696951708479,-93.1373618998,0.845783160244,-84.6717587781,19643.4089087,-1753852.91782
-187.174849246,139,-892221.104555,2.89366733297,0.00679388624558,169.07726051113414,204,14.9851791101,0.0,1.06252467101,-132.261746987,0.700182781077,-93.1410080165,0.870585652064,-89.4744964856,20603.4175795,-871617.686976
-171.985357606,140,-750987.813903,2.82460570061,0.00627864779783,166.51059586040637,204,16.4555229102,0.0,1.03836877985,-127.874952668,0.683471887857,-90.8140860373,0.845016050763,-88.2688272083,17641.5261123,-733346.287791
-168.039555522,141,-900658.970761,2.78783501787,0.00731593724613,166.73768269516088,204,17.0156180045,0.0,1.02526531535,-126.187059612,0.674574459113,-90.0793118067,0.827514347788,-86.6103883426,20170.1119439,-880488.858817
-182.360913857,142,-960943.008134,2.82889251993,0.00593956002738,170.37152306718718,204,19.7791388673,0.0,1.03988529935,-132.119775667,0.684509172635,-93.7869636015,0.80411402519,-85.1025834749,16157.2348368,-944785.773297
-178.474576731,143,-907072.223282,2.84665749106,0.00752748123929,172.60120997808139,204,18.2852021992,0.0,1.04614549585,-131.817292945,0.68880777557,-93.3541023395,0.824999105794,-86.7180243754,21479.2433418,-885592.97994
-183.242955804,144,-1058866.65742,2.76622196406,0.00848769287336,170.34805789857896,204,18.4203882682,0.0,1.01748247733,-128.662607394,0.669344732824,-92.1136709546,0.822449097006,-87.6183505587,22299.0465651,-1036567.61085
-173.467093588,145,-886490.502134,2.74404436727,0.00668437334393,171.64140128765675,204,14.147694327,0.0,1.00943287856,-129.487208885,0.663978403661,-91.4969496028,0.867199394073,-89.5230060676,18439.593009,-868050.909125
-190.431517009,146,-1049450.27934,2.75255274596,0.00928244186368,175.71401243566208,204,18.322775996,0.0,1.01252875236,-134.384269684,0.666037182217,-94.4751101724,0.79144344869,-88.2830486087,22683.1967312,-1026767.08261
-205.477017402,147,-1253193.1484,2.73911665484,0.00921494483565,178.82600355956592,204,17.0731376866,0.0,1.00763547968,-135.582635067,0.662786041513,-95.056114592,0.841412149751,-87.6344816451,23022.1353691,-1230171.01303
-166.131366219,148,-777746.478015,2.74385147101,0.0068305173745,174.59764988947933,204,14.0041602432,0.0,1.00936257976,-130.776101436,0.663931728413,-92.5157201242,0.87840440989,-86.0849934068,18651.327448,-759095.150567
-169.504532267,149,-767015.259141,2.75503051847,0.00990361143428,172.93974070385175,204,14.7881916201,0.0,1.01342852003,-129.613368333,0.666636730625,-91.884116679,0.868992230259,-86.1509306159,25609.0088249,-741406.250316
-166.549948551,150,-713250.645455,2.83805521239,0.00743606896123,173.59326781518666,204,14.4839040094,0.0,1.04311903323,-130.454134744,0.686726275967,-91.9263984801,0.873482496249,-88.8068726432,22267.4077715,-690983.237684
-177.706833746,151,-1072337.69467,2.88494436088,0.00662536219165,174.64739545981922,204,14.9781407353,0.0,1.05950561412,-131.867091026,0.6980720772,-93.3769570764,0.88202280924,-87.9358285564,18083.755638,-1054253.93903
-189.395782855,152,-1004490.15313,2.88019560008,0.00855842047182,175.6861784528203,204,17.4044999251,0.0,1.05785820854,-135.82266763,0.696923016108,-95.2155811602,0.852873089832,-87.5692163451,22379.5023369,-982110.650791
-194.52981663,153,-1348025.08157,2.82578032594,0.00861382687433,173.43002188046222,204,15.873729042,0.0,1.03878454803,-131.035077985,0.6837561128,-92.5183192255,0.870164849719,-87.4802225104,20965.9657331,-1327059.11584
-180.586072906,154,-1110044.72396,2.7817882039,0.00664541052699,173.05250610162074,203,15.1353530586,0.0,1.02309395973,-130.709811854,0.673111307157,-91.8966327008,0.861593032108,-88.1859227383,17119.2687515,-1092925.4552
-191.100894634,155,-1017308.29607,2.76885252442,0.00644034846902,174.9203246739897,202,15.8265948789,0.0,1.01843298326,-135.210854595,0.669981251421,-94.5111295537,0.867199520589,-89.5384388723,17914.0591802,-999394.236895
-166.270025069,156,-687730.074376,2.73808929707,0.00935550505034,171.11740685516892,204,14.0565800206,0.0,1.00726034031,-130.325470846,0.66253745101,-92.2309977155,0.875391519129,-81.0581535474,25463.9069804,-662266.167396
-183.271155336,157,-958896.939834,2.76976804679,0.00983921114823,169.82404725693183,204,18.0374015149,0.0,1.01876357907,-132.89175253,0.670202781032,-93.4244021511,0.843362372915,-87.1836034959,24264.3179751,-934632.621859
-179.403232496,158,-853541.039178,2.74954664835,0.00857856182753,175.0283145996859,204,15.5388583323,0.0,1.01143604294,-136.041598166,0.665309794599,-95.2714544283,0.877811771592,-90.0725595832,23675.4040291,-829865.635149
-192.42056071,159,-968883.403679,2.73077487784,0.00841430177085,174.38931858934225,204,17.6831328659,0.0,1.00458540696,-136.58321241,0.66076757569,-95.7789116628,0.855110804618,-87.8387978306,21009.0885503,-947874.315129
-179.00445468,160,-932536.537528,2.66334679405,0.00606324477018,175.28481540668037,204,16.3978953251,0.0,0.979583525182,-134.517413817,0.644451953401,-94.7560262018,0.86836685265,-89.529860949,16066.250463,-916470.287065
-208.157191469,161,-1563943.45781,2.6385462492,0.0072624468973,173.17175408613667,204,14.9271940677,0.0,0.970228102306,-130.897601284,0.638450947597,-92.5181792013,0.882542872374,-90.7849708593,16258.467533,-1547684.99028
-178.334232209,162,-879519.85923,2.66750579024,0.00839050098434,171.8065334736623,204,16.1445900691,0.0,0.981143874852,-131.821285117,0.645458308723,-92.8738334708,0.861626814139,-86.1630006753,23195.5222526,-856324.336977
-181.557085303,163,-1014887.3963,2.68590399443,0.0088543164591,172.9020851173384,204,18.2377823164,0.0,0.988017354508,-132.019137694,0.64991013552,-93.0867662558,0.846521362868,-80.916623271,22956.6627312,-991930.733574
-182.85266992,164,-1002637.45115,2.73832185782,0.00709814690212,171.33593398308992,204,16.6902692489,0.0,1.00734527212,-131.016500873,0.662593723904,-92.7368012267,0.866064370649,-89.3763484975,18966.4876295,-983670.963521
-160.40062029,165,-537934.358767,2.69351325492,0.00946585086224,171.15938215169768,204,12.4972082474,0.0,0.990846384203,-130.350578596,0.651751353795,-92.0760097911,0.895910962844,-88.5839489744,27318.92154,-510615.437227
-185.709387389,166,-1090568.41455,2.79287340638,0.00803949979477,175.27389955902606,203,17.6638607579,0.0,1.02707096062,-136.431707395,0.675793601632,-95.3544694364,0.852212430067,-89.6847599321,21444.1456269,-1069124.26892
-175.012498367,167,-856979.029515,2.82932030658,0.00794066082864,168.07977670111697,204,15.6770274252,0.0,1.04003650846,-131.034446812,0.684612684481,-92.74496779,0.849376992811,-90.3099449828,21208.4586206,-835770.570895
-184.96785804,168,-1034039.30486,2.86724731479,0.00751018123825,172.13084700561024,204,17.476607213,0.0,1.05335244575,-136.396414845,0.693789910134,-95.8659407769,0.854001115456,-88.9479009077,19626.3926697,-1014412.91219
-178.714053026,169,-896135.743619,2.90585402373,0.00852468868167,172.84169287123913,204,17.6043131895,0.0,1.06672733117,-137.683503736,0.703131603469,-96.3048158468,0.854011493215,-88.1503155875,22118.2437025,-874017.499917
-200.10480972,170,-1095953.94673,2.91410616154,0.00660197210597,176.62210983131533,204,17.0916087228,0.0,1.06956313866,-139.735552364,0.705128379233,-97.3809414908,0.863167301062,-97.3792349927,16941.1430085,-1079012.80372
-195.366736647,171,-1129849.24143,2.91248712734,0.00709459444103,174.99275902104276,204,18.7984672592,0.0,1.06900739909,-138.88931408,0.704736620356,-97.1353962251,0.826749011885,-93.6493309978,19311.9887832,-1110537.25264
-185.055028571,172,-897476.356682,2.89770781086,0.00667152966907,174.74738896316464,204,17.4919807681,0.0,1.06392001441,-136.563858363,0.701160458438,-95.9646728711,0.849086986226,-95.4899100118,17084.0023159,-880392.354366
-209.389224437,173,-1261090.12728,2.99766060261,0.00654510797693,175.23999407871864,204,19.1379872163,0.0,1.09783218534,-139.289934016,0.725346107875,-97.5939944621,0.836734414414,-93.4343796393,18385.3120014,-1242704.81528
-200.430519291,174,-1243230.72874,2.92924250493,0.00587944820969,176.65409778861184,204,18.0195062623,0.0,1.07474385886,-139.939077868,0.70879093121,-97.345572144,0.846937352349,-93.4933800121,13998.0901643,-1229232.63857
-194.059028787,175,-1185579.33947,2.92716737332,0.00882546505991,177.1662992362161,204,18.3438008534,0.0,1.07403518862,-139.651887292,0.708288810112,-96.8893025257,0.841959324197,-94.2456444413,22855.7755681,-1162723.56391
-173.1389223,176,-776001.051694,2.81611733655,0.00689425062648,172.3608668212562,204,17.5807311428,0.0,1.03535910524,-132.586416985,0.681417952256,-93.3735833746,0.836993168718,-86.2834531991,17490.3704171,-758510.681277
-197.393765409,177,-1155885.05426,2.8102643881,0.00977540666854,175.86174952372684,204,19.0387829352,0.0,1.03327856721,-138.030412196,0.68000171008,-96.0709965668,0.832080171113,-88.5775289734,23484.3880211,-1132400.66624
-208.024648201,178,-945712.646908,2.82171792862,0.00642640926446,175.4657322998069,204,19.5264302827,0.0,1.03734589401,-136.591765949,0.682773131577,-95.2758348693,0.815904405124,-93.2568439634,17702.7505527,-928009.896355
-189.415281617,179,-876326.760817,2.92882514134,0.00932320885898,172.0524608733986,204,18.0061682126,0.0,1.07460136697,-135.336937838,0.708689941441,-94.8050597669,0.83587931348,-90.970674056,24552.235218,-851774.525599
-194.308836426,180,-1212355.15258,2.92525038511,0.00945909657974,171.07240795135155,204,19.2791866125,0.0,1.07338007877,-131.255386687,0.707824955086,-92.9791010947,0.805486682521,-91.218025426,22991.0230053,-1189364.12957
-195.86405556,181,-1131551.09404,2.84520764269,0.00926527146221,170.34894554068066,204,18.5064820918,0.0,1.04563605004,-131.908940394,0.688456954708,-93.4398537979,0.81932681045,-90.5133278869,22987.6152413,-1108563.4788
-182.918023541,182,-1039939.18185,2.83043171313,0.00793631586267,168.2384967375564,204,18.3531280035,0.0,1.04042924883,-129.774683523,0.684881612329,-92.4887444811,0.819171744897,-88.4868822882,18240.144088,-1021699.03777
-178.702834318,183,-889185.926552,2.82990444756,0.00957358236872,172.60210840902675,204,17.2830386208,0.0,1.04024294697,-133.864074092,0.684754029497,-94.3327632825,0.83652939345,-87.13944771,25299.2158613,-863886.71069
-211.396469626,184,-1499092.29025,2.83570735804,0.00950062885396,174.82084161400334,204,21.3601781362,0.0,1.04229141507,-137.252799312,0.68615816395,-96.1725984807,0.814272784546,-88.0173209962,25564.118784,-1473528.17147
-176.999124142,185,-970755.627558,2.71041485551,0.00757766399267,170.43317346428458,204,20.5645828452,0.0,0.997101706391,-131.197627756,0.655841046336,-92.805792075,0.808118300153,-85.9219652397,21213.5857307,-949542.041827
-191.226221314,186,-1142191.49884,2.74274524419,0.00945527538843,172.73961801081,204,16.8052137952,0.0,1.00895933276,-132.82928191,0.663664053909,-93.5046674663,0.8472302202,-95.1720117054,24344.6039844,-1117846.89486
-173.163774262,187,-722585.092363,2.74479673801,0.00735822360528,172.24502115861844,204,15.6981490967,0.0,1.00970702414,-133.618206369,0.664160455355,-93.6776718446,0.861976383453,-88.6666339765,20319.8677719,-702265.224591
-206.926774726,188,-1195988.11873,2.76405664092,0.00873488797862,177.46694387543823,204,17.685350382,0.0,1.01669939807,-139.464114816,0.668820788016,-96.8271572527,0.846878196291,-87.9816384807,22794.0678705,-1173194.05086
-177.717673479,189,-828045.549359,2.69617788369,0.00689225957044,170.06363458812513,204,17.3109023254,0.0,0.991835171472,-131.391808479,0.65239611595,-92.8513826921,0.841674742981,-87.5483127662,19980.7612498,-808064.788109
-185.302767305,190,-1140110.92641,2.66002357439,0.00950113465964,164.24831816774352,204,20.4631068197,0.0,0.978334985307,-125.115184454,0.643647831533,-89.9981357194,0.793349130746,-83.9619416285,24068.7476206,-1116042.17878
-198.557117991,191,-1217515.14891,2.6292783584,0.00594494254283,169.83476178874463,204,19.8902727271,0.0,0.966709420096,-131.484716205,0.636208389344,-92.9095982089,0.813551434148,-90.2230902087,16083.4150695,-1201431.73384
-180.236047981,192,-922210.087636,2.55128554825,0.00664090372079,170.38175904181236,204,17.4948538028,0.0,0.936597368703,-130.493219135,0.617336412564,-91.6035271531,0.830915556433,-84.228998045,18904.4383738,-903305.649262
-181.455402957,193,-843982.29745,2.54639542321,0.00778281077454,167.84943051522313,204,18.1158431593,0.0,0.934678799625,-128.284959786,0.616153145465,-90.8301503935,0.811134373317,-85.6378943956,22837.122045,-821145.175405
-188.928783734,194,-1172132.80369,2.47623652611,0.00649751618685,170.97197957583404,204,18.1720858314,0.0,0.906739877766,-129.531607759,0.599176746302,-91.0462987435,0.82039958747,-86.7560864599,16914.5347287,-1155218.26896
-176.069138611,195,-921968.565998,2.5254483723,0.00727126396461,168.56794534359008,204,18.8267948603,0.0,0.926418620149,-128.225784906,0.61108457238,-91.1467079494,0.82437479672,-84.615369636,19007.2926455,-902961.273353
-241.532123067,196,-1960657.18179,2.60692744256,0.00740426792866,171.59921351525242,204,20.5673056585,0.0,0.958172302787,-133.082305909,0.630800122044,-93.485678522,0.792074381042,-81.7474973879,17009.5725521,-1943647.60924
-177.910152256,197,-1038816.6577,2.62217075075,0.00940675368029,168.14368078823594,204,19.1455443996,0.0,0.964002505551,-129.987535269,0.634488556371,-92.5276937603,0.811467291542,-85.4948179201,23833.8872643,-1014982.77044
-187.293511473,198,-940789.11669,2.65476180393,0.00981480712017,167.08787887608204,204,20.0311382848,0.0,0.976354934635,-129.542693855,0.642374637123,-92.4803728032,0.795870227758,-83.331558616,27513.8484523,-913275.268238
-160.557023116,199,-689668.811956,2.58780539789,0.00820964381162,164.0786369079676,204,16.2556817321,0.0,0.950810179796,-124.188096076,0.626173147041,-89.652742118,0.834157849527,-86.2871000469,23433.3612433,-666235.450713
-218.026863121,200,-1642018.90476,2.64070258722,0.00759908370715,165.6123345563015,204,20.4205900987,0.0,0.971045013275,-126.704140228,0.63897271827,-90.3945051221,0.786716160321,-80.2600783373,18251.2404795,-1623767.66428
-171.822128024,201,-867554.661115,2.5996674828,0.00805317214731,163.21279587487845,204,17.811436896,0.0,0.955383545619,-123.767377651,0.629043424323,-89.0139169873,0.813194754465,-85.1473312003,22726.5589673,-844828.102148
-202.05418233,202,-1394144.97791,2.58373664921,0.00786701693566,166.02405197354258,204,20.1181807184,0.0,0.949236664788,-125.843268346,0.625188628977,-90.3655329632,0.798600031853,-79.7082141749,19307.6847972,-1374837.29312
-192.910003631,203,-1369502.70394,2.59137642104,0.00803570619333,167.26646855137136,204,22.1228502014,0.0,0.952189171243,-128.076543321,0.6270372301,-91.577951003,0.79238372624,-86.5952355562,19816.4209979,-1349686.28294
-169.773156068,204,-831205.310698,2.53808783097,0.00686488928804,163.77403215035767,204,17.9845348498,0.0,0.931410975066,-121.008489667,0.614142951354,-87.1901473176,0.800173966501,-81.7780346566,20229.5268528,-810975.783845
-177.43375747,205,-865078.518905,2.55277086596,0.00999721738726,167.06197234531902,204,18.2726590463,0.0,0.937179383336,-123.464215277,0.617695815969,-88.6183337636,0.813248520294,-81.9205960958,26411.9427028,-838666.576202
-168.569393471,206,-734605.888366,2.57226776447,0.00791890177034,172.2689295125469,204,17.6410498491,0.0,0.94478790845,-128.973644002,0.622413494627,-90.0552715867,0.815885070354,-84.8895836477,22070.8942945,-712534.994072
-180.084984596,207,-937400.124559,2.61176157451,0.0062903089326,167.80293103261127,204,18.4522395794,0.0,0.960024926431,-123.756818939,0.631969840454,-87.8597164169,0.798564325876,-81.9784340338,16948.5016593,-920451.6229
-187.331141417,208,-1044725.1739,2.69875623301,0.00612972209169,167.9026429262268,204,18.1204120173,0.0,0.992791012436,-123.49641781,0.653020001002,-88.0676414161,0.795499242122,-85.1665755936,16172.3617764,-1028552.81213
-180.179499876,209,-1023889.92544,2.69540454995,0.00669971583632,168.39162148726592,204,18.4382732725,0.0,0.991548304394,-124.376827973,0.652208991824,-88.2023702656,0.799651875038,-82.5222147545,18282.9590308,-1005606.96641
-178.633706887,210,-1196742.59027,2.64935328272,0.00752661505534,167.59305243278038,204,18.4549564022,0.0,0.974315565959,-121.899862956,0.641065933328,-87.3682346661,0.792259931035,-83.9423086191,19607.2806627,-1177135.30961
-166.557719969,211,-937824.338945,2.57922999798,0.00748692720863,166.50830708496963,204,17.4315355574,0.0,0.947490903993,-120.291292625,0.624098151313,-87.2321631629,0.798971987672,-85.7835286226,20156.3927365,-917667.946208
-172.152574938,212,-961274.798497,2.55067015529,0.00965590329366,166.5209028486922,204,18.0302064655,0.0,0.93635613064,-120.234219996,0.617187505486,-87.352744239,0.801599760262,-80.9165116385,24948.5866448,-936326.211853
-172.875974928,213,-986320.921336,2.5426781809,0.00697600717446,171.1685799197595,204,18.8994652014,0.0,0.933217927468,-123.188336565,0.615253681651,-89.161629945,0.805646877566,-80.6041678965,18221.9550737,-968098.966262
-185.104062822,214,-1160504.44982,2.60489510762,0.00885767244905,172.38942902062576,204,19.1946794325,0.0,0.957392408605,-126.288394519,0.630308356487,-91.4815348321,0.810153961612,-85.0108873594,23251.1608527,-1137253.28897
-158.98954628,215,-877290.625103,2.56541402273,0.0067613424273,166.49344611297605,203,17.4452999019,0.0,0.942119877967,-121.470562366,0.620755089771,-87.7338926732,0.791680560407,-85.3079296513,20052.0055083,-857238.619595
-181.153394548,216,-1655484.51772,2.5016443533,0.00908105942869,165.59676634899768,204,16.9682852861,0.0,0.916948256978,-118.751180584,0.605324696658,-86.8848244853,0.822949698794,-84.5663266646,19456.2360478,-1636028.28167
-176.607388026,217,-1107264.96372,2.61349251082,0.00988634898782,166.7212858276414,204,17.1963844117,0.0,0.960687453592,-121.646029121,0.632388676369,-87.9188762329,0.83079797067,-85.387414458,24104.6351559,-1083160.32857
-166.781049407,218,-929679.280615,2.66964391813,0.00673984412961,165.03502442154198,204,15.6959340789,0.0,0.981945099522,-118.871890069,0.645975673078,-86.6479801089,0.841272182015,-85.213336557,17916.170898,-911763.109717
-164.374214651,219,-863645.05131,2.73342081957,0.00631894500764,164.48856108528628,204,17.80315119,0.0,1.00555387225,-120.962498135,0.661407816128,-87.8501117822,0.817290883642,-83.925797725,18786.0779631,-844858.973347
-182.981354576,220,-938869.194331,2.77498406873,0.0099342455064,164.04076232519478,204,17.9103127224,0.0,1.02064500618,-121.192171846,0.67146490564,-87.7893359871,0.817370465134,-83.0069821838,26199.6479297,-912669.546402
-159.727216166,221,-802096.469049,2.67909652957,0.0082804866192,163.07561194245503,204,16.4126589483,0.0,0.985479621855,-117.807008662,0.648262928317,-85.8275994585,0.823910421964,-79.4841371509,22344.5084371,-779751.960611
-172.559638949,222,-724917.781345,2.77582539848,0.00719023835372,167.49702700497437,204,17.6714428153,0.0,1.02094814387,-124.708852673,0.671668482809,-89.7216542693,0.828007657611,-85.8238827589,20939.1321024,-703978.649243
-176.112941738,223,-844130.914285,2.82305413874,0.009991284553,168.46815701130524,204,18.9361582994,0.0,1.03781932682,-129.03935494,0.683096455307,-92.2547276714,0.82679097948,-85.5806947761,27116.3432038,-817014.571081
-175.633140715,224,-958835.686534,2.79968147224,0.00680890250093,165.13923053177624,204,20.0949306006,0.0,1.0295056508,-125.706044035,0.677440954261,-90.4803758658,0.803001145884,-85.948127498,19855.2214973,-938980.465037
-178.583826839,225,-862513.834073,2.79339221408,0.00985591065989,165.7360848494156,204,19.6993852758,0.0,1.02725670463,-128.171577301,0.675919137906,-90.9758006845,0.812713147217,-85.3656423785,27125.5057098,-835388.328363
-180.297625407,226,-1180760.81027,2.82119509444,0.00649618075131,164.23802712232896,204,19.1819806188,0.0,1.03716058753,-124.850595479,0.682646621011,-89.5054432214,0.795443498666,-85.5942615471,17751.760717,-1163009.04955
-185.06397029,227,-1064565.39146,2.74413876759,0.00707815716075,165.69593291718098,204,17.507217166,0.0,1.00946727987,-124.172346005,0.664001245775,-89.2807095287,0.8224396294,-81.4436674501,18668.648564,-1045896.74289
-163.237829639,228,-782086.577533,2.74219485491,0.00641610781321,163.74090852311647,203,16.8821576528,0.0,1.00875864168,-122.960932654,0.663530875816,-88.7506671556,0.828665347315,-87.4308085246,18630.6725015,-763455.905032
-165.809684762,229,-677418.905529,2.71004827162,0.00987404208913,161.63102876473226,204,17.066095019,0.0,0.996966447139,-120.317124127,0.655752343766,-86.8795719723,0.820308302737,-78.8799819047,26902.0379975,-650516.867532
-177.176527626,230,-893289.654309,2.69064956228,0.00919652327018,163.32442797415658,203,14.896937877,0.0,0.989782637432,-119.528650011,0.651058424013,-86.788397399,0.839443133286,-84.0174026403,24987.0241445,-868302.630164
-169.853003695,231,-936105.426113,2.76738034364,0.00938186554785,162.98485426998616,204,17.9455862037,0.0,1.0179011484,-122.135170441,0.66962502677,-88.2605903097,0.81640880101,-82.6241708718,23688.8718397,-912416.554273
-196.952742203,232,-1161390.6099,2.89261965332,0.00733247949302,165.58388526455906,204,20.2297371606,0.0,1.06216254598,-126.714587383,0.699929273271,-89.866693502,0.779257309552,-83.8108039908,19285.6198237,-1142104.99008
-177.869355001,233,-920696.335466,2.86263309791,0.00706015037422,164.915675624777,203,17.867673222,0.0,1.05174186489,-127.090428304,0.692673404735,-90.7571984281,0.823833576094,-88.5570445145,20553.6221274,-900142.713339
-193.966769983,234,-1224601.67842,2.79620111443,0.00676633242266,168.7175665008685,204,22.9656348915,0.0,1.02826175112,-129.292847046,0.676598809561,-91.207353852,0.756055229919,-86.0371091263,18929.634163,-1205672.04426
-189.58169342,235,-1327413.44384,2.77550288358,0.00641521691996,164.25659096807772,204,20.4194773063,0.0,1.02083195009,-125.08881991,0.671590443646,-89.3047071182,0.769489184576,-86.1345152122,16316.4383981,-1311097.00544
-175.389859804,236,-964431.428008,2.78469251688,0.00667875513968,163.46511712093204,204,17.3932946053,0.0,1.02413746042,-123.497646197,0.673814065872,-88.4513494472,0.809637368534,-84.8531592753,18106.6842524,-946324.743756
-178.792786029,237,-908038.594018,2.79126335314,0.00674868449761,165.485751721754,204,15.9579954053,0.0,1.02649430809,-126.628776213,0.675404015883,-90.2152812847,0.838758275499,-89.8895174067,17176.774012,-890861.820006
-162.047287361,238,-761567.727614,2.78341272647,0.00681356141169,161.39708500990514,204,15.501339197,0.0,1.02367777427,-120.981416236,0.673504394059,-87.0396898268,0.838213706094,-84.5208474009,18993.2418056,-742574.485809
-169.999371012,239,-713361.67216,2.85471746729,0.00739749204292,162.19949545724975,204,16.9309944208,0.0,1.04897287754,-122.887583543,0.690758053859,-87.7438445317,0.828651461486,-86.9153649285,21551.2374884,-691810.434672
-174.444774589,240,-901167.167051,2.90774954248,0.00750419656991,161.44969758591833,204,15.4812670635,0.0,1.06737942889,-123.097245745,0.703590263513,-88.4178555328,0.840064249073,-83.9586521118,19141.0085421,-882026.158509
-161.813124458,241,-721593.531552,2.94839991352,0.00973283695228,160.75274155891032,203,16.4825662994,0.0,1.081262621,-123.236069043,0.713426463246,-88.2170542656,0.836291147446,-86.977264666,25601.7249596,-695991.806592
-202.558975103,242,-1542588.23379,2.99354025621,0.00725341642544,166.42535492160334,204,18.360183395,0.0,1.09645671917,-129.518474529,0.724349104671,-91.0013436849,0.812491581024,-88.4769994979,18267.6670565,-1524320.56673
-183.076377092,243,-1027275.09845,2.97457661699,0.00930432315892,163.36375583725996,204,14.9342763131,0.0,1.09010171525,-125.631246306,0.719760459152,-89.3720068819,0.84403987537,-90.4997250645,25134.8829507,-1002140.2155
-170.092236753,244,-995902.272545,2.96768629695,0.00661127645373,164.1599786771234,204,17.7442296325,0.0,1.08778262462,-124.830984653,0.718093203419,-88.9923061686,0.82068855939,-87.2418440393,17240.5859258,-978661.68662
-176.151717384,245,-703342.966114,3.05738600082,0.0066338073434,163.32167021930601,204,17.3688685392,0.0,1.11756030279,-122.210564056,0.739797905754,-88.1772191673,0.82148670021,-86.9843165672,17708.9133562,-685634.052758
-181.697525925,246,-1113850.31277,3.09027541896,0.00687081808775,164.55140591416964,204,18.8115067974,0.0,1.12826021929,-124.368573342,0.74775618209,-89.2336012674,0.810590533373,-86.2180620093,17448.614123,-1096401.69864
-167.82174045,247,-743213.710443,3.08181522786,0.00933280632362,163.5510729963056,204,17.4771299888,0.0,1.12551878308,-124.617674604,0.74570906352,-88.5955702837,0.828641214501,-83.1676512544,25817.4318148,-717396.278629
-157.607077249,248,-692460.451419,3.03853345188,0.00788024038921,165.11537385994788,204,16.4330569057,0.0,1.11137498187,-125.9524374,0.735236140827,-89.3335877885,0.838122422861,-85.9825473717,21515.3431147,-670945.108304
-176.485802244,249,-961982.114726,3.06631139322,0.00680501832697,161.15844766091627,204,17.7334331364,0.0,1.12047533864,-123.965978172,0.741957589419,-89.3269511052,0.83141126816,-82.1956087985,17796.8398382,-944185.274888
-172.735635055,250,-917310.784074,3.09177411509,0.00902866581299,165.8498691998644,204,18.9573576471,0.0,1.12874507343,-128.697403233,0.748118822678,-91.4319753984,0.815327451653,-89.4208624289,24336.462798,-892974.321276
-188.454005352,251,-893791.144884,3.08277536405,0.00908420556727,166.8675482278513,204,17.6844807903,0.0,1.12583028347,-130.559242486,0.745941388369,-91.5997166164,0.831806477381,-86.2441307744,25564.5885662,-868226.556318
-194.695561466,252,-1033317.5209,3.05019571616,0.00978904039776,168.01014962654298,204,19.9633672758,0.0,1.11520575779,-131.500817179,0.738058067365,-92.443016107,0.805593930686,-86.7125271757,26012.3854572,-1007305.13544
-176.034671502,253,-795699.510056,3.04670418564,0.0067238687357,167.99445107571773,204,17.7430837411,0.0,1.11406041148,-131.477690531,0.737213219194,-92.0790669555,0.834738401775,-90.9285966515,18612.375802,-777087.134254
-191.129020667,254,-1295192.60617,3.03246389425,0.00577130980797,167.52854574589645,204,18.9613681997,0.0,1.1093754555,-130.760006851,0.733767485569,-92.1081702709,0.824164503471,-87.2742637709,13957.1862505,-1281235.41992
-190.134886547,255,-1042797.73554,3.02709095576,0.00653719980939,168.48264759746297,204,17.3549539792,0.0,1.10760207774,-131.325568935,0.73246739175,-91.8549386707,0.839567745346,-84.6001697901,17898.3041194,-1024899.43142
-176.009850678,256,-916948.114922,3.05102889758,0.00690768725129,168.52690405287964,204,19.6934779997,0.0,1.1154788772,-129.30318016,0.738259672877,-90.8771692848,0.810452630585,-80.6400704823,19293.7559185,-897654.359003
-169.703719055,257,-896089.803947,3.05392474089,0.00953044668526,168.67639726344063,204,18.1420345373,0.0,1.11642756369,-128.122078427,0.73896038218,-90.2506518644,0.824991635994,-85.929020833,25160.125852,-870929.678095
-170.299846215,258,-795672.117764,3.04705802854,0.00907189540153,170.64596899118547,204,16.9543999392,0.0,1.1141765443,-129.808205326,0.737298838817,-91.1604610079,0.833274562569,-87.8510189822,25317.1088137,-770355.00895
-168.648444334,259,-1035179.0506,3.05483024674,0.0077357582782,169.28007225384616,204,17.3473416097,0.0,1.11672402536,-127.406239143,0.739179488087,-90.2599912788,0.821494721931,-88.127419702,21494.6348289,-1013684.41577
-181.425134217,260,-771026.801849,3.01486960824,0.00850237974854,169.96295016346687,204,17.4137164449,0.0,1.10355658156,-127.488520052,0.729510183437,-90.8526487632,0.81902487681,-85.4838656107,23723.5883027,-747303.213546
-168.656198756,261,-759416.692539,3.00704287359,0.00714284035211,168.61270047372568,204,16.617756435,0.0,1.10095716183,-127.79746328,0.727616342782,-90.2103348797,0.822702321671,-84.730225666,20415.0934573,-739001.599082
-196.892355984,262,-1199855.67321,3.0309317419,0.00660632244526,172.00322634872006,204,18.9912445526,0.0,1.10887007783,-133.002966499,0.733396749556,-92.8038943527,0.801381723,-84.0208793216,17734.3705791,-1182121.30263
-193.790204939,263,-1232014.92192,2.97760678931,0.00924487638356,168.21280462048574,204,20.9651343118,0.0,1.09111988703,-127.75840437,0.720493672142,-91.2629738854,0.782447997223,-80.3235054345,22506.0515148,-1209508.8704
-183.792932643,264,-1381906.30219,3.01359015046,0.00690288110847,168.2126610274692,204,17.0341262701,0.0,1.10313210903,-126.129211364,0.729200592112,-90.4386570646,0.831389101061,-85.5638270675,17166.8409449,-1364739.46124
-176.580944512,265,-856291.148694,2.93901577165,0.00924091407791,168.8774647806655,204,17.7498464204,0.0,1.07807475375,-124.930329127,0.71115577564,-89.9665376523,0.822137075177,-82.4337666589,24246.5611648,-832044.58753
-224.613933423,266,-2033795.71407,2.88080342315,0.00930844830129,167.87998964375527,204,21.5311814647,0.0,1.05806922162,-124.658713928,0.697070091497,-89.3350995998,0.761345823795,-86.5545225443,21367.8580297,-2012427.85604
-195.006059895,267,-1355228.91327,2.7870947581,0.00967850593443,167.00884075051894,204,19.7745847046,0.0,1.02499974796,-121.415100452,0.674395337921,-87.8719182307,0.779603883023,-85.0969494783,23631.8702612,-1331597.04301
-173.406770861,268,-942673.54467,2.74647831744,0.00650987328413,168.37864703135858,204,16.8516510016,0.0,1.01031947915,-120.570929168,0.664567348346,-87.2836390834,0.816540316229,-82.9534607147,16961.057067,-925712.487603
-178.730605176,269,-942842.35823,2.84527952301,0.00858803898871,167.67682234770604,204,18.2851121073,0.0,1.04566131337,-122.073754526,0.688474347643,-88.6569999907,0.807628246746,-82.3854026565,22286.6524459,-920555.705784
-189.453740148,270,-1127994.39415,2.82966858762,0.00929387828264,168.5420224455789,204,18.931696671,0.0,1.04015959795,-125.357538689,0.684696958296,-89.6066243848,0.801397923397,-87.1360932596,22536.4155669,-1105457.97859
-226.901121118,271,-2051002.23435,2.92009454907,0.00680249856417,166.42272177700835,204,19.813136886,0.0,1.07161599558,-124.339013297,0.706577393703,-89.7481298121,0.798206994738,-88.0787476759,15380.8748972,-2035621.35945
-184.03552509,272,-1076962.09086,2.8523490442,0.00750988818309,166.9877704457151,203,17.6048100369,0.0,1.04814288083,-124.113659416,0.690184964807,-89.3413831585,0.820822201345,-86.2645974313,19455.5361086,-1057506.55475
-186.40664513,273,-1136818.37761,2.92456903513,0.00637591967871,164.68014976966674,204,16.8140342255,0.0,1.07314713141,-122.052381399,0.707660088336,-88.6515995775,0.823659493868,-86.9580424049,17606.6841492,-1119211.69346
-176.850270116,274,-967995.984455,2.91039697328,0.00733737594578,165.61255478739557,204,18.4988152905,0.0,1.06828948881,-123.016025018,0.704230864263,-88.1941744643,0.793104910892,-88.8011381523,19729.0525514,-948266.931904
-169.06399379,275,-963697.545632,2.84859071261,0.00929462331445,164.34245757502677,204,17.9613474378,0.0,1.04682438518,-121.047725716,0.689275558588,-86.9792008303,0.801041994945,-87.4143168105,24364.7785995,-939332.767032
-190.482923085,276,-1183183.67139,2.96465578895,0.00721480542999,165.41693386739203,204,19.4503750388,0.0,1.08676093429,-122.703410647,0.717359909203,-88.3476040714,0.783875327644,-83.5525860833,17900.7534206,-1165282.91797
-191.194389815,277,-1267068.35231,2.9679933384,0.00709565629821,169.26171664340535,204,19.2208591477,0.0,1.08788608083,-127.161920237,0.71816749846,-90.0325556842,0.789252990065,-88.327036827,18666.6540953,-1248401.69821
-186.475096981,278,-1173527.45921,2.91177883739,0.00661399276598,164.43559763743295,204,18.3555554474,0.0,1.06876417875,-120.837350168,0.704565234924,-88.4470016083,0.804237805683,-86.2578276254,17698.6270015,-1155828.83221
-169.382629481,279,-966234.740148,2.90100632848,0.00556585332948,165.84684764862158,204,16.1843548678,0.0,1.06505768662,-121.107847184,0.701958603137,-88.0299930772,0.822680646596,-85.935499945,15414.3501537,-950820.389994
-173.971048327,280,-1094456.40503,2.85996512066,0.00881020644449,165.73138998221523,204,17.2528214488,0.0,1.05080942918,-117.930734897,0.692027832345,-86.0654496738,0.815236530092,-85.4149648805,21799.6393784,-1072656.76565
-183.717395931,281,-1084487.27721,2.8296997203,0.00600729843512,167.38701136589464,204,18.6277948314,0.0,1.04017060012,-120.284122904,0.684704491492,-87.5240814148,0.796111432018,-84.0175824272,15926.36257,-1068560.91464
-180.487523564,282,-1070085.50023,2.78497894995,0.00670445305855,168.33250827727414,204,15.6270231202,0.0,1.02424031498,-118.91316882,0.67388337429,-87.7255295054,0.849391574354,-87.0603836254,18271.0345851,-1051814.46564
-181.033491974,283,-1181380.50918,2.7911919997,0.00663518252168,165.46937620049283,204,17.8733238984,0.0,1.02646874463,-116.698915312,0.675386750439,-85.4702693604,0.803198802572,-82.1774009088,17348.4909181,-1164032.01826
-191.38813772,284,-1202884.89925,2.73882871713,0.00650508210704,166.52680877378398,204,17.9310690695,0.0,1.00753035351,-116.686269516,0.662716369019,-86.0209071375,0.804478029741,-83.4754037443,17260.2620393,-1185624.63721
-164.35472511,285,-951209.006347,2.71226730579,0.00872084888124,165.89085077426975,204,15.5864774469,0.0,0.997784929304,-116.120196667,0.656289285072,-85.0977276941,0.825918395874,-84.0407278223,23217.5391078,-927991.467239
-162.630448531,286,-872294.889296,2.69255828666,0.00743578614675,167.839116735302,204,16.5022880155,0.0,0.990491777599,-116.088082996,0.651520279433,-84.5026186179,0.806955925451,-84.2508110216,19890.8064888,-852404.082807
-174.158928762,287,-913872.034527,2.72092403078,0.00760486909053,168.68854917574635,204,17.2197171915,0.0,1.00097153981,-118.916670728,0.658383959088,-86.7243090391,0.803670380873,-82.1228299008,21585.1647632,-892286.869764
-166.509224018,288,-731203.322314,2.80974741184,0.00648018482397,166.0753076085171,204,15.1726361624,0.0,1.03309459028,-119.05944953,0.67987661696,-86.7816287169,0.844707394161,-79.1436714607,18302.0584064,-712901.263908
-198.024358303,289,-1153434.02706,2.86685772221,0.00758318713605,169.96373996601517,204,19.6954273052,0.0,1.05321655965,-123.664669967,0.693695640137,-88.6623480166,0.780723157605,-86.0462761956,20478.2602445,-1132955.76682
-181.275505963,290,-1199572.69435,2.80103731681,0.00996477642427,164.76441613029314,204,19.7704175949,0.0,1.02998981886,-118.224739844,0.677769028954,-85.848057788,0.772881235184,-83.8174982015,27209.2606785,-1172363.43367
-171.934082399,291,-990692.698499,2.67916229188,0.00761194133142,168.35282289904785,204,16.7679153757,0.0,0.985504168002,-118.847157393,0.64827884087,-86.2980054239,0.810229136272,-88.5201162694,22601.1963717,-968091.502127
-183.130007785,292,-1389771.79524,2.60392698499,0.00759166323066,165.4720215496005,204,17.9642111223,0.0,0.957020684396,-117.267827892,0.630074099154,-84.8181262937,0.784124607399,-79.8827289904,18979.2181015,-1370792.57714
