MeanKLBefore,AveragePolicyStd,LossAfter,Iteration,Entropy,dLoss,ExplainedVariance,MaxReturn,Total cost,StdReturn,AverageReturn,NumTrajs,AverageDiscountedReturn,MeanKL,LossBefore,MinReturn,Perplexity
0.0,1.0,-1113747.93722,0,1.4189385332,20577.4428571,4.80082640308e-12,-174.484363216,255.0426302959985,28.3189147632,-249.467975494,204,-161.75286322,0.0098076498996,-1093170.49436,-307.502838976,4.13273135412
0.0,1.00353528381,-1591429.75512,1,1.42246758259,16736.1645265,0.906581902633,-184.087091548,257.11702182477956,28.9750771073,-251.826808944,204,-163.261705896,0.0071139014393,-1574693.59059,-337.265649796,4.14734173237
0.0,0.992025002192,-1245289.31701,2,1.41093156501,21853.337517,0.89390477545,-168.43103308,254.9637429171375,30.1405769843,-249.092794576,204,-162.039034196,0.00908139877901,-1223435.97949,-313.167407912,4.09977283063
0.0,0.972974417944,-1234822.34429,3,1.39154104412,21469.1792417,0.899805358109,-170.877885015,252.57542621762082,28.2738958763,-246.913679124,204,-160.052008974,0.00895919312888,-1213353.16505,-309.931661938,4.0210418838
0.0,0.984779813575,-1120691.64518,4,1.40360133089,14675.1190151,0.908704695348,-170.216624915,249.12288174435423,25.0705212675,-241.873042802,204,-156.77919779,0.0058958630562,-1106016.52617,-303.709384918,4.06983041247
0.0,0.992712121205,-1332920.75589,5,1.41162396808,17555.1909019,0.91400721947,-175.498467193,251.22438374660334,25.1048222235,-245.377955741,204,-158.985833094,0.00753015014967,-1315365.56499,-317.843087266,4.10261250892
0.0,1.00819714347,-1305657.88616,6,1.42710226257,18243.204849,0.878316433887,-163.433546463,245.35258956617938,31.3550982569,-238.495872954,204,-155.066409209,0.00667819510999,-1287414.68131,-310.733233269,4.16660794594
0.0,1.02162771155,-1359080.62508,7,1.44033568421,19115.3486601,0.892770587949,-175.106611531,241.96180673671358,25.960681921,-233.255882097,204,-151.525822843,0.00817947762426,-1339965.27642,-303.497475609,4.22211287576
0.0,1.01508319479,-1318295.75249,8,1.43390910764,14313.3582728,0.904932503445,-168.557809484,237.21184988137418,22.523300247,-227.387325191,204,-147.936223823,0.00687214140607,-1303982.39421,-302.211302488,4.19506614613
0.0,1.01619968637,-1061078.8266,9,1.43500840475,15758.7400139,0.895885626502,-151.073318398,240.90404360650464,23.9202911957,-229.287058125,204,-148.335345936,0.00556888156201,-1045320.08658,-284.874608542,4.19968030589
0.0,1.0057464955,-1444649.33419,10,1.42466858058,22375.6700785,0.894049758277,-163.6729304,241.6817001066317,28.8697935353,-232.779144221,204,-151.210702633,0.00891989750719,-1422273.66411,-308.436134683,4.15648007623
0.0,0.997818859398,-1098749.06114,11,1.41675501045,14841.3818868,0.898607537561,-151.056205106,236.23726113323445,22.515293213,-225.007658333,204,-145.256561141,0.00680281334478,-1083907.67926,-285.875948465,4.12371728597
0.0,1.00858173446,-1002664.97007,12,1.42748365391,21036.6434564,0.913223910436,-171.386748771,235.9232762906904,21.1081850033,-223.819384074,204,-145.011076842,0.00959454608725,-981628.326614,-278.277649161,4.1681973572
0.0,1.0146795401,-1362138.84777,13,1.43351137181,18401.0669099,0.920296124902,-175.107859963,236.45617987345835,19.879417482,-224.129536225,204,-144.807373574,0.00828686292449,-1343737.78086,-295.512860313,4.19339794977
0.0,1.00182048296,-965582.388808,14,1.42075736109,18747.7220051,0.929504930966,-159.795701097,235.9465142599903,18.0623743944,-222.660984237,204,-144.025094185,0.00728314840604,-946834.666803,-280.466487987,4.14025492113
0.0,0.994290146303,-1134026.13992,15,1.41321231597,23962.6018102,0.901341316793,-159.751332449,233.93819176828868,21.843589127,-221.341471131,204,-143.558597718,0.00885232055961,-1110063.53811,-280.595184278,4.10913406272
0.0,0.970130362833,-1179505.67605,16,1.38861371136,21327.5091142,0.889910745229,-155.589445333,229.29681529598696,22.9792599434,-215.887978605,204,-140.478700075,0.00820743181371,-1158178.16694,-277.0573871,4.00928816807
0.0,0.966895239935,-1587647.55988,17,1.38527340868,19869.8773208,0.870071849565,-151.224930433,219.98271140816843,24.4446819847,-207.662797501,204,-136.389431096,0.00826082986498,-1567777.68256,-287.77224519,3.99591827423
0.0,0.959062778257,-1508188.03556,18,1.37713978917,17076.6489978,0.866685470612,-156.044568905,221.71771365294043,26.0191889709,-208.695709191,204,-137.432144315,0.00657006306987,-1491111.38657,-286.532054526,3.96354881427
0.0,0.946836510975,-1487955.18895,19,1.36430969362,24013.7938409,0.84967759846,-145.134142015,214.0889214066652,27.4830344362,-200.782188966,204,-132.559269862,0.0098649863917,-1463941.39511,-269.199108708,3.91302093613
0.0,0.937432271481,-1117214.02133,20,1.3543277657,25333.8409383,0.836092900992,-123.946117746,207.87092628811155,26.5584713862,-192.776600158,204,-126.957611756,0.00933768621846,-1091880.18039,-250.232299789,3.87415574072
0.0,0.932630451404,-1475324.22427,21,1.34919229022,16408.0025608,0.831986654755,-118.464430767,203.1894532358717,27.5834246094,-190.949601189,204,-126.880956722,0.00710225319309,-1458916.22171,-265.240397816,3.85431110833
0.0,0.929479485789,-1615125.86748,22,1.34580799098,17064.0611233,0.809159658059,-123.753838334,202.85855779974042,29.8714589754,-189.206680799,204,-125.86132264,0.00657817414214,-1598061.80636,-271.387871032,3.84128901394
0.0,0.924807937064,-1681294.51574,23,1.34076933457,19874.0963995,0.821891204273,-120.013181052,198.18368492566617,26.8166469316,-183.526603673,204,-122.252579899,0.00841441736875,-1661420.41934,-267.964275558,3.82198275805
0.0,0.907790271697,-1420511.46393,24,1.32219662784,19648.9459579,0.785950821828,-111.908022178,190.99199686364838,29.6381639534,-173.212754634,204,-115.663698366,0.00750796107651,-1400862.51798,-247.673335235,3.75165331881
0.0,0.896835624921,-1645856.31348,25,1.31005584968,20786.768365,0.806224719474,-97.8616057306,189.07617404138804,27.9125875459,-169.070221231,204,-113.537724971,0.00969245217432,-1625069.54511,-254.249216764,3.7063807066
0.0,0.886048539577,-1775760.64504,26,1.2979549884,19556.4477388,0.815499591279,-110.88106839,193.82831345864923,27.5368514255,-172.021373182,204,-114.640774107,0.00784685011923,-1756204.1973,-250.259555335,3.66180058078
0.0,0.879749525991,-1496772.3654,27,1.29082049162,16856.864831,0.821745317374,-113.156380549,177.22761600323673,21.369892658,-155.371933199,204,-106.799860388,0.00717045987487,-1479915.50057,-230.630520006,3.63576844984
0.0,0.864148107193,-1563102.21408,28,1.2729274287,17574.6971502,0.780524779294,-103.311366017,176.21247551958623,26.3291619189,-153.370496055,204,-105.243377787,0.00784487849449,-1545527.51693,-235.266121001,3.5712919772
0.0,0.85893027641,-1429047.83342,29,1.26687100459,19627.56834,0.786419965618,-95.9760115236,173.80000518841177,25.5505614921,-151.713582686,204,-105.025967612,0.00823542913938,-1409420.26508,-230.853962075,3.54972808433
0.0,0.850392033915,-1304799.27974,30,1.25688071375,17637.2605722,0.804054369042,-95.1184443529,177.75066333877595,25.6053812461,-153.656933264,204,-106.902664913,0.00669230424969,-1287162.01917,-223.435356088,3.51444182186
0.0,0.849996641838,-1317908.78041,31,1.25641565292,19591.1380308,0.802042373302,-95.6437568121,171.49087666757703,22.25287999,-147.231730773,204,-102.686311547,0.00790039397346,-1298317.64238,-222.066302716,3.51280777262
0.0,0.842251283613,-1622040.77743,32,1.24726166054,20854.0928424,0.796459349115,-89.3395247433,168.4715844785807,22.8957331004,-143.06339517,204,-100.00089083,0.00896395794257,-1601186.68459,-227.623830211,3.48079828784
0.0,0.835852255463,-1256932.76662,33,1.23963512377,18008.5040412,0.8243181008,-94.8814713003,166.55112320490974,21.2873673121,-140.825623619,204,-99.2735035672,0.00715795346893,-1238924.26258,-200.470468398,3.45435282357
0.0,0.827469902662,-1777019.39577,34,1.22955598941,14976.6972196,0.783712360319,-87.5112136956,166.52648985485774,21.819677968,-137.705840571,204,-96.6723701577,0.00670124226272,-1762042.69855,-222.941633919,3.41971081132
0.0,0.815819910255,-1731735.18965,35,1.21537688661,18195.3149854,0.823201426084,-91.2397046538,165.65943047593933,20.7361470564,-139.393072762,204,-97.9788294132,0.00722955161156,-1713539.87467,-232.67722576,3.37156452243
0.0,0.787675599951,-1825492.59415,36,1.18026958413,17827.1724736,0.826612197048,-93.7442161531,162.37533511207656,19.1207016916,-131.981252137,204,-94.094328535,0.00796039650079,-1807665.42168,-218.319708105,3.2552516488
0.0,0.761421921748,-1042252.36663,37,1.14637088913,23219.9966188,0.843506715006,-96.3514714893,162.047435498983,16.8592885008,-131.035933866,204,-93.3715791145,0.00920624036589,-1019032.37001,-199.227017788,3.14675224973
0.0,0.751571817339,-1075291.58165,38,1.13335002417,16464.4559473,0.859015058721,-95.1026260631,166.23090178096172,16.4611718835,-134.435731922,204,-95.3612912073,0.00654357764146,-1058827.12571,-188.444303862,3.10604441439
0.0,0.744030000439,-2064842.98176,39,1.12326461141,16392.5685481,0.833739766239,-92.3401303423,164.10384010170117,18.2068390754,-132.716063068,204,-94.0771821656,0.00725711804676,-2048450.41322,-234.901654357,3.07487611122
0.0,0.750361940297,-1920458.96592,40,1.13173893141,14953.5081202,0.80265953234,-92.8406968453,164.41902145954427,21.902071373,-134.087863796,204,-95.1632536724,0.00656153317145,-1905505.4578,-234.791051675,3.10104431761
0.0,0.718673080784,-914916.174688,41,1.08858982257,22331.445541,0.852013248941,-92.308979078,161.9315946201917,16.0332046376,-128.873559302,204,-92.486537161,0.00889444047627,-892584.729147,-186.148635927,2.97008277432
0.0,0.727682197079,-1162938.77308,42,1.10104766463,20975.7863808,0.873857951392,-91.5262535106,162.67190020968843,14.5685769243,-129.215783097,204,-92.4309090121,0.00845584080333,-1141962.9867,-174.697842531,3.0073150317
0.0,0.753226065676,-1719543.03982,43,1.13554865699,18413.4430824,0.820905583946,-87.8056153819,163.25986178580212,18.5396942282,-130.748690718,204,-93.1043978583,0.0084185340747,-1701129.59673,-228.030270291,3.11288097836
0.0,0.742069060848,-1968736.4809,44,1.12062556698,22337.3865225,0.825418494687,-87.2200735487,162.0270903602351,19.3567733715,-127.250372376,204,-91.2294868145,0.00989924534902,-1946399.09438,-229.54222114,3.06677207469
0.0,0.7368736545,-1616850.7863,45,1.11359969956,18025.7991679,0.86015911704,-89.5661236262,159.3555370138973,14.8878220448,-124.182572991,204,-90.2866082958,0.00823989947657,-1598824.98713,-208.070480215,3.04530085598
0.0,0.744287962385,-1682849.76881,46,1.12361126039,15229.2078241,0.869357962924,-86.3895534332,161.7159095334447,14.3528357844,-123.693831737,204,-89.7529974569,0.00672837333995,-1667620.56098,-211.147198444,3.07594219865
0.0,0.739231694959,-2039552.01224,47,1.11679465101,18466.6528959,0.853115932338,-90.0453391148,162.17455312927933,16.2839306386,-125.436553552,204,-90.6590146307,0.0082106859862,-2021085.35934,-237.56986677,3.05504600372
0.0,0.712192682798,-771860.277749,48,1.07953175093,23211.0762424,0.857745804705,-85.8477259409,159.12575648143732,14.4099800056,-121.996732023,204,-88.6551838867,0.00881658339968,-748649.201506,-163.524504599,2.94330103038
0.0,0.734708747652,-1490397.22466,49,1.11065741321,23566.4939172,0.855421266515,-87.1707541474,160.52007907277445,16.4993644937,-125.30069518,204,-91.1524751276,0.00983628373602,-1466830.73074,-194.98719316,3.03635387757
0.0,0.705846598725,-1192585.46355,50,1.07058118585,20703.9234598,0.841945240318,-84.5217431053,157.91361545676125,16.6817010915,-121.820181674,204,-88.8403040362,0.00805873952367,-1171881.54009,-187.679471297,2.91707436975
0.0,0.687425590736,-2173145.62098,51,1.04413684625,13807.817246,0.814571093033,-88.4217293051,158.12294054805,19.079015018,-122.268036232,204,-88.6705397007,0.00613395375852,-2159337.80373,-233.35139981,2.84094529246
0.0,0.676064931192,-2106807.33494,52,1.02747237771,18467.2758333,0.840785151892,-91.4000783598,158.67152281032585,16.6380458462,-120.978693521,204,-87.9285051625,0.00816463803525,-2088340.05911,-225.550173163,2.79399473856
0.0,0.671650085566,-943037.993136,53,1.02092075313,21726.7515958,0.842539623044,-81.9362931815,154.88687298495225,14.9916727774,-116.530988062,204,-85.5107812883,0.00899832250665,-921311.241541,-164.229224926,2.77574936762
0.0,0.672756309591,-755103.866683,54,1.02256642259,18374.9926839,0.874378860583,-91.2689290032,157.83983622225153,13.3462188158,-120.06590467,204,-87.5189745866,0.00692206860354,-736728.873999,-171.440079972,2.78032109433
0.0,0.681980448318,-801660.662249,55,1.0361842435,19583.3815702,0.838958941459,-85.5816945653,157.68842374626894,15.3947248785,-120.07883218,204,-87.2960307119,0.00699464819659,-782077.280679,-162.24349375,2.81844198166
0.0,0.653392249362,-2323502.26441,56,0.993360891309,15137.1129163,0.827340094593,-82.143241627,160.68025621115012,16.947525158,-120.881106587,204,-87.324576101,0.00643935175343,-2308365.15149,-228.039637172,2.70029463548
0.0,0.657522977356,-2246113.34782,57,0.999662964213,23599.2259116,0.838003146308,-82.4748594098,157.25198029107085,16.3211136265,-118.09298056,204,-86.1660734679,0.00986241016601,-2222514.12191,-237.821202295,2.71736582457
0.0,0.689872378662,-661804.111273,58,1.04768987625,16873.0443803,0.841235057585,-83.2113052543,155.22972953453092,14.8451993968,-118.192156958,203,-86.5880935335,0.00652041956353,-644931.066892,-164.209218083,2.85105720964
0.0,0.702237171634,-801091.959701,59,1.06545445252,21893.3484686,0.857301100926,-86.7297546498,155.5839175221929,14.0547338192,-119.90333419,204,-87.2672476518,0.00756266414209,-779198.611232,-159.308902493,2.90215757724
0.0,0.696894932279,-729347.932859,60,1.05781791084,20736.4709117,0.876070054155,-81.8163725125,157.17353988218156,13.412239183,-121.014088601,204,-88.2332162542,0.0083225952406,-708611.461947,-161.67169624,2.88007953716
0.0,0.691524460673,-797785.905774,61,1.05008177805,23501.4842199,0.879233057573,-93.891998217,156.9048818299823,13.5018598131,-120.584605959,204,-87.8412984364,0.00946896461329,-774284.421554,-165.377186157,2.85788482077
0.0,0.681148990514,-732185.3819,62,1.0349643184,19457.2562335,0.873888266688,-89.1679126171,160.81967224274558,12.9250414675,-125.983918051,204,-90.8203817793,0.00674072749074,-712728.125666,-161.538367722,2.81500578992
0.0,0.664709131708,-902781.05526,63,1.01053280327,17448.6355565,0.872473825955,-86.9376915383,159.90733003676695,14.4163375967,-123.901160221,204,-89.9994647592,0.0065262345113,-885332.419704,-174.606784321,2.74706426998
0.0,0.655727280248,-715019.626298,64,0.996928225397,24732.4390583,0.868219410006,-81.1616189421,161.0836926563449,13.7201853955,-122.116959929,204,-88.4072871003,0.00998058956637,-690287.18724,-157.600674496,2.70994469083
0.0,0.681627611568,-698080.312625,65,1.03566673885,21635.3943919,0.85978473673,-90.6276575892,161.4427151298948,14.9363116857,-124.764510419,204,-89.8651354532,0.007669766131,-676444.918233,-162.96365755,2.81698380216
0.0,0.659202227103,-888255.587174,66,1.00221361131,23335.8656027,0.838531209288,-88.8001923181,157.71539671460536,15.7565184605,-120.198650733,204,-87.469535942,0.00921776144474,-864919.721571,-167.295773692,2.72430571266
0.0,0.667838073394,-745398.875994,67,1.01522899328,18552.2875639,0.864877005323,-84.7967945428,156.09540889367565,13.9856059693,-120.476535016,204,-87.9197185308,0.0068599001421,-726846.58843,-155.268355828,2.75999534539
0.0,0.688563115419,-650816.13303,68,1.0457902391,19782.9102328,0.863544148246,-90.2333362347,156.68219930405095,14.5633808292,-121.96657426,204,-88.672512565,0.00669596353133,-631033.222798,-162.365307858,2.84564637639
0.0,0.680122678863,-2267385.21794,69,1.03345644621,19922.704612,0.825945426792,-82.6484744345,159.0497667780306,17.7690358308,-122.635591844,204,-88.9151987946,0.00892875845104,-2247462.51332,-241.529801396,2.81076431959
0.0,0.67535565363,-1792657.17355,70,1.0264227006,18816.9640317,0.856793665932,-84.2724176736,158.61191967417892,14.9031665801,-121.703617907,204,-88.3967325233,0.00879781725995,-1773840.20952,-212.089637357,2.79106348494
0.0,0.650317973081,-907043.765073,71,0.988644686854,16819.3118476,0.865729356949,-85.9284421789,159.43871085890999,13.9287580708,-120.790730805,204,-87.7249807038,0.00638443225805,-890224.453225,-157.979704672,2.6875894775
0.0,0.64477960307,-1158369.95415,72,0.980091811959,17184.8155249,0.879990079137,-87.0943864301,159.09435910413924,13.4653526655,-120.733828583,204,-87.8870851852,0.00638091289017,-1141185.13863,-167.89030246,2.66470088211
0.0,0.627752835043,-749283.787672,73,0.953329768447,22923.8024535,0.863456501714,-87.4997661938,158.27500257858222,13.7533698249,-118.514919977,204,-86.7066339122,0.0083343102651,-726359.985219,-156.146789099,2.59433382402
0.0,0.629548479375,-2479330.69805,74,0.956186117251,18489.9643057,0.843868790968,-87.1627602475,160.58788193776772,16.4843475667,-121.239230656,204,-88.3734886165,0.00798975186298,-2460840.73374,-246.573626945,2.60175473965
0.0,0.637264305852,-674592.657554,75,0.968367746583,20740.956776,0.876740436314,-85.9336307247,159.12384499561392,12.55646745,-119.780951784,204,-87.3689205755,0.00784686832941,-653851.700778,-149.242969299,2.63364217766
0.0,0.655651249249,-2396030.59755,76,0.996812269558,19733.0915545,0.80876163751,-89.8063534587,159.7264060121702,20.1456172004,-123.331031942,204,-89.3755762381,0.00853985356563,-2376297.50599,-253.740612963,2.70963047514
0.0,0.663568698588,-2074588.76289,77,1.00881564233,19655.9071339,0.861482875141,-93.111383823,161.1794584655937,16.1074988987,-124.329689774,204,-89.8891583509,0.00846159943142,-2054932.85576,-232.874173619,2.74235116627
0.0,0.657896997435,-1190890.89359,78,1.00023163444,19369.2842148,0.86769291137,-87.3031920136,160.0736897572116,14.8817464102,-122.75878529,204,-89.1247262385,0.00753918016267,-1171521.60938,-181.990991671,2.71891154908
0.0,0.646345105226,-762314.946124,79,0.982516833977,25351.4285928,0.85783654951,-93.3722678675,157.8601655621727,13.7887935751,-120.558029024,204,-87.5037251818,0.00986422955209,-736963.517531,-158.669865322,2.67117068195
0.0,0.635245045799,-2516296.83254,80,0.965194077571,18263.8086087,0.848079897621,-85.4901585452,160.98720847787047,15.9874065307,-121.130544561,204,-88.1515609447,0.00796800728308,-2498033.02393,-245.926604612,2.62529711832
0.0,0.621800004434,-1026058.99776,81,0.943801758979,22846.6432647,0.875096588108,-86.368330242,159.3904928713321,12.5892968516,-119.124828832,204,-86.7832458201,0.00967780487933,-1003212.3545,-169.507269001,2.56973237432
0.0,0.645797519406,-2074812.86858,82,0.981669271422,19715.8839566,0.857894007905,-88.308486225,162.47166358100193,15.2592054409,-122.857341564,204,-88.7748465385,0.00887188870088,-2055096.98463,-228.479937595,2.66890765686
0.0,0.653388981922,-937098.836721,83,0.993355890563,17497.9833833,0.878604841453,-91.6940784244,159.2626318565998,12.8262336063,-120.232447085,204,-87.4075218546,0.00653461964599,-919600.853338,-171.304283315,2.70028113203
0.0,0.660464092723,-1545910.97116,84,1.00412601293,17172.5323822,0.863151017172,-83.77965518,159.38007440824597,14.7405208974,-121.821291984,204,-88.4453010594,0.00742531690706,-1528738.43878,-198.437161387,2.72952066427
0.0,0.653017668122,-848247.150454,85,0.992787439981,21071.4945574,0.85835425562,-86.8736391887,161.00600795066725,14.60945819,-121.752982315,204,-88.3204823179,0.00870385960678,-827175.655897,-158.978498523,2.69874659184
0.0,0.671729872315,-2912910.79172,86,1.02103953821,22289.190162,0.843104874794,-93.2716405855,162.83147049907365,16.6871832271,-125.708591741,204,-90.5292067156,0.00944806765018,-2890621.60156,-253.489101923,2.77607910482
0.0,0.664386767155,-1081897.50047,87,1.01004771478,19999.7919825,0.858347357746,-91.625135264,163.4699936466126,15.3748416489,-126.130836354,204,-90.8954145819,0.00803857735388,-1061897.70849,-181.896125605,2.74573202388
0.0,0.664726668079,-1815616.04092,88,1.01055918494,15798.3492975,0.823108435775,-86.0395003233,161.66331558311487,18.5825499527,-124.643996228,204,-90.3502686775,0.00661322578027,-1799817.69162,-228.481689335,2.74713674309
0.0,0.647837965821,-1113152.89536,89,0.984823866562,22525.5834227,0.859947277711,-87.8457962452,159.35313229180477,14.1213559264,-120.917657002,204,-87.7259248976,0.00926739407632,-1090627.31193,-174.199387239,2.67734027374
0.0,0.643720954186,-808584.593299,90,0.978448585471,17714.4250224,0.872127042881,-85.474814807,157.18913095946903,13.7661941855,-119.290739312,204,-87.2686170154,0.00629103705465,-790870.168276,-160.84200305,2.66032577067
0.0,0.64907725636,-843238.774909,91,0.986735002917,20420.4796768,0.865079045049,-87.630168496,158.2830664944251,14.0381061713,-119.97021077,204,-87.4755597592,0.00768977099125,-822818.295232,-176.018376296,2.68246192861
0.0,0.633213453125,-769997.190723,92,0.961990828252,22572.8952509,0.859593054192,-81.5597924691,155.27600399631606,13.9140192284,-114.966344829,204,-84.7853050685,0.00887214933843,-747424.295472,-154.265200592,2.61690109158
0.0,0.654284025214,-723712.679626,93,0.994724800721,17381.7990294,0.875015883619,-86.7336839717,158.23683891138603,12.3403845727,-118.415489006,204,-86.5321422345,0.00680527100258,-706330.880597,-151.987042631,2.7039801055
0.0,0.659168301437,-636009.715949,94,1.00216214525,18780.299135,0.881652066856,-86.6151989387,157.4399731039767,12.2432670914,-118.400728144,204,-86.6542010948,0.00684769014011,-617229.416814,-153.224483497,2.72416550699
0.0,0.645409677969,-634847.824227,95,0.981068529031,19569.2477523,0.88020875074,-84.1012389302,157.5627899671541,12.8728593948,-118.036445185,204,-86.553956191,0.00667283505097,-615278.576474,-147.674135294,2.66730481239
0.0,0.654301138405,-772733.220707,96,0.994750955979,23656.8491694,0.87406168199,-92.3645207753,158.44896575393048,12.9636255812,-118.751279763,204,-86.8725648215,0.00979809151058,-749076.371538,-158.118271056,2.70405082973
0.0,0.664146506241,-933776.155574,97,1.00968602129,17914.2478378,0.858163128763,-83.0685173391,157.8550658677527,14.4662832678,-119.886628008,204,-87.4999532495,0.00733670511222,-915861.907736,-162.655982561,2.74473909007
0.0,0.674606621452,-849979.435445,98,1.02531299218,24274.0419666,0.871011605594,-89.8756374274,159.16673955288806,14.3265906664,-122.594506393,204,-89.3870245471,0.0098527206348,-825705.393479,-169.023361781,2.78796793617
0.0,0.680893827664,-1269213.52461,99,1.0345896417,19359.2677667,0.856760332319,-86.7164432507,159.35551643856806,15.7865336383,-123.376531428,204,-89.8388334725,0.00860524760445,-1249854.25685,-190.231855986,2.81395127042
0.0,0.69715673379,-1088316.39111,100,1.05819350884,17550.4006902,0.860590665636,-94.8367524177,161.07909440147566,15.410334089,-125.515056464,203,-90.7573286886,0.00703827249932,-1070765.99042,-179.364777592,2.88116149247
0.0,0.687423142717,-784752.120634,101,1.0441332851,16567.9545093,0.868788554061,-86.5588259594,161.6933398989909,14.8708452286,-127.512590942,204,-91.995000034,0.00624610557311,-768184.166124,-172.628656974,2.84093517546
0.0,0.684950961264,-1144442.94011,102,1.04053050053,19386.3878469,0.868586324495,-86.8985360314,164.34605556653776,14.6904208775,-128.73948818,204,-92.3750717307,0.00737612731429,-1125056.55227,-180.62035205,2.83071831365
0.0,0.672628038371,-1500551.81117,103,1.02237573921,16549.1913983,0.863704699874,-86.9163700361,161.35822491361822,15.3394708826,-125.06081849,204,-90.6859295648,0.0069573051495,-1484002.61977,-203.374074466,2.77979098384
0.0,0.681689677165,-878821.988498,104,1.03575778969,25466.4978524,0.864796049744,-92.7393550101,161.33252658133014,15.2947684181,-126.711225459,204,-91.4297105177,0.00954135077801,-853355.490646,-173.485373644,2.8172403026
0.0,0.671445068562,-2915697.53229,105,1.02061546276,21367.2487997,0.846789722522,-83.7934526905,163.24622210509236,17.57897778,-127.784671105,204,-92.004015406,0.0076106508532,-2894330.28349,-262.087285472,2.77490208742
0.0,0.69524921198,-1057895.99759,106,1.0554536139,17245.8539732,0.857398769879,-87.1009936563,160.32960353782758,15.6298822031,-125.286051082,204,-90.8380317451,0.00661145919584,-1040650.14362,-169.85874729,2.87327821728
0.0,0.68378190829,-986032.732926,107,1.03882227347,17817.7758342,0.860551792606,-89.3322658825,159.785698354618,15.3819744768,-124.870636166,204,-90.3522745286,0.00694654217779,-968214.957092,-176.180408553,2.82588693177
0.0,0.692604677126,-754021.127053,108,1.05164263916,25086.0050128,0.881030120213,-91.5466613219,160.6554843636643,14.4958221211,-125.957110151,203,-91.3581391825,0.0093085093342,-728935.12204,-166.869084415,2.86234906517
0.0,0.687951400453,-708262.58096,109,1.04490145078,22037.3681816,0.876761575243,-86.7656471297,159.94433418220197,14.2970591327,-125.686688636,204,-90.8939692075,0.00774144916577,-686225.212778,-166.342166201,2.84311832276
0.0,0.669108395585,-907591.212444,110,1.01712932751,22719.9961802,0.866048006461,-90.8269798106,159.11630202567906,13.8460973297,-122.419869347,204,-88.7223157587,0.00824648857427,-884871.216264,-181.857211153,2.76524524574
0.0,0.678512573916,-813666.304176,111,1.03108626526,20471.3659432,0.886702968935,-91.4795303319,158.49770464172,12.6051150384,-121.862198003,204,-88.8427408721,0.00729964363167,-793194.938233,-165.066884789,2.80411018839
0.0,0.673833976451,-1075581.12101,112,1.02416700905,17909.0186033,0.864816066351,-91.8675507837,161.17373017798164,14.3301491925,-121.583172826,204,-88.4317022286,0.00664379461646,-1057672.1024,-158.188940861,2.78477480195
0.0,0.677359294425,-925550.250717,113,1.0293851019,17275.0169512,0.880979258947,-94.0827723069,161.9090727041867,13.7913890667,-123.776759295,204,-89.8039800927,0.00637426683786,-908275.233766,-168.260863822,2.79934399407
0.0,0.685651448615,-1261928.03659,114,1.04155266043,15530.4391053,0.857148401612,-85.9974644433,161.5793455151046,15.8931168,-124.591979789,204,-90.3503306288,0.00622482914485,-1246397.59749,-179.728896898,2.83361323969
0.0,0.678213009194,-1254493.99597,115,1.03064466567,16276.9925137,0.865928897691,-88.5463612344,159.03315897355282,15.1626171906,-121.251929438,204,-88.8080810842,0.00650046425527,-1238217.00346,-186.201280896,2.80287216787
0.0,0.667802883208,-1246307.21336,116,1.0151762992,17475.3094545,0.873761032319,-92.9760980921,156.79579640143345,12.8233393865,-118.459274146,204,-86.8854968678,0.00684497643223,-1228831.9039,-173.358094414,2.75984991381
0.0,0.662470268354,-789112.215215,117,1.00715893312,19826.2414693,0.878458752158,-85.8636636297,157.627102040162,13.3929946561,-118.000041128,204,-86.8384268608,0.00728643731505,-769285.973746,-153.22160994,2.7378116492
0.0,0.671102493958,-1056640.27733,118,1.0201051276,23446.534021,0.880024901284,-89.4562280429,156.59348024311524,13.1660532151,-117.111024247,204,-86.3685399635,0.00968943608021,-1033193.74331,-170.062129544,2.77348631861
0.0,0.686187108055,-2260186.88484,119,1.04233359702,14973.5194223,0.85698506262,-85.6421512541,158.46709591953976,15.5915900368,-120.42658079,203,-87.7414336459,0.00680025066898,-2245213.36542,-243.42539346,2.83582697625
0.0,0.69423226954,-933267.366613,120,1.05398984107,21389.2074458,0.86613288787,-86.1299818513,155.83608671728334,13.105197103,-117.226523712,204,-86.0872734761,0.00866324203943,-911878.159167,-167.172719112,2.86907546737
0.0,0.71039584374,-953624.199941,121,1.07700559529,19412.6032569,0.882806856517,-84.7319303109,156.90617299619498,13.3479166738,-118.710208053,204,-86.9176374264,0.00751554718503,-934211.596684,-173.196493829,2.93587517726
0.0,0.700989574708,-1100238.28514,122,1.06367626912,13801.6810976,0.878846251946,-89.6771419632,158.49729889453874,13.0618256039,-118.738151342,204,-86.8116724099,0.0052944786922,-1086436.60405,-172.845731616,2.89700159431
0.0,0.711203093967,-843449.370974,123,1.07814128876,25413.1182963,0.879769715701,-90.7768278732,158.18767454881578,12.7177173274,-119.079660997,204,-86.9426552972,0.00946462811328,-818036.252678,-161.835113419,2.93921132559
0.0,0.699366977514,-2290717.26706,124,1.06135886229,15589.7800487,0.81113004073,-88.744575019,159.15055498462291,19.1857320011,-122.059170601,204,-88.5479522604,0.00693677777155,-2275127.48701,-244.952736823,2.89029583601
0.0,0.686436742297,-1017289.78423,125,1.04269732995,16254.9202699,0.861376999244,-85.4363602086,157.74467072363407,14.0682935169,-118.237559259,204,-86.6145017966,0.0064322724744,-1001034.86396,-168.547015748,2.83685864751
0.0,0.695533040647,-1533033.68892,126,1.05586177078,19629.8698993,0.88220429525,-90.0882526174,157.33191522509742,12.6661158373,-119.18172338,204,-87.0713090793,0.00879719566905,-1513403.81903,-178.304097925,2.87445120491
0.0,0.66994856718,-1018280.53231,127,1.01838419826,17732.7965998,0.877310403936,-84.343634122,155.1179422022787,13.3479535083,-115.533356037,204,-85.3509993426,0.00648971730913,-1000547.73571,-176.738709528,2.76871744923
0.0,0.6490442543,-571412.500429,128,0.986684157046,21994.0133932,0.879029424375,-80.0288913808,155.27823824346757,12.2019940629,-113.148688714,204,-83.8850426607,0.00835981445342,-549418.487036,-167.657277479,2.68232553996
0.0,0.659833632847,-633015.78422,129,1.00317098602,18683.113029,0.873743098706,-84.5469761226,156.175571512489,14.1348891308,-115.515323002,204,-85.9756519107,0.00651961522556,-614332.671191,-148.922472307,2.72691514297
0.0,0.674531440334,-1681487.59969,130,1.02520154158,15437.9487927,0.859581063374,-88.1756784267,155.34548997077346,15.3923070947,-116.098320648,204,-86.0208961792,0.00646207273342,-1666049.6509,-193.88448418,2.78765723281
0.0,0.661042623456,-2039441.77794,131,1.00500157529,15121.0309959,0.85563710418,-86.0810522469,157.37420350682453,14.8620849592,-117.439803558,204,-86.1775831041,0.00668465628629,-2024320.74694,-228.363487006,2.73191157637
0.0,0.663883215007,-505817.542244,132,1.00928950722,24036.5158536,0.875013384769,-81.4852551342,153.66310321116882,12.0643557142,-112.769832229,204,-83.4957253201,0.00901981682384,-481781.02639,-142.170188066,2.74365097814
0.0,0.695793029522,-847378.404445,133,1.05623549896,15014.0963164,0.870635917591,-88.1048551598,155.29728172586746,13.9635118738,-116.827368185,204,-86.1172321198,0.00643894957832,-832364.308129,-155.708064662,2.87552566909
0.0,0.694459634503,-1049554.62469,134,1.05431729306,16038.1160851,0.884540771901,-84.7349696754,155.22545493356452,13.0593713738,-115.56946226,204,-85.2991095823,0.00655553921521,-1033516.50861,-166.226937423,2.87001510568
0.0,0.702088769965,-641823.126668,135,1.0652431032,25209.5331378,0.880803771372,-83.3575408718,155.40818982065423,13.2535667933,-114.820345758,204,-85.1717915243,0.00951241605571,-616613.593531,-146.531370238,2.90154427301
0.0,0.714218965756,-633972.79519,136,1.08237284428,20484.9239344,0.883579605382,-86.6539756666,158.82803952977898,14.0151947066,-118.103403535,204,-87.2925175986,0.00739717636299,-613487.871256,-155.376913341,2.95167511349
0.0,0.741333076212,-766496.092011,137,1.11963327409,20881.3520201,0.877970619684,-84.1965089417,157.1458621422057,12.8755715102,-114.250960601,204,-84.8113040483,0.00749859897296,-745614.739991,-151.16208098,3.06373044791
0.0,0.736484985536,-664638.898748,138,1.11307210368,20541.2050348,0.883499655571,-84.3570060199,156.97055474446307,12.2351915163,-114.178803082,204,-84.4926395683,0.00715564499476,-644097.693713,-148.896633663,3.04369459156
0.0,0.740257686803,-1752686.01002,139,1.11818160521,19395.5029853,0.857841976687,-88.7229097976,157.09726132832293,14.3605473614,-117.040681737,204,-86.0944676682,0.00823261202456,-1733290.50703,-204.545196646,3.05928615238
0.0,0.71123552292,-676329.463636,140,1.07818688504,23892.0478513,0.869493251584,-83.7585759936,157.65494984340276,12.2727525576,-114.968688175,204,-84.5020908781,0.00837769522448,-652437.415785,-149.453529529,2.93934534574
0.0,0.703748871634,-776799.051679,141,1.06760483031,23802.5318951,0.869501267178,-86.3364420124,156.50455780659274,13.5740777334,-113.175321497,204,-84.0558054983,0.00894699601696,-752996.519784,-161.622899635,2.90840502723
0.0,0.703702215376,-1988945.72448,142,1.06753853137,17832.7890203,0.860075743073,-87.7489278026,158.7773737440435,14.6400513093,-118.364618541,204,-86.8731534895,0.00840375937511,-1971112.93546,-216.52357784,2.90821220945
0.0,0.705983015137,-704732.253876,143,1.07077443355,19470.2485661,0.872185973487,-88.3654759534,157.7683092492534,13.385768824,-117.769644577,204,-86.9539827297,0.00701848560912,-685262.00531,-155.16134665,2.91763814214
0.0,0.693344750714,-848365.662553,144,1.05271060549,14251.1697119,0.8684427663,-83.5177038702,155.8564172707931,13.4485291253,-115.23328896,204,-85.216279085,0.00542465338576,-834114.492841,-159.37655246,2.86540759049
0.0,0.693341790845,-1646564.61397,145,1.05270633651,16060.8861785,0.843613231165,-84.5062756224,159.02986335980847,15.1682762141,-119.226128115,204,-87.2143394367,0.00693692649724,-1630503.72779,-216.305718836,2.86539535815
0.0,0.681895412836,-970726.016114,146,1.03605954669,19710.731536,0.870593184547,-83.1036931677,155.68397507126602,13.5515358038,-114.750782939,204,-85.1101928531,0.00742228944889,-951015.284578,-161.099576538,2.81809055286
0.0,0.693322845054,-781618.307403,147,1.05267901081,16987.6635202,0.88742342003,-91.8144546037,157.64833482221277,11.3504315426,-115.927768824,203,-85.5426241051,0.00672904239934,-764630.643883,-143.43327611,2.86531706028
0.0,0.714066522837,-1743738.86856,148,1.08215938146,14399.104207,0.846211909214,-88.5547281231,159.14629965575116,15.4703907245,-118.413314822,204,-86.614437027,0.00630064333456,-1729339.76435,-189.025735738,2.95104510786
0.0,0.709046134138,-744727.92152,149,1.07510384794,22443.5820393,0.880598977105,-90.3583923054,157.50708576920258,12.2600697459,-116.693355998,204,-86.0243134427,0.00875807181259,-722284.339481,-154.690786013,2.93029719007
0.0,0.692845863186,-845066.987523,150,1.05199080903,18266.5068397,0.8769341535,-85.5349190706,159.29710982382247,12.5153798518,-116.155791333,204,-85.5730807574,0.00644117009395,-826800.480683,-153.338621719,2.86334582236
0.0,0.69842275355,-745233.615656,151,1.06000783776,19774.2149537,0.885222633745,-87.8519769777,160.69355226039025,12.6647075091,-121.278792841,204,-88.697675081,0.00690644605002,-725459.400703,-164.747438267,2.88639361203
0.0,0.682040894449,-606085.819396,152,1.0362728728,20364.4480195,0.872344694975,-87.1301243172,156.85386359050688,12.4309043197,-116.167399575,204,-85.5635650714,0.00744394334211,-585721.371377,-152.375281771,2.81869178928
0.0,0.682532182233,-663029.42954,153,1.03699293363,26291.1544046,0.882821263468,-83.2469226425,159.36360611671446,12.5198177096,-117.645379127,204,-86.3334709166,0.00959926254587,-636738.275135,-148.194558989,2.82072214971
0.0,0.661403039174,-2229080.59136,154,1.00554664982,19353.0406282,0.867035094764,-88.1189439716,159.8350156099541,14.5107413621,-118.519578619,204,-87.0257058224,0.00928535074458,-2209727.55073,-235.118284957,2.73340107771
0.0,0.659337640725,-917420.610506,155,1.00241901067,17590.9164986,0.877164087963,-84.3541481819,159.35059928873838,13.3225078761,-118.222037214,204,-86.8796874902,0.00665990478134,-899829.694007,-165.070745868,2.72486534078
0.0,0.651809785236,-681307.461643,156,0.99093603315,22804.4160252,0.88089264742,-83.5231187946,158.04314395517378,11.5380240856,-114.42173099,204,-84.3614686052,0.00904426158932,-658503.045618,-145.112263355,2.69375473637
0.0,0.679677308848,-610491.587485,157,1.03280139395,26051.6107034,0.87712601044,-88.3076120383,158.21539208199337,12.5158975029,-117.545835627,204,-86.0743158853,0.00952937863493,-584439.976781,-150.912911365,2.80892372496
0.0,0.672540464151,-592322.578082,158,1.02224553363,22515.5976157,0.879354854827,-88.2879412519,157.99565601824838,12.6289754187,-118.749620286,204,-86.8470384075,0.00710714185513,-569806.980466,-151.887604535,2.77942906311
0.0,0.653340838747,-676421.858657,159,0.993282205591,22426.9608831,0.874128862107,-87.0177258605,159.01650818234089,13.2331328633,-118.589270476,204,-86.900078401,0.00821808909381,-653994.897774,-153.843544339,2.70008216922
0.0,0.641012683779,-645511.437851,160,0.974232498433,19835.6249183,0.873819040775,-86.3776905684,158.13757111288768,12.8066045287,-117.211738347,204,-85.9871695802,0.00703295520154,-625675.812933,-151.855457491,2.64913321664
0.0,0.644220680929,-791682.181572,161,0.979224593878,22815.7247751,0.879416182254,-85.4354243224,157.00504651759,12.2351864997,-113.829642367,204,-83.9050188086,0.00951820117219,-768866.456797,-149.776694627,2.66239100705
0.0,0.66710720753,-1391736.16373,162,1.01413401815,15742.3180086,0.851474619996,-85.4579143393,158.9473186847796,15.0193722402,-117.529748923,204,-86.1729148857,0.00702740508938,-1375993.84572,-183.271295599,2.75697487312
0.0,0.669122088764,-2375369.97106,163,1.01714979212,13649.4689917,0.840899532398,-92.2176940153,164.47505978959197,17.5031174514,-123.588373825,204,-89.2882939384,0.00618760198254,-2361720.50207,-252.328436007,2.76530183597
0.0,0.66394826621,-2938547.30921,164,1.00938748833,23014.0038335,0.827565647822,-89.9920716138,167.67479108650048,18.5933992854,-124.960651548,204,-90.0921387225,0.00937209775808,-2915533.30538,-265.273563759,2.74391981728
0.0,0.656291003413,-2505498.1332,165,0.997787547568,16315.5940344,0.827065090161,-86.0634605697,166.94724734549968,18.6386705178,-123.631891342,204,-89.559283657,0.00651253294234,-2489182.53917,-244.82164871,2.71227440723
0.0,0.651381934754,-792573.627036,166,0.990279413727,19203.4867985,0.844248539338,-85.3680431178,161.9541814528801,14.141415861,-118.415181782,204,-86.3790699291,0.00682134616811,-773370.140238,-157.494314965,2.69198654527
0.0,0.648582438326,-1671505.39407,167,0.98597237145,15868.5007105,0.870125375334,-93.1975446271,164.48033259296358,14.1766554949,-122.179630816,204,-88.5599963491,0.00675727097833,-1655636.89336,-203.791381313,2.6804169786
0.0,0.650243574473,-879243.705129,168,0.988530276878,20172.2593581,0.861494215698,-87.4972138671,162.5110047316448,13.7415375004,-120.513565722,204,-87.5088148175,0.00716255883885,-859071.44577,-169.277326473,2.68728200804
0.0,0.663727169291,-1449435.49044,169,1.00905442964,19881.0394129,0.852805731907,-90.8810745789,163.99841442195378,15.3539887772,-122.739567069,203,-88.8424351955,0.00846012485802,-1429554.45103,-209.098789365,2.74300608311
0.0,0.661330104623,-720432.024588,170,1.00543637127,24794.6345952,0.863939745685,-87.4601056226,159.05328016718286,14.5972731855,-120.090505731,203,-87.8562689497,0.0095496269588,-695637.389992,-164.773707404,2.7330996588
0.0,0.695958815637,-568958.216527,171,1.05647373987,24672.5234824,0.883308637293,-86.664235939,162.03241825785216,13.6644970677,-125.40596117,204,-90.9481318775,0.00923077248688,-544285.693044,-170.371959377,2.87621081856
0.0,0.710724103096,-2347160.7526,172,1.07746756807,16574.3712315,0.827954482686,-90.6416145301,166.86617366290454,19.676113064,-129.878300978,204,-93.2164033417,0.00711736546916,-2330586.38137,-251.153385041,2.937231785
0.0,0.689389036864,-830608.440747,173,1.04698900575,18317.9042636,0.848151984204,-86.0269842732,160.66783312497398,15.027681877,-121.518105264,204,-88.4022772827,0.00655862276903,-812290.536483,-169.901472318,2.84905968784
0.0,0.685918899955,-1050088.14996,174,1.04194265332,19455.607267,0.867012361135,-86.10591825,158.26003460168337,14.9220272,-119.845846449,204,-87.8473637344,0.0077888533679,-1030632.54269,-173.609480636,2.83471854423
0.0,0.668636281759,-689900.024518,175,1.01642349201,25255.9065792,0.856595331245,-83.4312142142,159.10672314573637,16.2805618785,-119.917921896,204,-88.119202674,0.00961416493443,-664644.117939,-160.707269021,2.76329412613
0.0,0.660231236446,-747380.738719,176,1.00377338613,23958.2529051,0.855898506245,-87.7518046871,157.1524601762342,14.8453864368,-116.902385646,204,-86.2182255227,0.00975376293354,-723422.485813,-161.800449627,2.72855833183
0.0,0.676150955599,-893777.430904,177,1.02759961244,24198.7062731,0.857949781486,-89.8588797684,156.67815668717031,14.2627691386,-119.936277193,204,-87.5991621633,0.00968715531303,-869578.724631,-167.509381937,2.79435025432
0.0,0.683975162445,-956427.554432,178,1.03910485897,18182.9131996,0.868188827911,-90.6097432394,159.40556581341326,14.2601928199,-123.59964669,204,-89.844187019,0.00681245901763,-938244.641233,-168.627432084,2.82668559928
0.0,0.677855061755,-2310370.40909,179,1.03011674609,16974.2418179,0.839322362291,-87.6498121473,158.68966293736347,17.3544855979,-123.154311934,204,-90.0561676821,0.00692658734412,-2293396.16728,-239.923910749,2.80139286726
0.0,0.681250646813,-861102.437977,180,1.03511354965,18241.2543189,0.859243218723,-84.421499218,156.6135104788615,14.8315541296,-120.070251614,204,-88.3017233753,0.00701148595986,-842861.183658,-168.341524969,2.8154259081
0.0,0.685198797445,-650542.123498,181,1.04089226563,19950.1698406,0.877238077211,-87.5454934808,156.75264633906158,13.9046631535,-119.250049981,204,-87.8796102012,0.00698278077816,-630591.953658,-161.286716284,2.83174255401
0.0,0.674538824212,-843413.572969,182,1.0252124882,23680.628575,0.860829288381,-85.1528115337,158.3674392130973,15.1844967693,-120.132287118,204,-88.3335337681,0.00958854419241,-819732.944394,-165.384639904,2.7876877484
0.0,0.664227940314,-884822.186249,183,1.0098086284,20546.4555538,0.877986608933,-82.252464724,158.20380895049573,14.3462034759,-118.049809437,204,-87.7796374549,0.00786140715077,-864275.730695,-155.704519069,2.74507563522
0.0,0.646878719489,-994170.954594,184,0.983342080594,21124.4864752,0.872546877046,-82.5694556179,157.63115222664962,14.9930344414,-117.652030221,204,-87.7730978569,0.00800598301467,-973046.468119,-171.300931676,2.67337596635
0.0,0.633124825965,-680191.521091,185,0.961850854343,22145.4861215,0.875308296109,-83.341885424,156.83016610037538,12.5495660426,-115.532510647,204,-85.6321569944,0.00893886567483,-658046.034969,-154.306967554,2.61653481934
0.0,0.657993895927,-1417123.68285,186,1.0003789088,16740.3207638,0.840133737323,-87.4321408891,159.88252794053872,16.1543083697,-121.877994314,204,-89.2364916725,0.00692700602628,-1400383.36209,-189.600849962,2.71931200452
0.0,0.660550562087,-634134.519682,187,1.00425692648,23461.768456,0.878096209952,-88.7418431927,157.72231280213168,13.2952838856,-119.158679369,204,-87.9390254864,0.00772773104706,-610672.751227,-152.782834098,2.72987801892
0.0,0.640950540423,-795073.686302,188,0.974135548139,25486.5404976,0.859853215814,-82.8362321889,158.05155608303465,13.7397557176,-117.193837661,204,-86.6790443738,0.00937554195235,-769587.145804,-164.112933342,2.64887639485
0.0,0.654458364985,-782412.783516,189,0.99499122408,22205.0682832,0.869419516915,-84.8569488989,158.9121754270785,13.5656665497,-117.839734585,204,-87.0323590915,0.00723689634455,-760207.715233,-161.906798007,2.70470060494
0.0,0.638801969401,-719042.024153,190,0.970777753529,21693.6052868,0.877020393816,-83.910433456,158.67395297274876,13.0444265917,-116.01251809,204,-86.0110254433,0.00785746584333,-697348.418866,-151.849019743,2.63999692802
0.0,0.628383552467,-558458.982546,191,0.954333986594,19153.9530372,0.883717255782,-82.4275569554,157.5335926152092,12.2071358401,-115.756407734,204,-85.6644494421,0.00694261886685,-539305.029509,-145.966591267,2.5969404097
0.0,0.625378577399,-787549.950304,192,0.94954044442,16735.3502051,0.866450315468,-82.7511854072,158.47164246026898,13.3392193162,-115.202932263,204,-85.367203023,0.00621803877239,-770814.600099,-154.153333008,2.58452165501
0.0,0.610724019885,-1245709.24418,193,0.925828425404,18452.909667,0.877632171531,-78.9784962071,157.61092461495437,12.65290385,-112.543554589,204,-84.1794927145,0.00729181286678,-1227256.33451,-172.43026974,2.52395830569
0.0,0.593482313973,-649949.339373,194,0.897190668288,20643.2003432,0.88329432034,-83.48361148,157.46488220247988,12.6103059544,-111.505731173,204,-83.6583971896,0.00730931132302,-629306.13903,-144.784787573,2.45270296707
0.0,0.583923062309,-829844.172529,195,0.880952485751,18145.6793318,0.887216665449,-77.9702621844,157.28141096495767,11.1779069716,-109.21774166,204,-82.0258902471,0.00676709512458,-811698.493197,-144.593891877,2.413197148
0.0,0.601449440605,-1040736.82733,196,0.910525730585,18705.0099114,0.876253533242,-80.6769430336,158.17780439201147,12.9807761862,-112.43095703,204,-83.8990392299,0.00792816532971,-1022031.81742,-168.721846348,2.48562896111
0.0,0.589291071271,-495696.757536,197,0.890103494537,24853.1062529,0.887199329734,-78.8774704809,158.19988330855855,11.0988938302,-110.033849863,204,-82.4823704989,0.00860552208989,-470843.651283,-141.482681478,2.43538168695
0.0,0.622588493134,-628391.182383,198,0.945069030104,22785.4957129,0.882453150529,-88.4693577637,156.1737427730134,11.8916392882,-112.306728967,204,-83.5050179995,0.00713070069781,-605605.68667,-155.720242902,2.57299098629
0.0,0.600400735478,-711469.291645,199,0.908780578961,15431.0592109,0.894175010504,-85.6207190126,156.58491407491542,10.6645899996,-110.901127622,204,-82.5926266868,0.00577449359547,-696038.232434,-144.832385056,2.48129494455
0.0,0.613277976468,-769174.68417,200,0.930001556326,22757.9919737,0.886587960172,-83.3201642858,157.56124959776224,11.5746698676,-112.280343153,204,-83.6943938831,0.00927188238742,-746416.692197,-144.492743545,2.53451312214
0.0,0.619896909637,-672310.404238,201,0.940736443657,22766.125972,0.875636911385,-81.9181208835,157.8510224633372,12.7706730914,-112.089820247,204,-83.8066795102,0.00826746553514,-649544.278266,-142.074319421,2.56186739478
0.0,0.604000790615,-552101.718879,202,0.914758761122,18575.1710539,0.89117371461,-81.5571716701,157.6205990466226,11.230152709,-110.560738189,204,-83.0073087508,0.00638481732798,-533526.547825,-137.518813062,2.49617300529
0.0,0.619914827938,-518091.597688,203,0.940765348531,21080.929958,0.886708246534,-80.3536236259,156.40132293119788,11.408408413,-111.92604524,204,-83.2684074922,0.00716616706481,-497010.66773,-145.256189749,2.5619414463
0.0,0.617469093144,-929790.878836,204,0.936812269883,18481.578056,0.859849534808,-83.3047393802,159.59014534757048,13.8375784099,-116.112838645,204,-85.2891841962,0.00692751129255,-911309.30078,-168.259670465,2.55183388144
0.0,0.611550667689,-616141.805714,205,0.927181063953,23901.9928226,0.888439630549,-85.7800340252,159.94524934808598,11.458722809,-113.922067369,204,-84.3792709673,0.00908491093969,-592239.812891,-149.988777567,2.52737461899
0.0,0.639809649582,-494157.082848,206,0.97235396381,21971.3639715,0.877090966302,-83.5804289813,157.77169814682907,11.5483977331,-112.085220947,204,-83.363562333,0.00807007931381,-472185.718876,-143.053377958,2.6441613995
0.0,0.65031317486,-873199.726258,207,0.988637308557,18381.9900419,0.871310156766,-78.868457002,158.68646043409032,12.9563166262,-112.65131844,204,-83.6117515907,0.00719753272492,-854817.736216,-158.806285124,2.68756964774
0.0,0.658542660206,-680763.127668,208,1.00121255722,18960.6214801,0.876188492217,-88.4562529137,159.27691147943045,12.8146899137,-113.631660057,204,-84.4764424518,0.00649652784492,-661802.506187,-157.147796217,2.72157989986
0.0,0.668887253935,-552520.242751,209,1.0167987709,18584.4576912,0.874649939847,-86.6980835077,160.97176371294438,12.493578302,-115.692762046,204,-85.4505586715,0.00670556125126,-533935.78506,-146.972038984,2.76433132671
0.0,0.657055383465,-770436.168418,210,0.998951566665,18735.1413123,0.875942262646,-83.3534458163,160.49978112703317,13.2714904316,-115.947512201,204,-85.721223855,0.00658275461145,-751701.027106,-148.762444842,2.71543338464
0.0,0.641145390399,-2467438.25213,211,0.974439503519,21532.4724562,0.849762430639,-82.463944991,161.13615013086684,15.3022366004,-114.178496179,204,-84.9201641925,0.00970302661576,-2445905.77968,-243.10334415,2.64968165745
0.0,0.618786772547,-719555.578529,212,0.938943996718,20567.4192679,0.893494825065,-84.5309200165,160.7783286135152,11.6156466425,-112.66385805,204,-84.2124795252,0.00693398530742,-698988.159261,-139.565877974,2.55727949642
0.0,0.611874841318,-769671.564156,213,0.92771100817,24564.2711993,0.897554890255,-83.8068918832,161.45551912001537,11.6330255495,-112.033222568,204,-83.857957377,0.00921111232438,-745107.292956,-140.899383379,2.52871434151
0.0,0.6297708631,-645014.350293,214,0.956539298085,21097.2377713,0.883801107214,-83.821689558,158.22757813251698,12.8891476575,-112.188484249,204,-84.2284107004,0.00698523294897,-623917.112522,-150.226334985,2.60267379185
0.0,0.60766929963,-596669.708524,215,0.920814073132,23506.8248502,0.89861159187,-86.4835204866,159.20708496383384,11.1035630198,-112.187647838,204,-84.2728625249,0.00816061257723,-573162.883673,-142.39818351,2.51133396752
0.0,0.60277998147,-772629.21082,216,0.912735511182,24312.3085612,0.89018707246,-81.6593637251,156.56840758301323,11.1148658421,-109.649735061,204,-82.3913708235,0.00945559255708,-748316.902259,-153.705698095,2.49112772906
0.0,0.638159505429,-676136.633711,217,0.969771514831,21410.740747,0.88719070763,-85.6147287691,155.4325521780822,12.0823485694,-112.283687063,203,-83.9193188975,0.0080790174243,-654725.892964,-142.763978592,2.63734179702
0.0,0.633795576319,-1221831.05511,218,0.962909721838,17215.0047638,0.869879281388,-83.7981544639,155.75537420888043,12.6326997826,-110.839688224,204,-82.8470649103,0.006828571511,-1204616.05034,-177.486836666,2.61930685036
0.0,0.650156011409,-1228946.21775,219,0.988395605865,17150.0404066,0.875705582673,-87.5568505224,156.32988982567406,12.9092709071,-113.695639185,204,-84.2407251265,0.00689472636896,-1211796.17735,-166.872870316,2.68692013342
0.0,0.644005579284,-819893.98598,220,0.978890643774,26171.7680636,0.873079226624,-84.8319041638,156.098054714656,12.1867400274,-112.949490143,204,-83.7277816808,0.00991661939141,-793722.217917,-151.92669708,2.66150204974
0.0,0.664221742861,-1542218.2761,221,1.00979929804,18958.4694347,0.887021825056,-85.1500227954,156.9550792760625,12.2778005326,-114.690442506,204,-84.978429452,0.00845949997734,-1523259.80667,-188.35384033,2.74505002281
0.0,0.681099196688,-999036.496661,222,1.03489121304,22958.0031662,0.873045899067,-83.903803158,157.08218113590743,13.3377634271,-115.123298052,204,-84.992156461,0.00913196206285,-976078.493495,-166.130885107,2.81480000542
0.0,0.68317332965,-978342.044738,223,1.03793185854,22462.0586924,0.886417430685,-86.4714399265,157.23769601445792,12.1395567404,-115.480889191,204,-85.4720883953,0.00918664017113,-955879.986046,-157.278897601,2.82337183975
0.0,0.67274182879,-2615297.10915,224,1.02254489777,17525.232371,0.793304642887,-83.2111156125,159.79080062846143,20.4949312335,-117.630443853,204,-86.4847083631,0.00740180708104,-2597771.87678,-247.815693293,2.78026124907
0.0,0.659049605164,-633773.218707,225,1.00198205928,14147.9236643,0.875380357162,-84.0697864726,155.36105302864914,11.6752720563,-113.349139147,204,-84.0783589269,0.0053249261488,-619625.295043,-149.555535363,2.72367496718
0.0,0.640845035083,-754088.090193,226,0.973970926976,25122.0029979,0.885932800487,-88.7152049014,155.73255236515922,11.6631028977,-112.963107322,204,-83.6041616462,0.00915391881332,-728966.087195,-162.079269705,2.64844036962
0.0,0.637417474085,-766756.721637,227,0.96860807046,19229.4033823,0.886290909683,-79.4524825558,157.07827654517953,11.7134461536,-112.387449566,204,-83.5980043509,0.0064476449231,-747527.318254,-148.995825268,2.63427518082
0.0,0.654410709092,-622733.481958,228,0.994918404127,13302.999321,0.874448676929,-83.2209083558,154.7982032149659,12.2460053107,-110.970089317,204,-82.7685725691,0.00482055305443,-609430.482637,-144.600192333,2.70450365594
0.0,0.646456761313,-845973.377413,229,0.982689569011,19940.5728892,0.870679712684,-82.833917167,153.62232283863273,12.1844266054,-110.686244784,204,-82.3088072636,0.00687730654278,-826032.804524,-149.522052108,2.67163212656
0.0,0.654696695993,-1150413.15047,230,0.99535532306,16414.3332671,0.869301545154,-82.7283683796,154.84842562007083,12.3698549663,-111.649222607,204,-82.8029175592,0.0066398860111,-1133998.8172,-167.698888046,2.70568556297
0.0,0.661697347107,-685126.762957,231,1.00599152602,19551.5191105,0.868662465619,-79.765148356,154.62976573245217,12.6088579563,-113.541754926,204,-83.7092144506,0.00696317937465,-665575.243847,-143.853877165,2.73461737333
0.0,0.681517989005,-656758.683159,232,1.0355059012,23216.4253546,0.878832597787,-83.9677165907,154.05877001656197,12.0010316846,-113.091790068,204,-83.7316928375,0.00966972694087,-633542.257805,-152.650157127,2.81653076156
0.0,0.687101715853,-1252410.55023,233,1.0436655935,21783.0581051,0.863811404888,-89.4760319987,158.21791892207804,13.8050657739,-117.546609918,204,-85.906582135,0.00952446426482,-1230627.49213,-184.395947179,2.83960680458
0.0,0.716075688036,-2505045.42074,234,1.08496912514,18967.286225,0.848205330937,-85.6170732074,157.81920624780165,16.0357533784,-120.317770798,204,-87.4983180178,0.0091699991798,-2486078.13452,-245.606088962,2.95934844787
0.0,0.715714390191,-1654603.42632,235,1.08446444522,16757.1688433,0.86465968638,-86.9917815094,158.40104553186313,14.9103708563,-121.255810027,204,-88.1534305151,0.00689321587268,-1637846.25747,-211.660884753,2.95785530094
0.0,0.692486159826,-749841.429008,236,1.05147150627,21401.3813195,0.878495017179,-90.2634849185,156.08691698355352,12.5785180437,-119.444515286,204,-87.199235035,0.0076911854654,-728440.047688,-156.481476008,2.86185926501
0.0,0.678035468461,-2435380.39625,237,1.03038285416,17030.6637643,0.811770225663,-84.4609933012,159.2307887773275,19.2635044679,-121.851150148,204,-88.4556337754,0.00713261009484,-2418349.73249,-249.124561868,2.80213843972
0.0,0.661035028842,-1692849.22172,238,1.00499008638,14640.7167771,0.838855341235,-81.6362256818,156.89624552214013,16.000775657,-117.557348028,204,-85.762282717,0.00663051389194,-1678208.50495,-206.341846352,2.73188018987
0.0,0.685010790738,-905834.776268,239,1.04061784526,21748.5552434,0.852968994397,-83.5466326534,152.3456664319867,14.218041186,-114.621816881,204,-84.4493300582,0.00881588485621,-884086.221024,-172.921587073,2.83096557279
0.0,0.721895198643,-979228.76432,240,1.09306322835,17933.4828559,0.875015297443,-87.8292805993,155.53614773534235,13.4917724121,-121.294180928,204,-88.4629840467,0.00670126082066,-961295.281464,-181.388401399,2.98339892182
0.0,0.703325982721,-755246.350535,241,1.06700374086,22741.0691579,0.867705660681,-87.2435278893,154.05566473627147,13.3024337808,-117.897164349,204,-86.2334265278,0.00877194245115,-732505.281377,-156.06220764,2.90665734096
0.0,0.709372589648,-1023460.12296,242,1.07556415703,16175.8198855,0.861285736546,-88.5347111311,157.20188322011037,14.1529640022,-120.582914979,204,-87.7005164427,0.00614730033388,-1007284.30308,-163.960583318,2.93164634299
0.0,0.712740857912,-590229.298352,243,1.08030115543,18578.9603727,0.8737171649,-84.6621514262,155.04172909269656,13.212398559,-118.621769161,203,-86.7941123849,0.00679881952801,-571650.337979,-163.103703047,2.94556649086
0.0,0.712319076802,-727135.23846,244,1.07970920683,24774.8257834,0.883672333353,-85.7049449515,156.1650148285475,12.3265020802,-117.723509396,204,-86.3154948176,0.00898859187646,-702360.412677,-156.272238002,2.94382338284
0.0,0.736267107341,-2453532.36053,245,1.1127762247,16042.8598974,0.856702033122,-91.5600917851,159.18420569462057,15.4038677053,-120.991907578,204,-88.008685233,0.00692350178775,-2437489.50063,-239.155177503,3.04279415952
0.0,0.721385993411,-695087.416846,246,1.09235760666,21371.1352367,0.878311164729,-89.8165899109,157.5807187769455,13.0086195606,-120.36183526,204,-87.5939688556,0.0071171980981,-673716.28161,-156.425194227,2.9812945134
0.0,0.709156487995,-786962.026786,247,1.07525947289,23759.3962264,0.864985203587,-84.0417153384,158.43144744025855,14.0608926035,-120.675543391,204,-87.9484010437,0.0094304266498,-763202.63056,-159.398530689,2.93075325291
0.0,0.731642937416,-2142394.20122,248,1.10647585876,14478.0324145,0.854791503407,-93.717739904,161.85684626181134,17.3005611315,-126.917591124,204,-91.925539387,0.00648700016236,-2127916.16881,-233.470615305,3.02368370748
0.0,0.717825131791,-2376548.67638,249,1.08740924457,18922.9017445,0.845379926922,-89.6294394359,155.91414912151967,16.0297382321,-120.866392899,204,-88.2063314759,0.0077052726698,-2357625.77463,-230.959395092,2.96657842893
0.0,0.732622740445,-1397405.36521,250,1.10781414482,23170.1874278,0.88504582493,-93.9843219259,155.38526809704175,12.886816721,-121.031707853,204,-88.1994114981,0.00983604436865,-1374235.17778,-201.646952608,3.02773297018
0.0,0.703063647331,-1494026.19765,251,1.06663067868,22371.7159873,0.846937826842,-84.2659618086,154.29848420374742,15.7406375703,-118.38740007,204,-86.6542631776,0.00966705236911,-1471654.48166,-192.25332224,2.90557317927
0.0,0.719379018135,-2082010.43731,252,1.08957161927,14648.9907708,0.852716444665,-86.5308813845,157.40949429423253,15.467995564,-120.949012467,204,-88.1053333861,0.0068393127585,-2067361.44654,-222.818370029,2.97300022374
0.0,0.688803765492,-748012.106241,253,1.04613967406,19906.160938,0.861674055099,-85.6575228865,155.2290298811117,13.7870688266,-118.285661858,204,-86.4182488609,0.00676033689161,-728105.945303,-157.952736427,2.84664091849
0.0,0.666874757074,-770663.23781,254,1.013785512,18917.0019004,0.881265906622,-85.5683734376,154.51123432234553,12.2192448508,-114.795924654,204,-84.6550689477,0.00667451211828,-751746.235909,-152.009751802,2.75601421783
0.0,0.6660186394,-1120029.72816,255,1.01250091146,17862.5018299,0.885140161268,-85.6839363299,155.7362271753094,12.4811027965,-115.468216674,204,-85.2277160622,0.00741509584149,-1102167.22633,-171.357124196,2.75247611348
